timestep	temperature	potential_energy	kinetic_energy	pressure	num_particles
0	2.526368437	-11694.50682	7757.214287	0.508818892	2048
100	2.05075044	-9025.784629	6296.829225	9.025683505	2048
200	2.983950717	-7144.735258	9162.220676	14.74868461	2048
300	3.393307209	-6226.433989	10419.14979	17.67068235	2048
400	2.586554143	-7468.84331	7942.014497	13.66621469	2048
500	1.873188519	-8717.606796	5751.625348	9.741625767	2048
600	1.818025121	-8839.308218	5582.246135	9.308774781	2048
700	2.423081399	-7818.15455	7440.071434	12.68419309	2048
800	3.238548514	-6335.59833	9943.963213	17.20652713	2048
900	3.047475553	-6788.166485	9357.273685	15.9383447	2048
1000	2.162355786	-8078.444149	6639.513441	11.82204631	2048
1100	1.853163384	-8885.212517	5690.13817	9.389282376	2048
1200	2.068655125	-8348.178462	6351.805562	11.01931056	2048
1300	2.880346833	-7206.100556	8844.104951	14.79416692	2048
1400	3.245351343	-6415.779446	9964.851298	17.18482371	2048
1500	2.60993903	-7409.051095	8013.817791	14.10695408	2048
1600	2.001514799	-8532.283307	6145.65119	10.4631595	2048
1700	1.90687806	-8617.89101	5855.069084	10.1490939	2048
1800	2.454629812	-7956.539734	7536.940836	12.4265149	2048
1900	3.133185513	-6786.190426	9620.446118	16.03413148	2048
2000	2.968481328	-6871.162651	9114.721919	15.71943904	2048
2100	2.268884965	-8002.24525	6966.611284	12.09560617	2048
2200	1.921292549	-8611.125276	5899.328773	10.26468578	2048
2300	2.150675075	-8362.805217	6603.647817	11.0328766	2048
2400	2.766047319	-7243.434235	8493.148293	14.52312142	2048
2500	3.025547837	-6411.927627	9289.944632	16.90010989	2048
2600	2.608028734	-7380.72271	8007.952228	14.05564616	2048
2700	2.070067156	-8299.180657	6356.141202	11.17188828	2048
2800	2.017693288	-8520.857188	6195.327241	10.46949872	2048
2900	2.480125699	-7973.364127	7615.225959	12.42336291	2048
3000	2.954257003	-6744.414167	9071.046127	16.00608092	2048
3100	2.88808569	-6903.011887	8867.867111	15.54498517	2048
3200	2.326363693	-7884.136121	7143.099718	12.4033454	2048
3300	2.010283409	-8430.879618	6172.575208	10.85720589	2048
3400	2.178593974	-8171.000577	6689.372796	11.56900167	2048
3500	2.702688376	-7238.575563	8298.604658	14.55656275	2048
3600	3.012267743	-6745.317387	9249.168106	16.05363727	2048
3700	2.581327239	-7299.221744	7925.965288	14.35468468	2048
3800	2.126506269	-8173.858681	6529.437498	11.51889324	2048
3900	2.043662782	-8259.019088	6275.066572	11.17282606	2048
4000	2.519616507	-7980.68754	7736.482485	12.41720643	2048
4100	2.963658547	-7160.533042	9099.913569	14.98772514	2048
4200	2.803360476	-7072.593408	8607.718341	14.9484644	2048
4300	2.326920097	-7898.092404	7144.808157	12.47887306	2048
4400	2.091834964	-8370.901129	6422.979257	11.00216183	2048
4500	2.297661976	-8203.26638	7054.971097	11.70479609	2048
4600	2.703857449	-7278.507602	8302.194297	14.40222968	2048
4700	2.969615197	-7102.219514	9118.203463	15.14676177	2048
4800	2.51470275	-7400.223615	7721.394794	13.96004376	2048
4900	2.181583586	-8171.750125	6698.552402	11.6149245	2048
5000	2.167948634	-8260.825454	6656.686281	11.32099061	2048
5100	2.516184993	-7772.996702	7725.946021	12.96550576	2048
5200	2.875344287	-7180.558903	8828.744634	14.90344662	2048
5300	2.725414248	-7228.123256	8368.384449	14.7357251	2048
5400	2.360654946	-7886.097976	7248.391011	12.43763521	2048
5500	2.173967301	-8278.438865	6675.166597	11.29076064	2048
5600	2.287403945	-7913.194098	7023.473812	12.43443784	2048
5700	2.673587072	-7342.55648	8209.249105	14.17000049	2048
5800	2.764591904	-6956.405566	8488.67944	15.25075827	2048
5900	2.548933365	-7649.592276	7826.499896	13.33221264	2048
6000	2.218863102	-8063.301292	6813.019156	11.85589829	2048
6100	2.191346725	-7982.252106	6728.530119	12.13162831	2048
6200	2.506341013	-7595.535477	7695.72008	13.42974891	2048
6300	2.824720578	-7289.75611	8673.304534	14.48353482	2048
6400	2.711076034	-7442.38605	8324.358963	13.93052289	2048
6500	2.339146382	-7875.246729	7182.348967	12.5130852	2048
6600	2.228634198	-8255.888817	6843.021304	11.43073395	2048
6700	2.339344964	-7852.917863	7182.958713	12.63901709	2048
6800	2.656465324	-7324.303539	8156.676776	14.25096686	2048
6900	2.753418988	-7177.398873	8454.373004	14.62624555	2048
7000	2.497173768	-7532.182967	7667.572056	13.57052679	2048
7100	2.217238906	-7906.598758	6808.03206	12.23882548	2048
7200	2.291865129	-8112.232904	7037.171878	11.82437391	2048
7300	2.554952604	-7738.192701	7844.98197	13.05823593	2048
7400	2.76448677	-7349.776438	8488.356626	14.32459226	2048
7500	2.637734829	-7370.803185	8099.164793	14.01582069	2048
7600	2.365303243	-7775.288793	7262.663607	12.76704106	2048
7700	2.267650972	-8097.289143	6962.822309	11.85212515	2048
7800	2.425889127	-7934.099806	7448.692565	12.46542485	2048
7900	2.646789594	-7365.300127	8126.967447	14.10348999	2048
8000	2.705862664	-7246.777779	8308.35131	14.4682029	2048
8100	2.492789019	-7615.681398	7654.108682	13.31196363	2048
8200	2.331085817	-8109.421903	7157.599001	11.85547336	2048
8300	2.270836377	-7908.512312	6972.603097	12.36091959	2048
8400	2.48821849	-7556.803148	7640.074875	13.5718667	2048
8500	2.705938208	-7267.640279	8308.583268	14.46782701	2048
8600	2.629082442	-7403.94112	8072.597637	13.92365716	2048
8700	2.368667726	-7768.979792	7272.994254	12.73621002	2048
8800	2.267853021	-8059.208703	6963.442702	11.98716322	2048
8900	2.38055795	-7859.332369	7309.503187	12.59679613	2048
9000	2.63608726	-7465.641606	8094.105932	13.85618926	2048
9100	2.705252559	-7264.639651	8306.477981	14.39600358	2048
9200	2.573391633	-7766.266373	7901.599008	12.99645209	2048
9300	2.268424226	-7899.013439	6965.196586	12.36091911	2048
9400	2.31860121	-8097.251562	7119.265016	11.85767942	2048
9500	2.484079438	-7613.312862	7627.365915	13.27963975	2048
9600	2.713466104	-7349.802176	8331.697672	14.30360317	2048
9700	2.686817973	-7554.437103	8249.874586	13.63109867	2048
9800	2.374052616	-7700.071678	7289.528558	13.04943316	2048
9900	2.302005341	-8043.800441	7068.307399	11.96260148	2048
10000	2.414771935	-7904.187076	7414.557227	12.43100244	2048
10100	2.588840358	-7407.976239	7949.03432	13.95786622	2048
10200	2.712252026	-7439.904372	8327.969847	13.92873538	2048
10300	2.539280437	-7698.732674	7796.860581	13.15071876	2048
10400	2.340246046	-7985.095226	7185.725484	12.31400074	2048
10500	2.296301278	-7876.675682	7050.793075	12.48230247	2048
10600	2.504726392	-7607.858427	7690.762386	13.35913554	2048
10700	2.63940192	-7266.807799	8104.283596	14.36666404	2048
10800	2.623284659	-7602.799274	8054.795547	13.45585489	2048
10900	2.368945384	-7747.752836	7273.846802	12.80270234	2048
11000	2.340077322	-8015.639455	7185.207416	12.15453725	2048
11100	2.443621335	-7813.297729	7503.139309	12.73244711	2048
11200	2.614353873	-7412.453029	8027.373567	13.95101137	2048
11300	2.680503646	-7421.849266	8230.486446	13.91064333	2048
11400	2.501733398	-7693.865001	7681.572398	13.14054417	2048
11500	2.283363712	-7802.240795	7011.068276	12.69155662	2048
11600	2.335515401	-7868.284948	7171.200039	12.55697407	2048
11700	2.486509283	-7484.587085	7634.826754	13.6829237	2048
11800	2.660554484	-7375.807144	8169.232544	14.13510066	2048
11900	2.523337064	-7381.195582	7747.906454	14.00334404	2048
12000	2.351767374	-7656.49894	7221.101723	13.14413414	2048
12100	2.338868999	-7873.112354	7181.49726	12.46211547	2048
12200	2.491991306	-7805.94174	7651.659304	12.81324737	2048
12300	2.63239059	-7533.773257	8082.755306	13.67459752	2048
12400	2.623330488	-7474.699879	8054.936265	13.78932065	2048
12500	2.495516701	-7738.566125	7662.484031	13.0732984	2048
12600	2.357742035	-7875.335931	7239.44692	12.59929621	2048
12700	2.390026458	-7793.664306	7338.576239	12.76155319	2048
12800	2.502655078	-7478.033648	7684.402416	13.65877748	2048
12900	2.646473674	-7523.193753	8125.997417	13.64467702	2048
13000	2.496184203	-7442.829665	7664.533595	13.8281897	2048
13100	2.414624852	-7806.172013	7414.105608	12.79438868	2048
13200	2.37104653	-7868.131382	7280.298371	12.52401992	2048
13300	2.451657662	-7701.008774	7527.814852	13.11401375	2048
13400	2.59252756	-7476.603753	7960.355874	13.84892456	2048
13500	2.637162697	-7556.404719	8097.408061	13.66954074	2048
13600	2.434745541	-7553.941503	7475.886184	13.44768684	2048
13700	2.349902017	-7751.92641	7215.374145	12.81677799	2048
13800	2.394754997	-7691.40153	7353.095217	13.03187227	2048
13900	2.547231258	-7556.297515	7821.273579	13.57841533	2048
14000	2.572341564	-7411.480259	7898.374771	13.91597566	2048
14100	2.524170386	-7673.668271	7750.46517	13.20910216	2048
14200	2.39310964	-7763.885737	7348.04315	12.89283096	2048
14300	2.368268898	-7743.350025	7271.769653	12.89962128	2048
14400	2.48676215	-7715.610272	7635.603181	13.08195416	2048
14500	2.5814275	-7546.788207	7926.273138	13.59940607	2048
14600	2.550965397	-7538.028389	7832.739251	13.53052931	2048
14700	2.453213932	-7702.756416	7532.593377	13.07291623	2048
14800	2.422665333	-7877.048578	7438.793903	12.57415499	2048
14900	2.414587776	-7610.597436	7413.991766	13.20286528	2048
15000	2.579342876	-7685.965887	7919.872302	13.28096337	2048
15100	2.550953644	-7512.97953	7832.703163	13.6773101	2048
15200	2.485835456	-7672.17638	7632.757768	13.17813689	2048
15300	2.364830074	-7696.00857	7261.210742	13.02364139	2048
15400	2.427862324	-7789.436456	7454.751266	12.84412468	2048
15500	2.517905905	-7592.426082	7731.230081	13.40553993	2048
15600	2.583685323	-7529.913424	7933.205783	13.62040807	2048
15700	2.531623279	-7593.481239	7773.349279	13.50096339	2048
15800	2.457752446	-7811.149174	7546.528886	12.72626034	2048
15900	2.431540258	-7897.446759	7466.044361	12.51751933	2048
16000	2.473885044	-7695.81255	7596.064027	13.16030863	2048
16100	2.634210127	-7749.325461	8088.342196	13.22418131	2048
16200	2.617191694	-7689.082409	8036.087098	13.32733558	2048
16300	2.507138628	-7778.421222	7698.169159	12.95466232	2048
16400	2.399642048	-7783.617556	7368.100907	12.80663058	2048
16500	2.430711191	-7766.702149	7463.498713	12.84966763	2048
16600	2.516400191	-7603.327933	7726.606787	13.44569843	2048
16700	2.528908143	-7405.446238	7765.012452	13.98233718	2048
16800	2.498429146	-7574.0643	7671.426694	13.4662987	2048
16900	2.465239785	-7870.050102	7569.518761	12.74723874	2048
17000	2.432249076	-7873.126361	7468.220787	12.64319633	2048
17100	2.469483432	-7652.368505	7582.548876	13.11787302	2048
17200	2.615183973	-7744.933825	8029.92239	13.18095677	2048
17300	2.508121673	-7465.993616	7701.187597	13.66438769	2048
17400	2.438065105	-7649.759078	7486.078906	13.19104876	2048
17500	2.436740664	-7834.922961	7482.01221	12.70125161	2048
17600	2.472278956	-7751.857808	7591.132534	13.00188588	2048
17700	2.500062576	-7537.523101	7676.442139	13.53427294	2048
17800	2.520908454	-7496.988781	7740.449407	13.65607565	2048
17900	2.525854841	-7735.83372	7755.63729	13.00808734	2048
18000	2.456669681	-7823.698496	7543.204257	12.76554809	2048
18100	2.435853519	-7783.405448	7479.288229	12.75414178	2048
18200	2.501633125	-7734.399695	7681.26451	13.098315	2048
18300	2.545448864	-7564.927591	7815.800737	13.55021325	2048
18400	2.552698834	-7598.737678	7838.061769	13.5027775	2048
18500	2.499677323	-7742.493852	7675.25922	13.04061854	2048
18600	2.47367473	-7903.405633	7595.418258	12.65432818	2048
18700	2.460441147	-7758.647631	7554.784541	12.90748006	2048
18800	2.491268663	-7530.519902	7649.440428	13.53905053	2048
18900	2.571986294	-7619.85188	7897.283915	13.36089546	2048
19000	2.465573575	-7551.906496	7570.543661	13.47250253	2048
19100	2.469514771	-7832.576777	7582.645103	12.7745734	2048
19200	2.444604655	-7768.538539	7506.158592	12.89066198	2048
19300	2.503621332	-7656.903678	7687.369301	13.1903222	2048
19400	2.505757524	-7424.251859	7693.928477	13.76997399	2048
19500	2.497129163	-7482.306942	7667.435095	13.6560336	2048
19600	2.494157203	-7844.437689	7658.309692	12.73621735	2048
19700	2.416902229	-7810.019581	7421.098293	12.72116057	2048
19800	2.482007834	-7766.186058	7621.005053	12.95639091	2048
19900	2.56509943	-7633.469203	7876.137799	13.31640983	2048
20000	2.544114295	-7445.409836	7811.702942	13.77416373	2048
20100	2.495837247	-7621.815535	7663.468268	13.36036675	2048
20200	2.437187352	-7802.450223	7483.383765	12.73515026	2048
20300	2.361631604	-7617.358033	7251.389841	13.19130715	2048
20400	2.503632796	-7692.548353	7687.404501	13.16929627	2048
20500	2.620442258	-7733.394266	8046.067952	13.2291036	2048
20600	2.515768327	-7479.075642	7724.666649	13.73387437	2048
20700	2.482048515	-7687.44868	7621.129965	13.15999115	2048
20800	2.479062197	-7919.293664	7611.960476	12.56707665	2048
20900	2.399851629	-7659.512186	7368.744427	13.18388016	2048
21000	2.489667118	-7583.169206	7644.522886	13.36017781	2048
21100	2.538529262	-7448.935921	7794.554099	13.83831374	2048
21200	2.547987154	-7633.756296	7823.594555	13.37171665	2048
21300	2.489950439	-7833.97965	7645.392824	12.80944753	2048
21400	2.432519796	-7823.678203	7469.052033	12.70636191	2048
21500	2.455555001	-7696.111823	7539.78163	13.07158046	2048
21600	2.517847937	-7582.335092	7731.052091	13.40306852	2048
21700	2.56393542	-7651.017411	7872.563709	13.33467289	2048
21800	2.530554546	-7737.695552	7770.067733	13.09319286	2048
21900	2.419458966	-7628.527677	7428.948756	13.17958746	2048
22000	2.456028087	-7719.21608	7541.234241	13.04790845	2048
22100	2.528753163	-7739.806499	7764.536586	13.05982092	2048
22200	2.570826587	-7755.321557	7893.723036	13.05979829	2048
22300	2.491881181	-7604.322832	7651.321167	13.39040772	2048
22400	2.46757055	-7664.362622	7576.675375	13.22746828	2048
22500	2.484369973	-7800.403425	7628.258002	12.91641598	2048
22600	2.526446913	-7848.820707	7757.455247	12.82257316	2048
22700	2.567395919	-7872.717807	7883.189169	12.77071989	2048
22800	2.51797533	-7709.538703	7731.443251	13.12368474	2048
22900	2.452855716	-7554.723513	7531.493476	13.41428277	2048
23000	2.460988736	-7635.393385	7556.465913	13.30565584	2048
23100	2.472087535	-7658.122443	7590.544777	13.19280414	2048
23200	2.464393183	-7618.154724	7566.919268	13.21545153	2048
23300	2.48507095	-7651.35189	7630.410353	13.22677688	2048
23400	2.473446778	-7621.589755	7594.718331	13.29714828	2048
23500	2.489248079	-7685.731895	7643.236228	13.17683826	2048
23600	2.491085145	-7732.404089	7648.876937	13.13637526	2048
23700	2.492548956	-7679.148888	7653.371568	13.23017894	2048
23800	2.539358652	-7787.592078	7797.100742	12.94145212	2048
23900	2.494701711	-7697.393799	7659.981604	13.21048455	2048
24000	2.486580088	-7692.286474	7635.044159	13.10396761	2048
24100	2.475044918	-7674.736003	7599.62542	13.09966537	2048
24200	2.510986703	-7819.136273	7709.98467	12.84764156	2048
24300	2.474867929	-7685.071862	7599.081976	13.13515449	2048
24400	2.497070562	-7619.946905	7667.255161	13.24029761	2048
24500	2.534800853	-7665.965978	7783.106018	13.20396344	2048
24600	2.492197527	-7632.91271	7652.292505	13.28536449	2048
24700	2.466235653	-7726.547899	7572.576573	12.97833935	2048
24800	2.47746209	-7802.738179	7607.047347	12.77239956	2048
24900	2.476936205	-7654.241463	7605.432618	13.19652833	2048
25000	2.531640833	-7651.367197	7773.403178	13.29037444	2048
25100	2.534315839	-7706.500829	7781.616784	13.09545766	2048
25200	2.493614619	-7773.949009	7656.643687	12.97676175	2048
25300	2.507426004	-7913.748937	7699.051547	12.57209136	2048
25400	2.491055497	-7772.456147	7648.785903	12.87666434	2048
25500	2.494153233	-7610.784127	7658.297503	13.31625777	2048
25600	2.518514519	-7649.54548	7733.098832	13.3358235	2048
25700	2.516243732	-7720.212787	7726.12638	13.16488004	2048
25800	2.458128884	-7680.220351	7547.684737	13.17997963	2048
25900	2.488922768	-7808.190274	7642.237358	12.82629122	2048
26000	2.528430465	-7822.600633	7763.545744	12.88651145	2048
26100	2.497045728	-7608.588623	7667.178907	13.40081906	2048
26200	2.512876817	-7624.948955	7715.788266	13.21853737	2048
26300	2.508798415	-7753.216034	7703.265533	12.92247804	2048
26400	2.43224379	-7632.990278	7468.204558	13.20830774	2048
26500	2.444017886	-7681.314604	7504.35692	13.01484994	2048
26600	2.482899142	-7715.925808	7623.741816	12.99786655	2048
26700	2.545707898	-7734.591635	7816.596101	13.07783467	2048
26800	2.541034294	-7703.310941	7802.245801	13.15383738	2048
26900	2.55047644	-7815.918311	7831.237908	12.87433361	2048
27000	2.448346171	-7608.438033	7517.646919	13.29390589	2048
27100	2.470949712	-7681.171709	7587.051091	13.1270124	2048
27200	2.517676282	-7722.117061	7730.525024	13.0558762	2048
27300	2.534675231	-7748.325357	7782.720296	13.1221449	2048
27400	2.496518286	-7697.035784	7665.559396	13.27155216	2048
27500	2.438368822	-7544.289334	7487.011468	13.46064535	2048
27600	2.435025141	-7502.480681	7476.744696	13.58407134	2048
27700	2.438040209	-7483.520279	7486.002462	13.62379852	2048
27800	2.498378561	-7628.27955	7671.27137	13.24639231	2048
27900	2.506210231	-7667.127523	7695.318516	13.22837421	2048
28000	2.484105957	-7699.470624	7627.447341	13.15111032	2048
28100	2.441712045	-7635.087962	7497.276835	13.21548586	2048
28200	2.510984821	-7752.070204	7709.978894	13.01596057	2048
28300	2.536262358	-7699.199901	7787.593571	13.16474217	2048
28400	2.521096757	-7647.916471	7741.027591	13.28995095	2048
28500	2.519348634	-7731.166794	7735.659982	13.05112253	2048
28600	2.48788269	-7725.020533	7639.043801	13.05462134	2048
28700	2.494562962	-7774.197589	7659.555576	12.91466745	2048
28800	2.499321532	-7731.990247	7674.166763	13.02360347	2048
28900	2.515821879	-7611.460431	7724.831081	13.35089607	2048
29000	2.491512012	-7534.737758	7650.187633	13.56219106	2048
29100	2.497520739	-7683.746536	7668.63743	13.15724412	2048
29200	2.450330704	-7723.794669	7523.740427	12.99435662	2048
29300	2.459387861	-7750.419438	7551.550428	12.97174581	2048
29400	2.513427293	-7665.074125	7717.478504	13.29961615	2048
29500	2.588885878	-7691.526656	7949.174089	13.12414591	2048
29600	2.544947169	-7698.900377	7814.260283	13.11724013	2048
29700	2.469276333	-7744.821988	7581.912981	13.05902141	2048
29800	2.419861365	-7702.408921	7430.184321	12.97900986	2048
29900	2.472021682	-7702.381767	7590.342574	13.1375992	2048
30000	2.488749913	-7502.608405	7641.706609	13.60196409	2048
