timestep	temperature	potential_energy	kinetic_energy	pressure	num_particles
0	1.277184024	-1221.494013	1913.860259	-0.2892812913	1000
1000	1.373351784	-1937.439847	2057.967649	0.2978835763	1000
2000	1.28144142	-1971.941886	1920.239968	0.2906935505	1000
3000	1.221400259	-2029.73259	1830.268288	0.2212446664	1000
4000	1.266793777	-1999.556666	1898.290475	0.156608846	1000
5000	1.239856459	-2014.43952	1857.924904	0.1839126327	1000
6000	1.269616421	-1983.178948	1902.520207	0.1125053297	1000
7000	1.22785081	-1933.579165	1839.934439	0.1959667593	1000
8000	1.2363967	-1956.515978	1852.740455	0.2339023166	1000
9000	1.228518359	-1972.033661	1840.934761	0.2158159338	1000
10000	1.22814325	-1957.125803	1840.37266	0.2254073477	1000
11000	1.192639373	-2049.450552	1787.1701	0.1044761124	1000
12000	1.211540727	-2031.838338	1815.493779	0.1647394296	1000
13000	1.273977904	-2038.795931	1909.05589	0.1907429363	1000
14000	1.265759374	-2045.812445	1896.740422	0.1787710285	1000
15000	1.253509647	-2053.02288	1878.384207	0.1747393572	1000
16000	1.238062443	-2012.977656	1855.236571	0.1973109227	1000
17000	1.295671871	-1940.442381	1941.564299	0.269561858	1000
18000	1.341749579	-1988.643005	2010.611744	0.2446011023	1000
19000	1.254322797	-2036.239595	1879.602711	0.211913553	1000
20000	1.198311254	-1992.486751	1795.669414	0.1793362722	1000
21000	1.194894789	-1987.06037	1790.549841	0.162370936	1000
22000	1.235324234	-1968.769078	1851.133365	0.1306996136	1000
23000	1.296404161	-2006.196063	1942.661635	0.2571952486	1000
24000	1.22859105	-1981.492572	1841.043688	0.1659300597	1000
25000	1.254249667	-2023.722226	1879.493126	0.2401095856	1000
26000	1.255865222	-2012.234974	1881.914035	0.1697422962	1000
27000	1.202846173	-1966.148752	1802.46499	0.2295251022	1000
28000	1.23281487	-2107.657885	1847.373082	0.1947526329	1000
29000	1.238425201	-2040.263204	1855.780164	0.1865085876	1000
30000	1.255854702	-2006.303024	1881.898271	0.1887092541	1000
