timestep	temperature	potential_energy	kinetic_energy	pressure	num_particles
0	0.5108736095	-3245.382956	765.5441038	-2.189567541	1000
1000	0.4889650931	-4757.219929	732.714192	-0.457306527	1000
2000	0.4998498022	-5037.842326	749.0249286	-0.1944791163	1000
3000	0.5036407859	-5121.33179	754.7057177	-0.2376882071	1000
4000	0.5125092653	-5230.740666	767.9951341	-0.2394335711	1000
5000	0.4890291491	-5293.097405	732.8101799	-0.2374771852	1000
6000	0.5156838597	-5276.257913	772.7522638	-0.2473361206	1000
7000	0.5024133095	-5400.287098	752.8663443	-0.1153032711	1000
8000	0.5189004669	-5329.440041	777.5723497	-0.2409598675	1000
9000	0.5162719496	-5327.330775	773.6335165	-0.2085048728	1000
10000	0.4974826867	-5346.639905	745.4778061	-0.2995857418	1000
11000	0.4964917682	-5280.139179	743.9929147	-0.1700696715	1000
12000	0.5194861837	-5307.57427	778.4500463	-0.3581274523	1000
13000	0.49536014	-5363.310189	742.2971697	-0.1876501684	1000
14000	0.5027780287	-5353.925115	753.4128759	-0.05155587661	1000
15000	0.5150025573	-5347.808144	771.7313321	-0.1103081149	1000
16000	0.5154878052	-5363.603513	772.458476	-0.03175882785	1000
17000	0.5026079181	-5378.470811	753.1579653	-0.0999084196	1000
18000	0.4898374139	-5305.786133	734.0213647	-0.2663824376	1000
19000	0.4943787085	-5385.116018	740.8264948	-0.1886557128	1000
20000	0.5036060683	-5380.055715	754.6536934	-0.1364641946	1000
21000	0.4937151842	-5329.80759	739.8322036	-0.1201179544	1000
22000	0.4820777939	-5356.324822	722.3935742	-0.31540096	1000
23000	0.4924417714	-5388.501204	737.9239945	-0.05958860567	1000
24000	0.5200283779	-5417.312678	779.2625243	-0.02783351852	1000
25000	0.5045593062	-5365.051394	756.0821203	-0.222325306	1000
26000	0.5023783452	-5358.384039	752.8139503	-0.05685265651	1000
27000	0.5231197947	-5385.133613	783.8950123	-0.1251099711	1000
28000	0.4899764373	-5334.873503	734.2296912	-0.1476700114	1000
29000	0.5056714157	-5403.130215	757.7486164	-0.2286374392	1000
30000	0.4884197643	-5340.305194	731.8970167	-0.2123861929	1000
