0.000000000000000000e+00 -1.549019599857431873e-01
6.050739648607512955e-02 -1.920858758326023930e-01
1.210147929721502591e-01 -4.789830786902126714e-01
1.815221894582253748e-01 -1.889111151286662960e+00
2.420295859443005182e-01 -3.624932642153053219e+00
3.025369824303756339e-01 -3.799115275362422661e+00
3.630443789164507495e-01 -3.753060677570548620e+00
4.235517754025258652e-01 -3.753426782192035294e+00
4.840591718886010364e-01 -3.731694597379524136e+00
5.445665683746760966e-01 -3.649429785042742402e+00
6.050739648607512677e-01 -3.661096964440257562e+00
6.655813613468263279e-01 -3.772392391315847249e+00
7.260887578329014991e-01 -3.860173265127939235e+00
7.865961543189766703e-01 -3.861247825169648706e+00
8.471035508050517304e-01 -3.758873863065492760e+00
9.076109472911267906e-01 -3.651574464748542415e+00
9.681183437772020728e-01 -3.644455328008068040e+00
1.028625740263277244e+00 -3.765603393481744554e+00
1.089133136749352193e+00 -3.907143890638907990e+00
1.149640533235427364e+00 -3.924224147439607346e+00
1.210147929721502535e+00 -3.891272825342483088e+00
1.270655326207577707e+00 -3.851530574151205588e+00
1.331162722693652656e+00 -3.808657417154942326e+00
1.391670119179727827e+00 -3.767284015758317839e+00
1.452177515665802998e+00 -3.701031581816028204e+00
1.512684912151878169e+00 -3.571639646224256559e+00
1.573192308637953341e+00 -3.404066470767604713e+00
1.633699705124028290e+00 -3.238674454331301522e+00
1.694207101610103461e+00 -3.100372021537852074e+00
1.754714498096178854e+00 -2.966039097107874944e+00
1.815221894582253581e+00 -2.843079611293731102e+00
1.875729291068328752e+00 -2.784530871280857411e+00
1.936236687554404146e+00 -2.760078434470268238e+00
1.996744084040479317e+00 -2.768079146560300519e+00
2.057251480526554488e+00 -2.787784478938752031e+00
2.117758877012629437e+00 -2.847384053045778352e+00
2.178266273498704386e+00 -2.911888228484030172e+00
2.238773669984779779e+00 -2.958104849583557794e+00
2.299281066470854729e+00 -2.995010876711525327e+00
2.359788462956929678e+00 -3.040776404533742650e+00
2.420295859443005071e+00 -3.059923132947305113e+00
2.480803255929080020e+00 -3.027782291966586214e+00
2.541310652415155413e+00 -2.997790594920836327e+00
2.601818048901230362e+00 -3.020946360463786284e+00
2.662325445387305312e+00 -3.078690534219807873e+00
2.722832841873380705e+00 -3.139358365306867515e+00
2.783340238359455654e+00 -3.189616627855983655e+00
2.843847634845531047e+00 -3.219837600053877757e+00
2.904355031331605996e+00 -3.190830800447246318e+00
2.964862427817680945e+00 -3.156630294926138003e+00
3.025369824303756339e+00 -3.114064468002638364e+00
3.085877220789831288e+00 -3.084020911634081763e+00
3.146384617275906681e+00 -3.076362379400020775e+00
3.206892013761981630e+00 -3.091842666089844371e+00
3.267399410248056579e+00 -3.110702927414582764e+00
3.327906806734131973e+00 -3.140403285489987706e+00
3.388414203220206922e+00 -3.130871248915126248e+00
3.448921599706281871e+00 -3.087218404363548441e+00
3.509428996192357708e+00 -3.038331872092790764e+00
3.569936392678432213e+00 -2.993715956024316061e+00
3.630443789164507162e+00 -2.991161782493708010e+00
3.690951185650583000e+00 -3.012475250568362295e+00
3.751458582136657505e+00 -3.037280631504403861e+00
3.811965978622733342e+00 -3.044684830269379194e+00
3.872473375108808291e+00 -3.062934606461544362e+00
3.932980771594883240e+00 -3.060826947358715966e+00
3.993488168080958634e+00 -3.059490931985030748e+00
4.053995564567033583e+00 -3.082493212598677257e+00
4.114502961053108976e+00 -3.132420474080575890e+00
4.175010357539183481e+00 -3.155201876201962019e+00
4.235517754025258874e+00 -3.144814849889101538e+00
4.296025150511334267e+00 -3.111483093919731768e+00
4.356532546997408772e+00 -3.075446418883958533e+00
4.417039943483484166e+00 -3.063716490747161902e+00
4.477547339969559559e+00 -3.085046628916125577e+00
4.538054736455634064e+00 -3.099685123035684775e+00
4.598562132941709457e+00 -3.088388505663957062e+00
4.659069529427784850e+00 -3.087555056543041410e+00
4.719576925913859355e+00 -3.076626196974594940e+00
4.780084322399935637e+00 -3.057353355453698907e+00
4.840591718886010142e+00 -3.054292184797112508e+00
4.901099115372084647e+00 -3.062058156199931158e+00
4.961606511858160040e+00 -3.085723385756326209e+00
5.022113908344236322e+00 -3.105552409662608593e+00
5.082621304830310827e+00 -3.112899221314602727e+00
5.143128701316386220e+00 -3.104048838790762321e+00
5.203636097802460725e+00 -3.100790071969207418e+00
5.264143494288536118e+00 -3.110011328673490283e+00
5.324650890774610623e+00 -3.129906817774422922e+00
5.385158287260686905e+00 -3.144796410511860874e+00
5.445665683746761410e+00 -3.157485720846119115e+00
5.506173080232836803e+00 -3.139885563466538354e+00
5.566680476718911308e+00 -3.127317447204030820e+00
5.627187873204986701e+00 -3.112617456721311626e+00
5.687695269691062094e+00 -3.104070548161790288e+00
5.748202666177137488e+00 -3.094270236312014255e+00
5.808710062663211993e+00 -3.111330968150494591e+00
5.869217459149287386e+00 -3.149200295628935553e+00
5.929724855635361891e+00 -3.160412580998746890e+00
5.990232252121438172e+00 -3.133794265543718094e+00
6.050739648607512677e+00 -3.108404490309515822e+00
6.111247045093588071e+00 -3.108128604715585386e+00
6.171754441579662576e+00 -3.111359640750702038e+00
6.232261838065737969e+00 -3.110703229886937926e+00
6.292769234551813362e+00 -3.110611091816298135e+00
6.353276631037888755e+00 -3.109716912932619426e+00
6.413784027523963260e+00 -3.108369956141678436e+00
6.474291424010038654e+00 -3.126395055071435447e+00
6.534798820496113159e+00 -3.139434846208698282e+00
6.595306216982188552e+00 -3.147293208633627604e+00
6.655813613468263945e+00 -3.158060455936229083e+00
6.716321009954339338e+00 -3.172659044890231428e+00
6.776828406440413843e+00 -3.164568366974762625e+00
6.837335802926489237e+00 -3.148306879589577445e+00
6.897843199412563742e+00 -3.145642945198248608e+00
6.958350595898640023e+00 -3.150673677558659680e+00
7.018857992384715416e+00 -3.162436948734143716e+00
7.079365388870789921e+00 -3.174654511102800392e+00
7.139872785356864426e+00 -3.165890856426913036e+00
7.200380181842939820e+00 -3.155972450048369460e+00
7.260887578329014325e+00 -3.145975468385912688e+00
7.321394974815090606e+00 -3.144359206308469989e+00
7.381902371301165999e+00 -3.151802992478490939e+00
7.442409767787240504e+00 -3.171974433684021211e+00
7.502917164273315009e+00 -3.189165245797707993e+00
7.563424560759390403e+00 -3.206042233460453694e+00
7.623931957245466684e+00 -3.213200187114479078e+00
7.684439353731541189e+00 -3.185959585312466924e+00
7.744946750217616582e+00 -3.170249676929848270e+00
