0.000000000000000000e+00 -1.549019599857431873e-01
6.050739648607512955e-02 -1.849866299372051881e-01
1.210147929721502591e-01 -4.093272342116244245e-01
1.815221894582253748e-01 -1.514285152270046009e+00
2.420295859443005182e-01 -3.061942142717287485e+00
3.025369824303756339e-01 -4.051539452141954989e+00
3.630443789164507495e-01 -4.202567544339782302e+00
4.235517754025258652e-01 -4.153764122951145055e+00
4.840591718886010364e-01 -3.882825879956000037e+00
5.445665683746760966e-01 -3.711000790590393006e+00
6.050739648607512677e-01 -3.652409497544054418e+00
6.655813613468263279e-01 -3.703034228502435798e+00
7.260887578329014991e-01 -3.841013945917023609e+00
7.865961543189766703e-01 -3.921454321791679298e+00
8.471035508050517304e-01 -3.929349267198053219e+00
9.076109472911267906e-01 -3.883631081560106058e+00
9.681183437772020728e-01 -3.863992141167441829e+00
1.028625740263277244e+00 -3.859167562944898933e+00
1.089133136749352193e+00 -3.892866492118139288e+00
1.149640533235427364e+00 -3.886509081799538023e+00
1.210147929721502535e+00 -3.837944043865647359e+00
1.270655326207577707e+00 -3.787628497243727743e+00
1.331162722693652656e+00 -3.762062366623527332e+00
1.391670119179727827e+00 -3.757835976072285700e+00
1.452177515665802998e+00 -3.694807354994674942e+00
1.512684912151878169e+00 -3.559139663315196600e+00
1.573192308637953341e+00 -3.369349820389706984e+00
1.633699705124028290e+00 -3.192296409561869996e+00
1.694207101610103461e+00 -3.055635183143936562e+00
1.754714498096178854e+00 -2.955155761245509272e+00
1.815221894582253581e+00 -2.880740018164346328e+00
1.875729291068328752e+00 -2.809794500909433168e+00
1.936236687554404146e+00 -2.740224004202771901e+00
1.996744084040479317e+00 -2.685018894295770675e+00
2.057251480526554488e+00 -2.689790655777887007e+00
2.117758877012629437e+00 -2.758010082409283914e+00
2.178266273498704386e+00 -2.822846700236322448e+00
2.238773669984779779e+00 -2.882297742125008888e+00
2.299281066470854729e+00 -2.966672754659305689e+00
2.359788462956929678e+00 -3.060323273341446715e+00
2.420295859443005071e+00 -3.109937391566195419e+00
2.480803255929080020e+00 -3.144895729988467448e+00
2.541310652415155413e+00 -3.208519337390604242e+00
2.601818048901230362e+00 -3.255496625684163092e+00
2.662325445387305312e+00 -3.267517149136179189e+00
2.722832841873380705e+00 -3.239515563230466189e+00
2.783340238359455654e+00 -3.198595525553537211e+00
2.843847634845531047e+00 -3.179959480212052547e+00
2.904355031331605996e+00 -3.193353038723173665e+00
2.964862427817680945e+00 -3.190041057454223949e+00
3.025369824303756339e+00 -3.154919047562626755e+00
3.085877220789831288e+00 -3.120516529911065096e+00
3.146384617275906681e+00 -3.086993518269903092e+00
3.206892013761981630e+00 -3.030911893519179667e+00
3.267399410248056579e+00 -2.991540097260729336e+00
3.327906806734131973e+00 -2.984459617302179790e+00
3.388414203220206922e+00 -2.982920623129622584e+00
3.448921599706281871e+00 -2.978162209136050897e+00
3.509428996192357708e+00 -2.994070889133660707e+00
3.569936392678432213e+00 -3.006486618209151640e+00
3.630443789164507162e+00 -3.004667861768478332e+00
3.690951185650583000e+00 -3.014748494679615920e+00
3.751458582136657505e+00 -3.041571868538346379e+00
3.811965978622733342e+00 -3.091065520856089766e+00
3.872473375108808291e+00 -3.147551105215334655e+00
3.932980771594883240e+00 -3.140837279601456533e+00
3.993488168080958634e+00 -3.094506594442851366e+00
4.053995564567033583e+00 -3.054653931522928634e+00
4.114502961053108976e+00 -3.043060477381168472e+00
4.175010357539183481e+00 -3.041795504560771857e+00
4.235517754025258874e+00 -3.058692149305993091e+00
4.296025150511334267e+00 -3.090863291368182608e+00
4.356532546997408772e+00 -3.110931679687591433e+00
4.417039943483484166e+00 -3.093625071382371861e+00
4.477547339969559559e+00 -3.071737575256198394e+00
4.538054736455634064e+00 -3.063874859266999984e+00
4.598562132941709457e+00 -3.058798043472429118e+00
4.659069529427784850e+00 -3.043059948772091516e+00
4.719576925913859355e+00 -3.039473310351862079e+00
4.780084322399935637e+00 -3.043822372709891866e+00
4.840591718886010142e+00 -3.061217618428429876e+00
4.901099115372084647e+00 -3.065599294552912912e+00
4.961606511858160040e+00 -3.082327147680139046e+00
5.022113908344236322e+00 -3.074827059823517672e+00
5.082621304830310827e+00 -3.031534717164354298e+00
5.143128701316386220e+00 -3.001708876075887211e+00
5.203636097802460725e+00 -3.000986182558579074e+00
5.264143494288536118e+00 -3.014832002454694848e+00
5.324650890774610623e+00 -3.029814691762220846e+00
5.385158287260686905e+00 -3.061446101167327072e+00
5.445665683746761410e+00 -3.092863121165216445e+00
5.506173080232836803e+00 -3.116333864344769555e+00
5.566680476718911308e+00 -3.130412745753994752e+00
5.627187873204986701e+00 -3.119455004535868881e+00
5.687695269691062094e+00 -3.098976558091532940e+00
5.748202666177137488e+00 -3.080694005959366155e+00
5.808710062663211993e+00 -3.084145133131097616e+00
5.869217459149287386e+00 -3.092463435758322277e+00
5.929724855635361891e+00 -3.095388229605920749e+00
5.990232252121438172e+00 -3.102992193516681763e+00
6.050739648607512677e+00 -3.103068528126956327e+00
6.111247045093588071e+00 -3.111815169798577418e+00
6.171754441579662576e+00 -3.092728652443957671e+00
6.232261838065737969e+00 -3.078227498900648840e+00
6.292769234551813362e+00 -3.084391331011699489e+00
6.353276631037888755e+00 -3.125890931030122388e+00
6.413784027523963260e+00 -3.168613626260710525e+00
6.474291424010038654e+00 -3.164393410369849668e+00
6.534798820496113159e+00 -3.140203223676764299e+00
6.595306216982188552e+00 -3.136939539460846582e+00
6.655813613468263945e+00 -3.121577157340132302e+00
6.716321009954339338e+00 -3.092638092590269672e+00
6.776828406440413843e+00 -3.082408976393244071e+00
6.837335802926489237e+00 -3.106015492894192320e+00
6.897843199412563742e+00 -3.144346846335469348e+00
6.958350595898640023e+00 -3.150148026257499900e+00
7.018857992384715416e+00 -3.126479622643112410e+00
7.079365388870789921e+00 -3.115110968655977253e+00
7.139872785356864426e+00 -3.113920329806247445e+00
7.200380181842939820e+00 -3.094606350351781554e+00
7.260887578329014325e+00 -3.076213858364704290e+00
7.321394974815090606e+00 -3.084993890274615236e+00
7.381902371301165999e+00 -3.104526139506297522e+00
7.442409767787240504e+00 -3.132112925891826105e+00
7.502917164273315009e+00 -3.149578925847669186e+00
7.563424560759390403e+00 -3.160990894598983747e+00
7.623931957245466684e+00 -3.171310262262325264e+00
7.684439353731541189e+00 -3.173534540235894763e+00
7.744946750217616582e+00 -3.162969493548410060e+00
