timestep	temperature	potential_energy	kinetic_energy	pressure	num_particles
0	0.3066731131	-6054.894396	470.589892	-0.8193184277	1024
100	0.2880782184	-6040.02677	442.0560261	-0.809750488	1024
200	0.2942647051	-6050.862083	451.54919	-0.7795470355	1024
300	0.311021518	-6074.009906	477.2625193	-0.8065246911	1024
400	0.302630573	-6064.551905	464.3866143	-0.722906834	1024
500	0.2892829432	-6047.394465	443.9046764	-0.6373931469	1024
600	0.3058752799	-6056.850507	469.365617	-0.8100058003	1024
700	0.3090609268	-6052.373361	474.2539922	-0.6971996942	1024
800	0.3052069857	-6048.014152	468.3401196	-0.7692968554	1024
900	0.3014195233	-6053.90306	462.5282585	-0.7460616144	1024
1000	0.301375044	-6068.673541	462.460005	-0.6839602301	1024
1100	0.2937588007	-6055.885334	450.7728797	-0.7071962104	1024
1200	0.2903506336	-6044.645597	445.5430473	-0.7287331776	1024
1300	0.3106251186	-6067.452532	476.6542445	-0.7438166139	1024
1400	0.3034052065	-6061.196949	465.5752893	-0.6724076475	1024
1500	0.3026758038	-6069.025273	464.4560209	-0.7102634939	1024
1600	0.2970674456	-6067.208807	455.8499953	-0.7919339044	1024
1700	0.3001223	-6073.48163	460.5376694	-0.7393184147	1024
1800	0.297127843	-6083.575582	455.9426751	-0.5671930782	1024
1900	0.2939690497	-6083.88811	451.0955067	-0.6172841373	1024
2000	0.2818825763	-6053.911269	432.5488134	-0.5952831918	1024
2100	0.3077095986	-6073.938919	472.1803791	-0.6392404688	1024
2200	0.3176939012	-6081.317832	487.5012914	-0.5585145083	1024
2300	0.300603076	-6080.294226	461.2754202	-0.510320958	1024
2400	0.2909878825	-6090.597247	446.5209058	-0.5853338312	1024
2500	0.2863212161	-6094.970888	439.3599061	-0.5801430284	1024
2600	0.2946392445	-6076.986228	452.1239207	-0.6732664781	1024
2700	0.3132364331	-6077.108929	480.6613066	-0.5603375907	1024
2800	0.308854907	-6054.227375	473.9378547	-0.526325053	1024
2900	0.3071504649	-6071.891607	471.3223884	-0.7077354673	1024
3000	0.292399626	-6068.678514	448.6872262	-0.711325976	1024
3100	0.2941479044	-6090.774119	451.3699593	-0.7266183882	1024
3200	0.3041918132	-6099.607856	466.7823374	-0.6459766143	1024
3300	0.3079233611	-6087.545969	472.5083976	-0.6818115679	1024
3400	0.3038336579	-6061.889367	466.2327481	-0.7523142484	1024
3500	0.3064307329	-6061.809771	470.2179597	-0.6397217979	1024
3600	0.2981894612	-6058.926122	457.5717282	-0.5938928193	1024
3700	0.2995705476	-6096.063842	459.6910053	-0.6053590458	1024
3800	0.29511488	-6102.110602	452.8537834	-0.8467940214	1024
3900	0.2939155592	-6096.739383	451.0134256	-0.8020367541	1024
4000	0.3024522783	-6078.386186	464.113021	-0.6437844403	1024
4100	0.3113123576	-6070.908892	477.7088127	-0.5097470758	1024
4200	0.3061516929	-6071.066937	469.7897727	-0.5491663224	1024
4300	0.2983579342	-6092.300506	457.83025	-0.7970294108	1024
4400	0.2910867528	-6096.209947	446.6726221	-0.7259063932	1024
4500	0.2859711211	-6089.055109	438.8226854	-0.6098582935	1024
4600	0.2901659708	-6068.412724	445.2596822	-0.554818621	1024
4700	0.3041536826	-6068.720015	466.723826	-0.7633366933	1024
4800	0.2945988669	-6048.762491	452.0619613	-0.5813474286	1024
4900	0.3045292748	-6083.491992	467.3001721	-0.6877108939	1024
5000	0.3015801877	-6090.713073	462.774798	-0.7234727552	1024
5100	0.3039782538	-6105.51441	466.4546305	-0.7655292192	1024
5200	0.2956137581	-6092.493251	453.6193118	-0.7169075514	1024
5300	0.3102454581	-6113.689275	476.0716554	-0.7363337175	1024
5400	0.2916656857	-6072.494775	447.5609948	-0.6293997958	1024
5500	0.302810649	-6079.389006	464.662941	-0.6739385455	1024
5600	0.3087271337	-6087.729452	473.7417866	-0.6267064662	1024
5700	0.3002072649	-6080.494794	460.668048	-0.4811093214	1024
5800	0.2938541937	-6084.90959	450.9192602	-0.6565276392	1024
5900	0.2956821299	-6103.274116	453.7242284	-0.6502823228	1024
6000	0.2985658418	-6093.871128	458.1492842	-0.7740293083	1024
6100	0.3090651784	-6097.619675	474.2605163	-0.5768673517	1024
6200	0.3039045093	-6077.028896	466.3414695	-0.4966746614	1024
6300	0.309468588	-6106.042869	474.8795482	-0.5978296671	1024
6400	0.2784424504	-6098.3876	427.2699401	-0.5429718052	1024
6500	0.2866505205	-6110.256489	439.8652237	-0.5774004245	1024
6600	0.3025471634	-6104.032361	464.2586223	-0.6640218109	1024
6700	0.3131367717	-6090.856338	480.5083762	-0.4802135776	1024
6800	0.3095680488	-6087.267516	475.0321709	-0.5394053294	1024
6900	0.2955529716	-6097.857652	453.5260349	-0.631008749	1024
7000	0.2841582358	-6110.939896	436.0408129	-0.7679007501	1024
7100	0.2807238739	-6096.857928	430.7707844	-0.632808027	1024
7200	0.3001908684	-6092.546191	460.6428876	-0.6031482069	1024
7300	0.3195065953	-6095.87602	490.2828705	-0.521204824	1024
7400	0.3056298684	-6090.180941	468.989033	-0.4563253401	1024
7500	0.2934035128	-6105.454147	450.2276903	-0.5692911058	1024
7600	0.2886296567	-6114.03193	442.9022083	-0.5547903894	1024
7700	0.2926248458	-6111.516441	449.0328258	-0.5555893866	1024
7800	0.3012303103	-6093.378664	462.2379111	-0.5994971931	1024
7900	0.3083022662	-6075.280075	473.0898274	-0.3484372002	1024
8000	0.3005793972	-6075.166593	461.2390851	-0.515159625	1024
8100	0.2931716737	-6101.156793	449.8719334	-0.6991901292	1024
8200	0.2904025922	-6120.132555	445.6227777	-0.5541679471	1024
8300	0.2970435961	-6134.090343	455.8133983	-0.5726528458	1024
8400	0.2942342924	-6106.975619	451.5025218	-0.6459600864	1024
8500	0.3111998774	-6101.480485	477.5362119	-0.5774628923	1024
8600	0.323356201	-6104.33677	496.1900904	-0.5135520912	1024
8700	0.3118538439	-6106.499947	478.5397234	-0.5143024606	1024
8800	0.2918242802	-6127.626451	447.8043579	-0.6233701146	1024
8900	0.2932196892	-6146.311805	449.9456131	-0.6457564955	1024
9000	0.2941582355	-6123.403403	451.3858124	-0.5468917793	1024
9100	0.3024434801	-6096.83791	464.0995202	-0.496607587	1024
9200	0.3098051693	-6093.015751	475.3960322	-0.4186015908	1024
9300	0.3059763427	-6099.43662	469.5206979	-0.5110597017	1024
9400	0.2966666399	-6126.633238	455.2349589	-0.4942017059	1024
9500	0.2889336391	-6138.794421	443.3686693	-0.5319961324	1024
9600	0.2947097152	-6149.620032	452.2320579	-0.5159953634	1024
9700	0.3102338939	-6151.114978	476.0539103	-0.4912659602	1024
9800	0.3026779901	-6121.669058	464.4593758	-0.456510865	1024
9900	0.2965060702	-6104.380906	454.9885647	-0.5281575466	1024
10000	0.2930028454	-6110.1933	449.6128662	-0.4593917001	1024
10100	0.3022892349	-6133.274505	463.8628309	-0.5925383122	1024
10200	0.2927645701	-6118.621188	449.2472328	-0.5658928002	1024
10300	0.2992847168	-6120.120473	459.2523979	-0.575918349	1024
10400	0.301443941	-6099.692359	462.5657275	-0.5180459698	1024
10500	0.3011267192	-6092.508394	462.0789507	-0.5755451295	1024
10600	0.3122202237	-6105.693806	479.1019332	-0.5435025043	1024
10700	0.3069084667	-6124.702904	470.9510421	-0.5710093515	1024
10800	0.2901347587	-6123.312089	445.2117872	-0.5714256205	1024
10900	0.2910925179	-6124.157775	446.6814687	-0.5697442932	1024
11000	0.3001917467	-6122.088852	460.6442353	-0.481035753	1024
11100	0.3065966673	-6127.143777	470.472586	-0.4246383738	1024
11200	0.3059642916	-6125.733343	469.5022055	-0.4789846905	1024
11300	0.2957888004	-6113.074397	453.8879142	-0.7036806611	1024
11400	0.2958846472	-6112.334153	454.0349912	-0.711074145	1024
11500	0.3043645702	-6108.501498	467.0474329	-0.5234906036	1024
11600	0.3018834787	-6103.263726	463.2401981	-0.4637623526	1024
11700	0.3050165121	-6112.238194	468.0478378	-0.6952197685	1024
11800	0.3046075165	-6120.080574	467.4202341	-0.6453383707	1024
11900	0.2931218192	-6103.63023	449.7954316	-0.6407706435	1024
12000	0.3102079875	-6124.990446	476.0141568	-0.7754402787	1024
12100	0.2964150901	-6096.484421	454.8489557	-0.6612558618	1024
12200	0.2964469101	-6082.470885	454.8977835	-0.6842006758	1024
12300	0.3077588313	-6102.153127	472.2559267	-0.7114837829	1024
12400	0.2873242697	-6082.700749	440.8990919	-0.6059459926	1024
12500	0.3028193853	-6115.439356	464.6763467	-0.6735228271	1024
12600	0.3079848541	-6131.212879	472.6027586	-0.5449789475	1024
12700	0.3049633415	-6132.858983	467.9662476	-0.6570202838	1024
12800	0.2951890375	-6118.803912	452.9675781	-0.7566756804	1024
12900	0.306510655	-6120.519886	470.3406002	-0.6355194236	1024
13000	0.3010092861	-6097.064472	461.8987495	-0.6338677904	1024
13100	0.2994957502	-6089.350593	459.5762286	-0.7353533676	1024
13200	0.2843499508	-6066.386869	436.3349995	-0.669392911	1024
13300	0.2875058134	-6076.845139	441.1776707	-0.6109937791	1024
13400	0.318163037	-6122.873836	488.2211802	-0.5049927945	1024
13500	0.2978579331	-6106.881604	457.0629983	-0.5446381524	1024
13600	0.2922798504	-6104.798426	448.5034304	-0.6205556907	1024
13700	0.2979068051	-6098.856887	457.1379924	-0.5280154848	1024
13800	0.2951790719	-6083.079584	452.9522858	-0.4682042423	1024
13900	0.3056547398	-6093.760633	469.0271982	-0.5287631804	1024
14000	0.3041399424	-6091.578174	466.7027416	-0.7017998143	1024
14100	0.2997870694	-6103.554368	460.0232579	-0.7707761961	1024
14200	0.2885974706	-6086.965703	442.8528186	-0.6902893822	1024
14300	0.293504579	-6090.468291	450.3827765	-0.6070526695	1024
14400	0.2995474009	-6081.987942	459.6554867	-0.6785667992	1024
14500	0.3034640058	-6073.979478	465.6655169	-0.6791239434	1024
14600	0.2994236225	-6058.809805	459.4655487	-0.6927769763	1024
14700	0.3032161349	-6068.115882	465.285159	-0.6823000388	1024
14800	0.2972433477	-6070.65031	456.1199171	-0.7370924083	1024
14900	0.2833111835	-6040.698728	434.7410111	-0.6438935798	1024
15000	0.3031751985	-6059.483771	465.2223421	-0.6951529047	1024
15100	0.3034898053	-6055.290207	465.7051062	-0.6809449257	1024
15200	0.2985993861	-6063.8162	458.2007579	-0.5325386052	1024
15300	0.2998359474	-6081.705408	460.0982613	-0.6825014296	1024
15400	0.2827944306	-6068.010584	433.9480537	-0.6564884363	1024
15500	0.2825916924	-6058.470603	433.636952	-0.7685668134	1024
15600	0.3141520634	-6084.936095	482.0663413	-0.7695226285	1024
15700	0.3046498767	-6063.509744	467.4852359	-0.6097525113	1024
15800	0.3004639654	-6072.15295	461.0619549	-0.6247692022	1024
15900	0.2891146242	-6067.251892	443.6463909	-0.7450185157	1024
16000	0.2970058172	-6076.827193	455.7554265	-0.7949177988	1024
16100	0.2995510498	-6067.309901	459.661086	-0.7376538712	1024
16200	0.3003241119	-6055.049569	460.8473497	-0.6630287289	1024
16300	0.3204177868	-6084.287453	491.6810938	-0.7824911207	1024
16400	0.3042269749	-6079.888531	466.8362929	-0.7723799601	1024
16500	0.3003387793	-6090.45683	460.8698568	-0.7927412404	1024
16600	0.2984216713	-6097.444947	457.9280547	-0.8246675114	1024
16700	0.2989850371	-6082.783974	458.7925395	-0.8528530562	1024
16800	0.2941462887	-6063.578867	451.36748	-0.7654236512	1024
16900	0.2968632488	-6056.648828	455.5366553	-0.7005969051	1024
17000	0.3132700869	-6086.719691	480.7129484	-0.7468556103	1024
17100	0.3052961449	-6090.332104	468.4769344	-0.8608430832	1024
17200	0.2941581394	-6080.206129	451.3856649	-0.7676329511	1024
17300	0.3143067986	-6096.051666	482.3037824	-0.8350426977	1024
17400	0.3021189929	-6081.594902	463.6015946	-0.6842398637	1024
17500	0.2812935669	-6062.178209	431.6449783	-0.6693028281	1024
17600	0.3012831767	-6085.33205	462.3190346	-0.8198279725	1024
17700	0.2984657651	-6070.809974	457.9957165	-0.7309062544	1024
17800	0.3169622308	-6096.286206	486.3785432	-0.8725505614	1024
17900	0.3060987952	-6089.096553	469.7086012	-0.7105498958	1024
18000	0.2971092023	-6095.022324	455.9140709	-0.7818554933	1024
18100	0.3004585317	-6113.717458	461.0536168	-0.7934701772	1024
18200	0.3088652804	-6113.5275	473.9537728	-0.7283222909	1024
18300	0.3055504277	-6089.121793	468.8671313	-0.6627389919	1024
18400	0.3060681123	-6085.712956	469.6615184	-0.6281009077	1024
18500	0.3030181794	-6081.105738	464.9813964	-0.72649565	1024
18600	0.2942730597	-6083.148533	451.5620101	-0.5753755	1024
18700	0.3029927427	-6101.964182	464.9423637	-0.6660118618	1024
18800	0.309539786	-6121.684037	474.9888017	-0.6401640002	1024
18900	0.2965072679	-6111.396124	454.9904025	-0.7204034806	1024
19000	0.2849881683	-6097.311128	437.3143442	-0.6831177379	1024
19100	0.2987923935	-6090.177951	458.4969278	-0.5942661019	1024
19200	0.3115091526	-6087.319176	478.0107947	-0.6038913667	1024
19300	0.3042938612	-6085.074645	466.93893	-0.5846074317	1024
19400	0.3115903553	-6128.863877	478.1354002	-0.6738261367	1024
19500	0.2892583966	-6121.951055	443.8670096	-0.776396021	1024
19600	0.2858260519	-6120.525325	438.6000766	-0.7301810956	1024
19700	0.30678964	-6113.236153	470.7687025	-0.5676335116	1024
19800	0.3138480602	-6102.723575	481.5998484	-0.5242642064	1024
19900	0.310013632	-6092.006099	475.7159183	-0.6067671659	1024
20000	0.296928128	-6094.599786	455.6362123	-0.6944500287	1024
20100	0.2930595624	-6110.953149	449.6998985	-0.6528959341	1024
20200	0.2913131097	-6123.081276	447.0199668	-0.6519943137	1024
20300	0.2954600764	-6119.923836	453.3834873	-0.5654617448	1024
20400	0.3013915338	-6104.687438	462.4853086	-0.656143127	1024
20500	0.3056650319	-6087.247909	469.0429915	-0.6763874826	1024
20600	0.3063397475	-6081.075403	470.0783425	-0.6482491029	1024
20700	0.2988229461	-6083.449951	458.5438107	-0.8356915683	1024
20800	0.2962132295	-6092.830899	454.5392006	-0.8265834316	1024
20900	0.2948869542	-6092.475755	452.5040312	-0.7251451518	1024
21000	0.2995554206	-6087.41979	459.667793	-0.5230326189	1024
21100	0.2983414046	-6074.689558	457.8048853	-0.630879612	1024
21200	0.3049267408	-6097.133999	467.9100837	-0.6963772131	1024
21300	0.2877293899	-6076.324735	441.5207489	-0.6938466227	1024
21400	0.2999273477	-6086.57067	460.2385151	-0.6820186922	1024
21500	0.3069823944	-6074.866	471.0644843	-0.6975244083	1024
21600	0.3087056452	-6068.508444	473.7088126	-0.6661211434	1024
21700	0.2982811666	-6062.918547	457.7124502	-0.6424689871	1024
21800	0.3001415571	-6090.265399	460.5672194	-0.7114804182	1024
21900	0.2984158909	-6108.387113	457.9191847	-0.7355194529	1024
22000	0.2914073036	-6103.048434	447.1645073	-0.6682097523	1024
22100	0.2950368323	-6090.064686	452.7340192	-0.6137119423	1024
22200	0.3029040146	-6085.44805	464.8062104	-0.60355574	1024
22300	0.3060028002	-6082.205508	469.5612968	-0.7461655437	1024
22400	0.3090783828	-6087.519925	474.2807784	-0.8722665003	1024
22500	0.2985081441	-6082.602015	458.0607472	-0.7073824933	1024
22600	0.2918711467	-6082.519652	447.8762747	-0.5761791409	1024
22700	0.2982192287	-6083.202317	457.6174065	-0.8021685127	1024
22800	0.3023056042	-6080.985363	463.8879497	-0.9064216192	1024
22900	0.3085609926	-6081.39178	473.4868431	-0.7495083798	1024
23000	0.3067004129	-6074.443385	470.6317835	-0.7007753759	1024
23100	0.31015161	-6079.765336	475.9276455	-0.6182147578	1024
23200	0.2971266014	-6076.186588	455.9407698	-0.7395100917	1024
23300	0.2884324116	-6086.450488	442.5995356	-0.8897617764	1024
23400	0.2907076864	-6082.759574	446.0909448	-1.013147624	1024
23500	0.3031199174	-6072.411744	465.1375133	-0.8259921737	1024
23600	0.3094321796	-6054.572274	474.8236795	-0.6044319119	1024
23700	0.3130776969	-6064.673908	480.4177258	-0.7299236842	1024
23800	0.2944607035	-6072.927698	451.8499496	-0.8606970352	1024
23900	0.2915448993	-6096.790848	447.3756479	-0.8903340518	1024
24000	0.294382419	-6090.178936	451.7298219	-0.9329983028	1024
24100	0.2984678186	-6073.528755	457.9988677	-0.7765089487	1024
24200	0.3017087861	-6055.62874	462.9721323	-0.7410564617	1024
24300	0.3114235809	-6064.229505	477.8794849	-0.8230953786	1024
24400	0.2977978698	-6063.063452	456.9708313	-0.8422746649	1024
24500	0.30138592	-6076.69375	462.4766942	-0.9108022692	1024
24600	0.296445105	-6075.759897	454.8950136	-0.832540767	1024
24700	0.3034955104	-6082.504673	465.7138607	-0.7856282496	1024
24800	0.2969701955	-6076.621441	455.700765	-0.7382692591	1024
24900	0.3086829433	-6105.505157	473.6739764	-0.8513659956	1024
25000	0.298199608	-6097.661836	457.5872985	-0.707639902	1024
25100	0.304759254	-6094.423315	467.6530753	-0.7897047046	1024
25200	0.3033893982	-6076.949467	465.5510316	-0.6787743606	1024
25300	0.3060407843	-6082.245663	469.6195834	-0.5819583342	1024
25400	0.2959978406	-6085.110184	454.2086863	-0.6008102143	1024
25500	0.2883875835	-6095.821468	442.530747	-0.7635660937	1024
25600	0.2887463047	-6104.44273	443.0812046	-0.7038260638	1024
25700	0.3049732858	-6105.033534	467.981507	-0.730079368	1024
25800	0.3021059092	-6069.951505	463.5815176	-0.6954251812	1024
25900	0.3031895985	-6070.094399	465.2444389	-0.6417049803	1024
26000	0.3110021626	-6098.20597	477.2328186	-0.8200161998	1024
26100	0.2887738119	-6079.495737	443.1234144	-0.8117039616	1024
26200	0.2985654923	-6094.538781	458.1487479	-0.7071348402	1024
26300	0.304614325	-6086.417478	467.4306817	-0.6823703911	1024
26400	0.3008774424	-6076.131076	461.6964353	-0.7714075788	1024
26500	0.3118027029	-6084.373314	478.4612476	-0.8617149387	1024
26600	0.3012359771	-6074.167558	462.2466069	-0.6618796134	1024
26700	0.3023398325	-6090.103972	463.940473	-0.7765417947	1024
26800	0.3009850887	-6099.677193	461.8616187	-0.7790682122	1024
26900	0.2854580574	-6065.362485	438.035389	-0.7428826337	1024
27000	0.3049944095	-6075.842323	468.0139214	-0.720875001	1024
27100	0.3035126956	-6070.325654	465.7402313	-0.6893037737	1024
27200	0.3089765594	-6070.867527	474.1245303	-0.7663663538	1024
27300	0.30158852	-6069.53646	462.7875839	-0.7425880927	1024
27400	0.2988076216	-6083.399029	458.5202954	-0.6891144514	1024
27500	0.2973903013	-6081.824744	456.3454173	-0.792626163	1024
27600	0.2904481922	-6057.90478	445.6927509	-0.6329013344	1024
27700	0.3002171513	-6058.965262	460.6832187	-0.5599430946	1024
27800	0.3037739863	-6061.363937	466.141182	-0.5060691443	1024
27900	0.2981617309	-6077.477697	457.529176	-0.6512910192	1024
28000	0.2922682243	-6086.191046	448.4855902	-0.7806518444	1024
28100	0.2964098493	-6107.275696	454.8409137	-0.6968799688	1024
28200	0.3029309814	-6107.776093	464.847591	-0.7068584505	1024
28300	0.2957941704	-6087.525259	453.8961545	-0.7059192882	1024
28400	0.3098659274	-6089.427332	475.4892655	-0.7027083396	1024
28500	0.3072538351	-6084.130212	471.4810099	-0.6398960563	1024
28600	0.296707547	-6092.596818	455.2977309	-0.6242232165	1024
28700	0.2992979536	-6109.10373	459.2727098	-0.7520442229	1024
28800	0.2858686384	-6097.521136	438.6654256	-0.6527178318	1024
28900	0.2955916493	-6103.831592	453.5853859	-0.7436220594	1024
29000	0.2992929937	-6094.605331	459.2650988	-0.6984618295	1024
29100	0.3047670515	-6086.869787	467.6650405	-0.6846361259	1024
29200	0.3058750864	-6090.804676	469.3653201	-0.656174495	1024
29300	0.2958714929	-6090.037422	454.0148058	-0.690029887	1024
29400	0.2919358407	-6102.819159	447.9755475	-0.6707990387	1024
29500	0.2998542024	-6120.174919	460.1262736	-0.7044399531	1024
29600	0.2961801062	-6116.416513	454.4883729	-0.5986243217	1024
29700	0.3058733856	-6117.179904	469.3627102	-0.5842872743	1024
29800	0.3028119219	-6112.860768	464.6648941	-0.6184047626	1024
29900	0.298020451	-6104.861759	457.3123821	-0.6788427364	1024
30000	0.2978785469	-6104.651992	457.0946302	-0.7033366953	1024
30100	0.2949482718	-6097.683776	452.5981231	-0.7834141918	1024
30200	0.3054142271	-6099.83851	468.6581315	-0.6850618512	1024
30300	0.303357585	-6089.330156	465.5022142	-0.6692586257	1024
30400	0.3034495371	-6106.997199	465.6433146	-0.694303722	1024
30500	0.2977039221	-6122.725184	456.8266684	-0.7312259138	1024
30600	0.3072988837	-6143.621091	471.5501371	-0.6625549736	1024
30700	0.2900550072	-6106.382775	445.0894086	-0.6592025293	1024
30800	0.3021754218	-6101.814238	463.6881847	-0.739206947	1024
30900	0.3102736765	-6087.5781	476.1149566	-0.5936104897	1024
31000	0.3113166402	-6095.094309	477.7153843	-0.6771146126	1024
31100	0.2948640686	-6085.325031	452.4689133	-0.6819466012	1024
31200	0.2945186177	-6103.488845	451.9388189	-0.725936458	1024
31300	0.3026848599	-6123.710938	464.4699175	-0.8486422829	1024
31400	0.2863392017	-6086.454338	439.3875051	-0.6027885793	1024
31500	0.3044689159	-6097.903889	467.2075514	-0.6676232886	1024
31600	0.3061777871	-6095.536712	469.8298143	-0.5630137625	1024
31700	0.3041160543	-6101.114272	466.6660853	-0.6895362183	1024
31800	0.2918974897	-6105.622831	447.916698	-0.6929627252	1024
31900	0.2933625272	-6101.992885	450.164798	-0.7538185391	1024
32000	0.2979929454	-6092.818279	457.2701747	-0.7313558243	1024
32100	0.3027622789	-6072.548239	464.5887169	-0.671877316	1024
32200	0.3197169573	-6089.637197	490.6056709	-0.7921102101	1024
32300	0.2931834713	-6071.130513	449.8900367	-0.7640456259	1024
32400	0.2942873294	-6087.134712	451.5839069	-0.6681887925	1024
32500	0.2895350295	-6090.237163	444.2915028	-0.565539019	1024
32600	0.3014743696	-6099.729749	462.6124202	-0.8226515209	1024
32700	0.2901734327	-6075.22052	445.2711325	-0.7136332293	1024
32800	0.3070451294	-6088.475534	471.1607511	-0.7148107851	1024
32900	0.2984962005	-6081.18871	458.0424197	-0.6976168447	1024
33000	0.3057989029	-6091.621563	469.2484166	-0.7447222714	1024
33100	0.2902934154	-6071.663115	445.455246	-0.6729020302	1024
33200	0.3032629092	-6091.425297	465.3569341	-0.58591887	1024
33300	0.2971092718	-6093.133569	455.9141775	-0.5962169948	1024
33400	0.2964416776	-6103.816257	454.8897543	-0.6685931251	1024
33500	0.3069458312	-6129.077071	471.0083779	-0.7115019995	1024
33600	0.3011921212	-6128.768499	462.17931	-0.7881167422	1024
33700	0.2952386613	-6115.423973	453.0437258	-0.687272854	1024
33800	0.3037264403	-6116.595474	466.0682226	-0.6656512379	1024
33900	0.3108654247	-6116.681271	477.0229942	-0.5784818625	1024
34000	0.3042109496	-6110.792817	466.8117021	-0.5749305891	1024
34100	0.2943576006	-6113.434384	451.6917381	-0.5803304254	1024
34200	0.2947161104	-6121.736634	452.2418714	-0.7019576846	1024
34300	0.2932903456	-6112.411026	450.0540353	-0.6486622157	1024
34400	0.2929277302	-6095.606357	449.497602	-0.658177134	1024
34500	0.3063071335	-6098.952245	470.0282963	-0.6538680067	1024
34600	0.312127148	-6098.098728	478.9591087	-0.6979331438	1024
34700	0.3008743793	-6102.055592	461.691735	-0.7298032881	1024
34800	0.2985475976	-6107.557097	458.1212884	-0.7642857577	1024
34900	0.3032317936	-6119.6408	465.3091873	-0.7206456647	1024
35000	0.2926572511	-6093.122533	449.0825517	-0.6531015185	1024
35100	0.2999592873	-6083.298895	460.2875264	-0.5403748961	1024
35200	0.315308589	-6099.608533	483.8410298	-0.4559604296	1024
35300	0.299049451	-6097.868224	458.8913826	-0.6719649619	1024
35400	0.2872449306	-6111.385027	440.777346	-0.778662914	1024
35500	0.2888354784	-6125.859105	443.2180416	-0.680660171	1024
35600	0.3031891559	-6127.909387	465.2437597	-0.5629397284	1024
35700	0.2968582563	-6092.907085	455.5289943	-0.413601995	1024
35800	0.2998481565	-6087.604777	460.1169961	-0.6368784034	1024
35900	0.3060663902	-6096.989277	469.6588758	-0.7240855639	1024
36000	0.307379474	-6102.623568	471.6738028	-0.6891845007	1024
36100	0.29560532	-6109.700127	453.6063636	-0.4335496871	1024
36200	0.2919425297	-6126.263858	447.9858119	-0.5610536529	1024
36300	0.292319447	-6129.648974	448.5641915	-0.7648943389	1024
36400	0.2975122482	-6126.157463	456.5325448	-0.6463844183	1024
36500	0.3077426242	-6114.478072	472.2310568	-0.5221410244	1024
36600	0.3089711015	-6104.292048	474.1161553	-0.5525323404	1024
36700	0.2939336017	-6099.953425	451.0411118	-0.5097715297	1024
36800	0.2875452487	-6106.295857	441.2381841	-0.4930714246	1024
36900	0.2969209199	-6117.253248	455.6251515	-0.5755098407	1024
37000	0.3057515913	-6115.382988	469.1758168	-0.5448476804	1024
37100	0.2986282801	-6090.84927	458.2450959	-0.4691808707	1024
37200	0.2958828285	-6095.1775	454.0322003	-0.3687168344	1024
37300	0.3007298733	-6104.60635	461.4699906	-0.604983345	1024
37400	0.2929522581	-6097.147931	449.53524	-0.6825597221	1024
37500	0.296638927	-6111.485509	455.1924334	-0.5079843133	1024
37600	0.3001626095	-6121.415165	460.5995243	-0.5230327729	1024
37700	0.2966271507	-6120.003702	455.1743628	-0.5945372427	1024
37800	0.2919374121	-6109.239916	447.9779588	-0.6755675488	1024
37900	0.3018748753	-6113.063903	463.2269961	-0.5501442905	1024
38000	0.3060064958	-6116.42386	469.5669678	-0.5596815011	1024
38100	0.2978811179	-6114.265433	457.0985754	-0.5081442762	1024
38200	0.3007478659	-6107.158438	461.4976003	-0.6898250518	1024
38300	0.2933761141	-6101.319787	450.1856471	-0.5507012925	1024
38400	0.3004078495	-6106.594739	460.9758451	-0.6254531252	1024
38500	0.2935691649	-6090.206802	450.4818835	-0.7092519827	1024
38600	0.2988559001	-6092.295152	458.5943787	-0.6786026548	1024
38700	0.298442706	-6089.014227	457.9603324	-0.6107348688	1024
38800	0.3034442813	-6094.047852	465.6352496	-0.420831214	1024
38900	0.2913224998	-6093.985625	447.034376	-0.6134113549	1024
39000	0.2896214717	-6112.344898	444.4241484	-0.5532566424	1024
39100	0.2987387897	-6108.108681	458.4146728	-0.6539173347	1024
39200	0.3048119704	-6094.791672	467.7339685	-0.5164148043	1024
39300	0.3155220976	-6098.23079	484.1686588	-0.4985172439	1024
39400	0.2973776899	-6087.359929	456.3260651	-0.5243854879	1024
39500	0.2997423435	-6117.761724	459.9546262	-0.5719764129	1024
39600	0.2910058471	-6117.167161	446.5484724	-0.5100299129	1024
39700	0.291779105	-6103.55378	447.7350366	-0.5878468947	1024
39800	0.2990024395	-6102.247424	458.8192434	-0.5275407747	1024
39900	0.3076962641	-6094.345361	472.1599173	-0.5761526689	1024
40000	0.3060114653	-6105.614509	469.5745936	-0.6003481578	1024
40100	0.3007995789	-6124.129182	461.5769538	-0.6711953239	1024
40200	0.2842040127	-6106.936101	436.1110575	-0.5663486062	1024
40300	0.3056924313	-6130.962346	469.0850358	-0.6518381945	1024
40400	0.2965270806	-6106.188617	455.0208052	-0.4114158484	1024
40500	0.3127048213	-6117.499754	479.8455483	-0.6661155917	1024
40600	0.3089318593	-6119.233764	474.0559381	-0.670540521	1024
40700	0.2934715896	-6109.684476	450.3321542	-0.5257683628	1024
40800	0.2984792352	-6131.721716	458.0163864	-0.5230058021	1024
40900	0.3025817416	-6139.935286	464.3116825	-0.6349974584	1024
41000	0.2942028813	-6125.094182	451.4543214	-0.5781055138	1024
41100	0.3018910199	-6111.98578	463.25177	-0.5159687224	1024
41200	0.3071191502	-6114.277189	471.2743359	-0.5250622505	1024
41300	0.2947348605	-6108.633698	452.2706434	-0.7099329314	1024
41400	0.2997531898	-6132.743763	459.9712698	-0.6571746162	1024
41500	0.2931003934	-6129.895457	449.7625537	-0.6421426594	1024
41600	0.2956322967	-6116.836121	453.6477593	-0.5538584946	1024
41700	0.3150507784	-6121.152163	483.4454195	-0.5538438863	1024
41800	0.3068767764	-6102.988399	470.9024135	-0.563098062	1024
41900	0.293132286	-6100.220481	449.8114928	-0.5673320543	1024
42000	0.3005555614	-6127.544413	461.2025089	-0.7074697246	1024
42100	0.2986101254	-6129.190183	458.2172375	-0.6560460278	1024
42200	0.3044135375	-6134.559286	467.1225733	-0.6209733124	1024
42300	0.2978601812	-6117.284295	457.066448	-0.5918431891	1024
42400	0.3000251204	-6122.309521	460.3885473	-0.656444807	1024
42500	0.3032466762	-6122.880126	465.3320246	-0.5871622048	1024
42600	0.2891168603	-6104.668722	443.6498221	-0.6004442278	1024
42700	0.2941118045	-6109.363377	451.314564	-0.5724843421	1024
42800	0.3043844617	-6126.017679	467.0779564	-0.5872761284	1024
42900	0.3022060064	-6116.944814	463.7351168	-0.5783750767	1024
43000	0.2999761102	-6107.200554	460.313341	-0.7772495776	1024
43100	0.2990443495	-6100.838411	458.8835542	-0.7423449816	1024
43200	0.3063403713	-6107.940574	470.0792997	-0.4660392944	1024
43300	0.3160710665	-6131.361637	485.0110516	-0.5543379804	1024
43400	0.2870221009	-6108.769564	440.4354138	-0.5223986101	1024
43500	0.2906638489	-6130.168083	446.0236762	-0.6398986732	1024
43600	0.288741141	-6121.337375	443.0732809	-0.5341627339	1024
43700	0.3088270684	-6127.075588	473.8951365	-0.572136796	1024
43800	0.3169061406	-6125.822754	486.2924728	-0.6785982657	1024
43900	0.3002328667	-6106.114931	460.707334	-0.5831991594	1024
44000	0.3026124706	-6124.125754	464.3588361	-0.705815266	1024
44100	0.2944485598	-6125.334761	451.831315	-0.6156832409	1024
44200	0.2994493836	-6122.384992	459.5050791	-0.5422073226	1024
44300	0.3040627756	-6107.994234	466.5843291	-0.5005327822	1024
44400	0.3091906449	-6111.208459	474.4530447	-0.5754128162	1024
44500	0.3085949828	-6116.887992	473.5390011	-0.6595704695	1024
44600	0.2875916042	-6099.879697	441.3093166	-0.7212750623	1024
44700	0.2911533823	-6114.276744	446.7748652	-0.6903913345	1024
44800	0.2930291174	-6092.52993	449.6531807	-0.7519439039	1024
44900	0.3144925665	-6094.217168	482.5888433	-0.6811656001	1024
45000	0.3102018364	-6080.048847	476.004718	-0.6688958271	1024
45100	0.3056069347	-6097.313846	468.9538414	-0.6510755335	1024
45200	0.2984021611	-6130.931362	457.8981162	-0.6463685697	1024
45300	0.2803944886	-6121.734552	430.2653428	-0.6400170092	1024
45400	0.2904136273	-6109.497863	445.6397111	-0.5381486461	1024
45500	0.3075395814	-6096.731027	471.9194876	-0.6928929839	1024
45600	0.3035683595	-6083.093895	465.8256477	-0.6695784887	1024
45700	0.2919542881	-6078.708153	448.0038552	-0.5618119059	1024
45800	0.2986207352	-6106.592871	458.2335181	-0.7163394158	1024
45900	0.2999193652	-6123.135607	460.2262659	-0.7590484335	1024
46000	0.3027440749	-6138.275257	464.560783	-0.7093968514	1024
46100	0.2962570147	-6120.447424	454.6063891	-0.6675845105	1024
46200	0.2952537801	-6105.404485	453.0669255	-0.7073114892	1024
46300	0.3031774407	-6103.485818	465.2257828	-0.7330407399	1024
46400	0.2953616218	-6087.487053	453.2324087	-0.555187327	1024
46500	0.305640815	-6121.101802	469.0058306	-0.5930657561	1024
46600	0.2793578052	-6110.104388	428.6745521	-0.638306023	1024
46700	0.2834110685	-6124.331735	434.8942845	-0.6328899016	1024
46800	0.2910157775	-6113.824296	446.5637106	-0.7413512339	1024
46900	0.3005427741	-6096.407053	461.1828869	-0.5801239903	1024
47000	0.318061681	-6117.520167	488.0656495	-0.5872833908	1024
47100	0.2922032693	-6084.366626	448.3859168	-0.6460467085	1024
47200	0.3017534347	-6112.873387	463.0406456	-0.7408135548	1024
47300	0.3003846307	-6130.19075	460.9402158	-0.703653836	1024
47400	0.3104483033	-6151.501961	476.3829214	-0.6115618261	1024
47500	0.2907943694	-6125.251756	446.2239598	-0.6083912828	1024
47600	0.2942959111	-6131.273959	451.5970755	-0.6060019545	1024
47700	0.3034158986	-6134.020238	465.5916964	-0.6531354476	1024
47800	0.2965557506	-6127.834481	455.0647993	-0.5145050571	1024
47900	0.2993326935	-6123.556117	459.3260182	-0.7062042972	1024
48000	0.296316173	-6117.224061	454.6971675	-0.5484745461	1024
48100	0.3024751287	-6125.704107	464.148085	-0.5831600057	1024
48200	0.2994015813	-6140.254494	459.4317265	-0.606434903	1024
48300	0.3049584686	-6157.619953	467.95877	-0.6367013242	1024
48400	0.2969635875	-6150.140152	455.690625	-0.688547123	1024
48500	0.2991954517	-6145.556628	459.1154206	-0.5574208277	1024
48600	0.3035395227	-6143.310525	465.7813976	-0.4560024241	1024
48700	0.3065122989	-6140.391056	470.3431226	-0.5682638762	1024
48800	0.2957993762	-6126.337389	453.9041428	-0.5437939721	1024
48900	0.3022262766	-6135.306152	463.7662214	-0.6472574689	1024
49000	0.3086858491	-6145.788614	473.6784354	-0.60016571	1024
49100	0.2949470666	-6130.400044	452.5962737	-0.59408204	1024
49200	0.2979282659	-6135.341348	457.170924	-0.769590705	1024
49300	0.304392355	-6148.483142	467.0900688	-0.7277796014	1024
49400	0.3017097439	-6127.283507	462.973602	-0.6395456543	1024
49500	0.3018540812	-6119.893389	463.1950875	-0.6052566409	1024
49600	0.301969956	-6126.166304	463.3728975	-0.5826755864	1024
49700	0.2959191226	-6127.253819	454.0878936	-0.7009048692	1024
49800	0.293617685	-6118.805256	450.5563376	-0.7732160651	1024
49900	0.3095539232	-6129.284893	475.0104951	-0.6724839346	1024
50000	0.3053924512	-6119.105026	468.6247164	-0.6292926516	1024
