timestep	temperature	potential_energy	kinetic_energy	pressure	num_particles
0	0.4088974841	-4323.642205	627.4531893	5.344824945	1024
100	0.5101066914	-5539.491036	782.7587179	-0.5729867039	1024
200	0.2115720469	-5942.072887	324.6573059	-2.589184893	1024
300	0.1672958028	-6119.760817	256.7154093	-3.107055031	1024
400	0.2281526856	-6130.450119	350.100296	-2.698128683	1024
500	0.4308410624	-5927.287554	661.1256103	-1.347244819	1024
600	0.6495006546	-5551.509744	996.6587544	0.1738879872	1024
700	0.5306140364	-5614.991733	814.2272388	-0.5284469348	1024
800	0.3208625503	-5878.243981	492.3635835	-1.882397807	1024
900	0.2618236427	-6054.156485	401.7683797	-2.500611867	1024
1000	0.2958575089	-6078.81073	453.9933474	-2.145003394	1024
1100	0.4126148187	-5958.733136	633.1574393	-1.337144805	1024
1200	0.5420250071	-5793.598879	831.7373734	-0.6180020637	1024
1300	0.484061644	-5767.946385	742.7925927	-0.9010137411	1024
1400	0.3653560796	-5889.805163	560.6389042	-1.737491723	1024
1500	0.3192787723	-5998.578989	489.9332761	-2.088650462	1024
1600	0.3451246072	-6020.487692	529.5937097	-1.910064887	1024
1700	0.4085538121	-5941.313398	626.9258246	-1.294389101	1024
1800	0.4642823079	-5853.765964	712.4412015	-0.7290478012	1024
1900	0.455413508	-5898.560197	698.832028	-1.153202941	1024
2000	0.382814198	-5980.616215	587.4283868	-1.628736959	1024
2100	0.3459977207	-6040.136882	530.9335025	-1.774138575	1024
2200	0.3642296805	-6037.498405	558.9104447	-1.452686501	1024
2300	0.4201569845	-5991.2015	644.7308927	-1.172288067	1024
2400	0.4527931822	-5943.018937	694.8111381	-0.9473158375	1024
2500	0.4347178467	-5962.452172	667.0745358	-1.255576591	1024
2600	0.3865838537	-6016.229764	593.2129235	-1.429879909	1024
2700	0.3703009578	-6068.266852	568.2268197	-1.509679672	1024
2800	0.3726240186	-6066.532994	571.7915565	-1.320496307	1024
2900	0.3986996628	-6034.19153	611.8046325	-1.12457524	1024
3000	0.429783724	-6005.40154	659.5031244	-1.022245675	1024
3100	0.427733611	-6011.098913	656.3572261	-1.04174452	1024
3200	0.3979231378	-6054.580062	610.613055	-1.044618699	1024
3300	0.3730967352	-6094.234409	572.5169402	-1.354952499	1024
3400	0.3707902602	-6099.033403	568.9776543	-1.257713267	1024
3500	0.4019312927	-6080.763663	616.7635687	-1.086088232	1024
3600	0.411059558	-6028.344538	630.7708917	-0.9318107456	1024
3700	0.4298415774	-6041.730201	659.5919006	-0.7772465783	1024
3800	0.3977241996	-6075.065225	610.3077842	-0.8992153734	1024
3900	0.3754678759	-6143.158072	576.1554555	-0.9807363761	1024
4000	0.3623091835	-6165.687874	555.9634421	-1.042527102	1024
4100	0.3851438608	-6151.704391	591.0032544	-0.8374429216	1024
4200	0.4210374373	-6128.352533	646.0819475	-0.6508802369	1024
4300	0.4285671409	-6120.182085	657.6362778	-0.8452429939	1024
4400	0.4070920116	-6137.042831	624.6826919	-0.8524079412	1024
4500	0.3944372116	-6193.862623	605.2639012	-1.061128676	1024
4600	0.3877006284	-6232.956885	594.9266143	-1.112234603	1024
4700	0.3828021171	-6225.885705	587.4098487	-0.9291278981	1024
4800	0.3989821343	-6207.53273	612.238085	-0.700460727	1024
4900	0.4178773164	-6196.864828	641.2327421	-0.8471590772	1024
5000	0.3944851447	-6159.040045	605.3374546	-0.8765035748	1024
5100	0.4057641329	-6181.941502	622.6450619	-0.7981627189	1024
5200	0.4085893283	-6207.425568	626.9803243	-0.9226338103	1024
5300	0.3941490752	-6215.347107	604.8217558	-0.7884530816	1024
5400	0.3822133731	-6214.350537	586.506421	-0.9154497082	1024
5500	0.3854453495	-6212.880989	591.4658888	-0.7522766454	1024
5600	0.3955592079	-6195.303052	606.9856046	-0.5633145289	1024
5700	0.3844427448	-6149.025821	589.9273919	-0.6989865435	1024
5800	0.3970823369	-6158.975042	609.322846	-0.758569716	1024
5900	0.3931150569	-6166.31538	603.2350548	-0.8645846831	1024
6000	0.3916573793	-6177.198983	600.9982485	-0.9127469249	1024
6100	0.3849612457	-6163.517573	590.7230316	-0.7895639903	1024
6200	0.3903879921	-6158.242078	599.0503739	-0.9055810312	1024
6300	0.405793387	-6158.714171	622.6899524	-0.8534149272	1024
6400	0.4003537903	-6132.120903	614.3428913	-0.8357964967	1024
6500	0.4090321224	-6134.450809	627.6597918	-0.7592200123	1024
6600	0.3970277659	-6149.673126	609.2391068	-0.7712494672	1024
6700	0.4051782629	-6209.202764	621.7460444	-1.055718114	1024
6800	0.3755880148	-6185.693238	576.3398087	-0.8917450128	1024
6900	0.3940926243	-6187.215079	604.735132	-0.9376746687	1024
7000	0.4067822582	-6165.56748	624.2073753	-0.8935813824	1024
7100	0.4136337315	-6160.227222	634.720961	-0.6971127441	1024
7200	0.4088980541	-6163.963904	627.454064	-0.9453858085	1024
7300	0.3934588618	-6162.874754	603.7626235	-0.9524866555	1024
7400	0.3940122949	-6177.477454	604.6118665	-0.9974678518	1024
7500	0.3924105966	-6178.193173	602.1540604	-0.7252316762	1024
7600	0.4113625134	-6206.718645	631.2357768	-1.030921944	1024
7700	0.3978410726	-6188.836017	610.4871259	-0.948870053	1024
7800	0.383027416	-6155.917629	587.7555698	-1.096493549	1024
7900	0.4076584489	-6162.026418	625.5518899	-1.043579327	1024
8000	0.4205190557	-6159.828317	645.2864909	-0.7898067206	1024
8100	0.4099724409	-6163.48601	629.1027105	-0.7652130025	1024
8200	0.3983717393	-6189.776664	611.301434	-0.9176846882	1024
8300	0.384900139	-6188.912866	590.6292633	-0.9298604769	1024
8400	0.3889166231	-6173.421326	596.7925581	-0.7937569332	1024
8500	0.3991780487	-6159.847982	612.5387157	-0.8733154488	1024
8600	0.4036977958	-6141.693638	619.4742677	-0.984016635	1024
8700	0.40983954	-6144.835458	628.8987741	-0.913275504	1024
8800	0.4105799991	-6183.788834	630.0350087	-0.833082359	1024
8900	0.3815815685	-6193.724071	585.5369169	-0.8099152757	1024
9000	0.3964142233	-6248.025314	608.2976257	-0.7714710035	1024
9100	0.388860867	-6240.361878	596.7070004	-0.7161724424	1024
9200	0.391284246	-6226.969136	600.4256755	-0.5363262501	1024
9300	0.4120947637	-6240.303392	632.359415	-0.7627156696	1024
9400	0.4064789035	-6220.989737	623.7418775	-0.7323015062	1024
9500	0.4090846882	-6226.551235	627.7404541	-0.6967043943	1024
9600	0.3924193161	-6202.095004	602.1674406	-0.6745890414	1024
9700	0.3893158206	-6200.507553	597.4051268	-0.8106918877	1024
9800	0.3885715249	-6192.392481	596.263005	-0.6253675773	1024
9900	0.4026240007	-6207.407875	617.8265291	-0.8211617266	1024
10000	0.4089069708	-6226.911887	627.4677466	-0.6514308827	1024
10100	0.4002635375	-6232.7421	614.2043983	-0.690857767	1024
10200	0.3884425043	-6231.441007	596.0650228	-0.7241795026	1024
10300	0.3720487276	-6201.61533	570.9087726	-0.7986122438	1024
10400	0.3875018776	-6186.43629	594.6216311	-0.874665858	1024
10500	0.4249396192	-6184.007251	652.0698457	-0.8559503747	1024
10600	0.4270373511	-6173.992955	655.2888153	-0.8648596701	1024
10700	0.3954276461	-6161.752312	606.7837229	-0.9432849347	1024
10800	0.3871492279	-6191.519846	594.0804903	-0.9434967413	1024
10900	0.3812959334	-6200.254426	585.0986098	-1.003396759	1024
11000	0.3950783966	-6206.963956	606.2477995	-0.8916645159	1024
11100	0.4215045836	-6221.782261	646.7987835	-0.7965580682	1024
11200	0.4048868888	-6203.199186	621.2989309	-0.7087642155	1024
11300	0.403816336	-6221.624739	619.6561675	-0.8031029032	1024
11400	0.3891805022	-6216.100989	597.1974806	-0.7732330995	1024
11500	0.4136839066	-6248.662546	634.7979546	-0.7761628778	1024
11600	0.4022488433	-6224.102614	617.25085	-0.7250620572	1024
11700	0.3974069476	-6210.972898	609.820961	-0.7667193829	1024
11800	0.4063846972	-6216.492882	623.5973178	-0.8267056274	1024
11900	0.3974608243	-6216.379663	609.9036349	-0.6898297496	1024
12000	0.3889080662	-6229.764303	596.7794276	-0.6858527635	1024
12100	0.4011391335	-6268.628818	615.5480004	-0.6716357945	1024
12200	0.3943398336	-6268.016981	605.1144746	-0.8166139601	1024
12300	0.379588801	-6224.130965	582.4790152	-0.7359959553	1024
12400	0.4223531102	-6244.218577	648.1008476	-0.6449864175	1024
12500	0.4056559217	-6202.431813	622.4790119	-0.4874158675	1024
12600	0.4033807735	-6217.34103	618.987797	-0.6714792244	1024
12700	0.4018667036	-6243.380627	616.6644567	-0.8291062873	1024
12800	0.3877198375	-6243.580618	594.9560906	-0.7064401953	1024
12900	0.3816197655	-6233.733855	585.5955302	-0.6763757535	1024
13000	0.4031754859	-6241.855596	618.6727832	-0.5869462121	1024
13100	0.4162307016	-6240.673533	638.7060116	-0.3687930102	1024
13200	0.4203784134	-6258.01556	645.0706753	-0.5901716149	1024
13300	0.3888557643	-6249.827468	596.6991703	-0.6372644658	1024
13400	0.3840599369	-6281.1563	589.3399732	-0.7196672988	1024
13500	0.3791801679	-6275.147516	581.8519676	-0.7096247999	1024
13600	0.3956655022	-6269.891969	607.1487131	-0.6137381797	1024
13700	0.421640652	-6260.097443	647.0075805	-0.5398128131	1024
13800	0.4126844633	-6239.943025	633.2643089	-0.5445352299	1024
13900	0.3805294283	-6218.969489	583.9224078	-0.6231638972	1024
14000	0.3886081786	-6249.098482	596.31925	-0.7317399049	1024
14100	0.3971322247	-6255.76007	609.3993987	-0.8078655037	1024
14200	0.4013907688	-6236.450866	615.9341347	-0.6588465181	1024
14300	0.4115848497	-6232.861671	631.5769519	-0.6495326979	1024
14400	0.3956737501	-6208.712103	607.1613695	-0.6966988877	1024
14500	0.4024312266	-6224.659232	617.5307171	-0.5492656303	1024
14600	0.3823647297	-6215.94891	586.7386778	-0.6263607443	1024
14700	0.4048627276	-6256.523884	621.2618555	-0.6517737436	1024
14800	0.3940613715	-6245.116841	604.6871746	-0.5395076599	1024
14900	0.4022524747	-6267.290488	617.2564224	-0.6823501346	1024
15000	0.3804822174	-6238.552166	583.8499627	-0.7332906751	1024
15100	0.4097359224	-6267.172582	628.7397729	-0.685513471	1024
15200	0.4012680086	-6252.183582	615.7457593	-0.6229722555	1024
15300	0.3951296741	-6257.004489	606.3264849	-0.68242504	1024
15400	0.3856608325	-6249.355978	591.7965475	-0.7320340919	1024
15500	0.3947534868	-6239.651132	605.7492256	-0.5954549991	1024
15600	0.4193578178	-6248.210597	643.5045715	-0.6159187834	1024
15700	0.40199793	-6233.023741	616.8658236	-0.420396429	1024
15800	0.3924845206	-6264.834008	602.2674968	-0.4981625205	1024
15900	0.3864028827	-6307.166826	592.9352235	-0.7398413547	1024
16000	0.3753439328	-6295.997268	575.9652649	-0.789136079	1024
16100	0.3924683304	-6276.628846	602.2426531	-0.5688257115	1024
16200	0.4073469882	-6244.486021	625.0739535	-0.4780159995	1024
16300	0.4088861309	-6236.580364	627.4357679	-0.6737220011	1024
16400	0.3995684871	-6244.199305	613.1378434	-0.5960541615	1024
16500	0.3948594251	-6265.101934	605.9117877	-0.7579010423	1024
16600	0.3992569384	-6282.97083	612.659772	-0.6506080941	1024
16700	0.3909823278	-6259.910419	599.9623821	-0.6621981122	1024
16800	0.4006024499	-6248.711096	614.7244594	-0.3881003403	1024
16900	0.4117903514	-6252.927457	631.8922942	-0.6753408179	1024
17000	0.3919562706	-6228.343392	601.4568972	-0.6719235949	1024
17100	0.3971281855	-6243.911466	609.3932007	-0.8131762993	1024
17200	0.3961990418	-6251.119969	607.9674296	-0.8222368041	1024
17300	0.3890944214	-6244.710123	597.0653896	-0.7405631637	1024
17400	0.4048003634	-6249.787104	621.1661576	-0.9216953797	1024
17500	0.4243417659	-6253.406506	651.1524398	-0.8215775376	1024
17600	0.4241588349	-6259.253754	650.8717322	-0.8151326796	1024
17700	0.3867196315	-6256.637884	593.4212745	-0.7281849023	1024
17800	0.3721766036	-6285.236692	571.1049982	-0.7840563007	1024
17900	0.3826972732	-6300.41761	587.2489657	-0.9384049748	1024
18000	0.4045007785	-6285.458581	620.7064446	-0.6464520728	1024
18100	0.3989243721	-6231.314471	612.1494489	-0.6170414584	1024
18200	0.4099548257	-6230.917772	629.07568	-0.4666497712	1024
18300	0.3986155576	-6230.471195	611.6755732	-0.6626458815	1024
18400	0.3888824689	-6241.001063	596.7401485	-0.6631621145	1024
18500	0.4002841799	-6259.834474	614.236074	-0.6673980593	1024
18600	0.4051703281	-6243.789281	621.7338685	-0.6659568694	1024
18700	0.4028393111	-6217.694622	618.1569229	-0.6235532423	1024
18800	0.4083615026	-6214.174692	626.6307258	-0.8318678675	1024
18900	0.3909917162	-6195.436735	599.9767884	-0.6685210769	1024
19000	0.4078312888	-6230.15158	625.8171127	-0.8929174031	1024
19100	0.4068161908	-6236.055436	624.2594448	-0.8187863001	1024
19200	0.3773379147	-6214.936867	579.0250301	-0.6994526981	1024
19300	0.3994155888	-6243.133705	612.903221	-0.8910632477	1024
19400	0.4015157453	-6224.010247	616.1259112	-0.737336147	1024
19500	0.4072843184	-6208.557403	624.9777867	-0.6409667082	1024
19600	0.4022317995	-6218.010053	617.2246963	-0.6336163145	1024
19700	0.3893636328	-6245.52092	597.4784945	-0.8671213971	1024
19800	0.3949272707	-6282.668676	606.0158968	-0.9041869063	1024
19900	0.3911170145	-6268.133862	600.1690587	-0.9190301609	1024
20000	0.406286701	-6250.148757	623.4469427	-0.7568683437	1024
20100	0.4141054083	-6228.320161	635.4447491	-0.5669694571	1024
20200	0.4257054816	-6252.576694	653.2450615	-0.8075312778	1024
20300	0.396405521	-6251.456557	608.284272	-0.7823082748	1024
20400	0.3791149242	-6266.528441	581.7518513	-0.8058061067	1024
20500	0.4013493677	-6297.202237	615.8706048	-0.9563485739	1024
20600	0.4055062136	-6263.682961	622.2492848	-0.8249463039	1024
20700	0.4184173562	-6246.537338	642.0614332	-0.6063080219	1024
20800	0.415607771	-6243.166021	637.7501247	-0.7831342845	1024
20900	0.3990328581	-6248.11792	612.3159208	-0.8299336736	1024
21000	0.384940937	-6241.021538	590.6918678	-0.9646147042	1024
21100	0.402406944	-6239.116444	617.4934555	-0.7560099938	1024
21200	0.4053566678	-6209.40668	622.0198068	-0.6003070725	1024
21300	0.4224523287	-6233.634611	648.2530983	-0.6776462337	1024
21400	0.4149247956	-6251.745383	636.7020989	-0.9198177191	1024
21500	0.3948691411	-6251.988482	605.9266969	-0.7017671824	1024
21600	0.3919696862	-6258.858926	601.4774835	-0.7117359744	1024
21700	0.388584813	-6241.569857	596.2833955	-0.7284682571	1024
21800	0.4034090077	-6240.255716	619.0311223	-0.6134348587	1024
21900	0.394790543	-6218.195802	605.8060882	-0.7650495041	1024
22000	0.4018273314	-6233.110151	616.6040401	-0.66776949	1024
22100	0.3967817992	-6236.620454	608.8616708	-0.6146140061	1024
22200	0.4022783834	-6250.838994	617.2961793	-0.6978951952	1024
22300	0.3921105578	-6237.319977	601.6936509	-0.5344204058	1024
22400	0.4044982739	-6258.353523	620.7026012	-0.6786579632	1024
22500	0.4044557761	-6245.741592	620.6373884	-0.6610066801	1024
22600	0.4018928033	-6231.813484	616.7045066	-0.7782195421	1024
22700	0.385283027	-6207.336185	591.2168049	-0.8397239473	1024
22800	0.4022542418	-6226.971821	617.2591341	-0.75698605	1024
22900	0.4036814629	-6231.586123	619.4492049	-0.6688474929	1024
23000	0.393458875	-6247.099943	603.7626437	-0.6797313623	1024
23100	0.3896926216	-6258.667094	597.9833279	-0.7372639037	1024
23200	0.3932817715	-6255.23491	603.4908783	-0.7232278145	1024
23300	0.3896918626	-6216.764905	597.9821631	-0.7868853468	1024
23400	0.4084390496	-6205.335133	626.7497216	-0.6345758875	1024
23500	0.4179631672	-6212.945043	641.3644801	-0.5976595618	1024
23600	0.4056150939	-6231.954545	622.4163615	-0.7219728524	1024
23700	0.3888453763	-6249.447051	596.6832299	-0.7168630309	1024
23800	0.3890595635	-6265.440323	597.0119002	-0.7954948475	1024
23900	0.3981904959	-6270.239187	611.023316	-0.8529273941	1024
24000	0.4207025062	-6296.303397	645.5679958	-0.7548680514	1024
24100	0.4167121095	-6299.423059	639.444732	-0.5928019523	1024
24200	0.3889238103	-6285.327938	596.8035869	-0.8539902402	1024
24300	0.3864448092	-6277.523343	592.9995598	-0.6958168891	1024
24400	0.38741863	-6234.822604	594.4938877	-0.6076649177	1024
24500	0.4250653398	-6245.032708	652.2627639	-0.5826478324	1024
24600	0.4241687323	-6248.297852	650.8869197	-0.6506199606	1024
24700	0.3714844371	-6217.495283	570.0428688	-0.8111997875	1024
24800	0.3968471192	-6261.578244	608.9619044	-1.012886994	1024
24900	0.4080297836	-6236.894278	626.1217029	-0.6317895051	1024
25000	0.4232024201	-6229.396487	649.4041136	-0.5807238396	1024
25100	0.3949696953	-6200.448777	606.0809975	-0.5371735616	1024
25200	0.3978403541	-6238.569598	610.4860233	-0.770231221	1024
25300	0.3947081767	-6268.679327	605.6796972	-0.8229292029	1024
25400	0.3775253273	-6247.58041	579.3126147	-0.5830692541	1024
25500	0.4036207179	-6266.955418	619.3559917	-0.6346253809	1024
25600	0.4054053858	-6244.981128	622.0945645	-0.7539968412	1024
25700	0.4006922153	-6225.152089	614.8622044	-0.8514465243	1024
25800	0.405206467	-6211.497701	621.7893235	-0.8518209357	1024
25900	0.4028281501	-6205.985573	618.1397963	-0.6022728034	1024
26000	0.3982529658	-6222.252216	611.1191761	-0.6815446228	1024
26100	0.3995168912	-6258.299567	613.0586696	-0.7250140841	1024
26200	0.3858985683	-6259.635654	592.1613531	-0.6943852809	1024
26300	0.3869925702	-6255.95623	593.840099	-0.7255651428	1024
26400	0.3993273827	-6261.188109	612.7678687	-0.7192904403	1024
26500	0.4024561315	-6259.445316	617.5689337	-0.7392091243	1024
26600	0.4032072301	-6254.766774	618.7214946	-0.7392994706	1024
26700	0.4152906889	-6276.621412	637.2635621	-0.7122520891	1024
26800	0.4136923648	-6290.772534	634.8109338	-0.7343177295	1024
26900	0.3819705981	-6262.017376	586.1338828	-0.746209862	1024
27000	0.400304745	-6287.071983	614.2676312	-0.8619630552	1024
27100	0.4060517097	-6281.199361	623.0863486	-0.7173875616	1024
27200	0.4011756844	-6265.409273	615.6040877	-0.6512344599	1024
27300	0.388485879	-6246.954224	596.1315814	-0.7070647894	1024
27400	0.4147526852	-6285.621513	636.4379954	-0.768122816	1024
27500	0.4066228756	-6268.757797	623.9628027	-0.5804388239	1024
27600	0.3967142231	-6283.139237	608.7579754	-0.5766011964	1024
27700	0.3695989251	-6275.126964	567.1495506	-0.9757140408	1024
27800	0.3816341497	-6284.450407	585.6176027	-0.815614011	1024
27900	0.410945235	-6285.28705	630.5954631	-0.6925762165	1024
28000	0.4096067865	-6253.631841	628.541614	-0.632199991	1024
28100	0.3974055596	-6240.822081	609.8188312	-0.6947485696	1024
28200	0.4142060097	-6290.659187	635.5991219	-0.761199786	1024
28300	0.3857614483	-6259.827759	591.9509425	-0.8307430322	1024
28400	0.3977209742	-6264.560974	610.3028349	-0.7745282427	1024
28500	0.3960055894	-6238.960482	607.6705769	-0.8021220568	1024
28600	0.4154123087	-6249.075636	637.4501877	-0.7490141875	1024
28700	0.4166193585	-6253.977737	639.3024056	-0.7311448045	1024
28800	0.3934928587	-6245.294028	603.8147917	-0.5989986329	1024
28900	0.4031416825	-6282.668017	618.6209118	-0.8388045793	1024
29000	0.3992960363	-6283.452173	612.7197677	-0.9311304593	1024
29100	0.4016402998	-6266.997121	616.3170401	-0.8479218117	1024
29200	0.3987537327	-6231.468196	611.8876029	-0.5367048768	1024
29300	0.412393772	-6234.902268	632.8182431	-0.7845010527	1024
29400	0.4085061933	-6250.415145	626.8527536	-0.9274949052	1024
29500	0.3923242703	-6248.621612	602.0215927	-0.9555157496	1024
29600	0.4009272097	-6263.160153	615.2228032	-0.8910891657	1024
29700	0.3935187165	-6245.602782	603.8544704	-0.805921812	1024
29800	0.4040987106	-6244.661407	620.0894714	-0.8496284965	1024
29900	0.4077886722	-6230.166717	625.7517175	-0.8130719686	1024
30000	0.4080070047	-6228.822409	626.0867486	-0.7907845599	1024
30100	0.3993069523	-6236.881444	612.7365184	-0.8663672595	1024
30200	0.3953262597	-6246.711329	606.6281454	-0.717722081	1024
30300	0.3914217573	-6251.870661	600.6366866	-0.5970243159	1024
30400	0.4093543831	-6282.712536	628.1543009	-0.7769506132	1024
30500	0.4082099593	-6279.10628	626.3981826	-0.7838152479	1024
30600	0.3996551764	-6263.202728	613.2708682	-0.7669043829	1024
30700	0.3945368436	-6245.889917	605.4167865	-0.760754964	1024
30800	0.405038236	-6257.01825	621.5311732	-0.7418062544	1024
30900	0.4040289528	-6260.965057	619.9824281	-0.7466073154	1024
31000	0.3897879638	-6240.581048	598.1296304	-0.9790499885	1024
31100	0.4011960468	-6238.714057	615.6353339	-0.8459418774	1024
31200	0.4123029257	-6242.071742	632.6788395	-0.7454245936	1024
31300	0.4071174106	-6246.764755	624.7216665	-0.6211197664	1024
31400	0.3947539124	-6257.066355	605.7498786	-0.7111836217	1024
31500	0.3948900829	-6277.474042	605.9588323	-0.8563805507	1024
31600	0.3860443646	-6251.200164	592.3850774	-0.5623776846	1024
31700	0.4014076655	-6257.799791	615.9600627	-0.5592709001	1024
31800	0.4082476035	-6261.270051	626.4559476	-0.4905953365	1024
31900	0.4049647258	-6266.549031	621.4183718	-0.5913680291	1024
32000	0.3901085952	-6267.22754	598.6216393	-0.7871104691	1024
32100	0.392870277	-6269.115184	602.8594401	-0.8419602456	1024
32200	0.4059959067	-6265.212106	623.0007188	-0.5725338047	1024
32300	0.3983599856	-6242.911742	611.2833978	-0.7093964263	1024
32400	0.4057293051	-6254.888161	622.5916186	-0.8636660947	1024
32500	0.3964711904	-6242.510553	608.3850417	-0.8127882459	1024
32600	0.3993355426	-6230.644598	612.7803902	-0.6380495387	1024
32700	0.4185774684	-6260.073191	642.3071253	-0.6835426093	1024
32800	0.3927002713	-6261.09921	602.5985663	-0.5170948419	1024
32900	0.3898524767	-6291.447075	598.2286255	-0.755996328	1024
33000	0.4020156217	-6315.883875	616.8929716	-0.6088290271	1024
33100	0.3928483122	-6288.059796	602.825735	-0.4633051168	1024
33200	0.3900474095	-6254.405362	598.5277499	-0.6497794873	1024
33300	0.4069136197	-6254.335815	624.4089495	-0.5105782112	1024
33400	0.4060622533	-6264.106121	623.1025277	-0.4715018873	1024
33500	0.3817930089	-6260.119526	585.8613721	-0.5808674676	1024
33600	0.3820195065	-6272.979597	586.2089327	-0.6493590955	1024
33700	0.3972239486	-6281.201182	609.5401491	-0.6227590946	1024
33800	0.4116516814	-6273.478178	631.6795051	-0.6100227985	1024
33900	0.4045827709	-6254.582765	620.832262	-0.4907253311	1024
34000	0.4075518907	-6280.735922	625.3883763	-0.6852718425	1024
34100	0.3883146331	-6281.819196	595.8688044	-0.835900175	1024
34200	0.3901544338	-6288.94843	598.6919786	-0.6981931727	1024
34300	0.4036542762	-6289.084137	619.4074869	-0.4756148151	1024
34400	0.3951726131	-6268.517836	606.3923748	-0.6515937299	1024
34500	0.3908715433	-6255.599435	599.7923833	-0.4449536547	1024
34600	0.3880731267	-6255.472425	595.4982129	-0.5495635013	1024
34700	0.3996324411	-6277.593578	613.2359809	-0.7500239479	1024
34800	0.3940580497	-6264.945904	604.6820773	-0.593155483	1024
34900	0.4048807721	-6266.076723	621.2895449	-0.763169358	1024
35000	0.4100009665	-6265.497045	629.1464831	-0.5286309577	1024
35100	0.3997301707	-6252.419043	613.3859469	-0.7161428733	1024
35200	0.4140584089	-6277.556753	635.3726285	-0.7667422436	1024
35300	0.4071612472	-6282.444911	624.7889338	-0.7099990987	1024
35400	0.4000636328	-6300.341136	613.8976446	-0.6197010341	1024
35500	0.3855976736	-6295.164889	591.6996301	-0.6616479391	1024
35600	0.3956632246	-6314.354215	607.1452182	-0.7224205992	1024
35700	0.4005074326	-6303.897973	614.5786554	-0.6363448165	1024
35800	0.4053531927	-6291.965511	622.0144743	-0.6294877995	1024
35900	0.3951498118	-6283.079577	606.3573862	-0.6042304407	1024
36000	0.3983724358	-6298.726366	611.3025027	-0.6589324253	1024
36100	0.401959204	-6313.416136	616.8063986	-0.7660825496	1024
36200	0.3849053051	-6275.837587	590.6371907	-0.5458216441	1024
36300	0.4024897977	-6268.182018	617.6205946	-0.5622664324	1024
36400	0.4128383728	-6258.436155	633.5004831	-0.74830824	1024
36500	0.3897952128	-6207.561003	598.1407541	-0.8021690447	1024
36600	0.4018372594	-6218.440956	616.6192746	-0.8100684825	1024
36700	0.4129148072	-6253.843671	633.6177717	-0.8373620625	1024
36800	0.3897862326	-6245.246992	598.1269739	-0.7314327043	1024
36900	0.399657458	-6265.844984	613.2743694	-0.7433065132	1024
37000	0.3960943344	-6257.772731	607.8067562	-0.8048512057	1024
37100	0.3953760906	-6244.999088	606.704611	-0.8121882086	1024
37200	0.4099651053	-6242.647888	629.091454	-0.8107918744	1024
37300	0.388493127	-6197.831702	596.1427034	-0.5985334065	1024
37400	0.39971383	-6224.204133	613.3608722	-0.703545942	1024
37500	0.3995480057	-6254.149795	613.1064147	-0.763043138	1024
37600	0.3900357974	-6271.122594	598.5099311	-0.7506305759	1024
37700	0.3932821315	-6290.353975	603.4914308	-0.7184304375	1024
37800	0.3811327112	-6271.285064	584.8481454	-0.5310611045	1024
37900	0.3914918495	-6276.367842	600.744243	-0.6514368105	1024
38000	0.4136675426	-6294.914226	634.7728442	-0.72952541	1024
38100	0.3943027705	-6264.420118	605.0576013	-0.7560611819	1024
38200	0.4138560195	-6287.813826	635.0620619	-0.8663124741	1024
38300	0.4010775302	-6271.951591	615.4534701	-0.779059208	1024
38400	0.3883961391	-6267.841685	595.9938754	-0.7126886781	1024
38500	0.3972009981	-6283.081493	609.5049316	-0.6806186272	1024
38600	0.4030993159	-6291.805698	618.5559003	-0.7096602903	1024
38700	0.3863275669	-6273.288746	592.8196513	-0.5670531665	1024
38800	0.4074350767	-6298.837479	625.2091252	-0.6606529588	1024
38900	0.3969786499	-6281.108759	609.1637383	-0.7685173875	1024
39000	0.4065224194	-6281.73898	623.8086525	-0.8038040072	1024
39100	0.4075900663	-6280.054589	625.4469567	-0.7320288874	1024
39200	0.397261618	-6262.678375	609.5979528	-0.708419919	1024
39300	0.3947535631	-6256.494937	605.7493425	-0.3878118562	1024
39400	0.4027174559	-6283.969471	617.9699361	-0.540084567	1024
39500	0.3813720933	-6266.87664	585.2154771	-0.7356367028	1024
39600	0.3981272886	-6276.081319	610.9263244	-0.7327334618	1024
39700	0.412199882	-6270.839775	632.520719	-0.6350781663	1024
39800	0.4085906057	-6265.642104	626.9822844	-0.4519607325	1024
39900	0.4124944815	-6302.169473	632.9727819	-0.6115973969	1024
40000	0.3992868477	-6331.682177	612.7056678	-0.6337746373	1024
40100	0.3823248818	-6337.252683	586.6775311	-0.5588640181	1024
40200	0.3844684771	-6342.112093	589.9668781	-0.5481646964	1024
40300	0.3942733942	-6325.259514	605.0125234	-0.4850551193	1024
40400	0.4215458259	-6336.280369	646.8620698	-0.5435183388	1024
40500	0.4201133685	-6340.966567	644.6639639	-0.5228418549	1024
40600	0.392263746	-6316.659098	601.9287182	-0.6844835162	1024
40700	0.3888924374	-6309.161043	596.7554452	-0.5014105029	1024
40800	0.4094218337	-6325.550607	628.2578039	-0.5242593511	1024
40900	0.3976131154	-6297.728018	610.1373256	-0.3915058066	1024
41000	0.4021385251	-6303.398646	617.0815668	-0.6422953978	1024
41100	0.397049037	-6299.978123	609.2717472	-0.5259486298	1024
41200	0.4014963117	-6311.96573	616.0960902	-0.519551298	1024
41300	0.4021747969	-6315.112325	617.1372258	-0.6271759529	1024
41400	0.3951334028	-6319.362667	606.3322065	-0.4394163598	1024
41500	0.3950325199	-6316.352831	606.1774018	-0.6525811382	1024
41600	0.3876176848	-6290.392028	594.7993373	-0.5938759814	1024
41700	0.4154612261	-6299.348095	637.5252514	-0.5194739243	1024
41800	0.4065922372	-6275.329793	623.915788	-0.4101120614	1024
41900	0.4071577641	-6308.540192	624.783589	-0.6994298803	1024
42000	0.3933586492	-6320.573167	603.6088472	-0.6730088652	1024
42100	0.3888181747	-6309.147347	596.6414891	-0.6029263402	1024
42200	0.4120550389	-6308.065093	632.2984572	-0.4520527184	1024
42300	0.412634538	-6291.58393	633.1876985	-0.5580650803	1024
42400	0.4009958295	-6276.837631	615.3281004	-0.7723926044	1024
42500	0.4012110177	-6280.746362	615.6583067	-0.6417015028	1024
42600	0.3980275459	-6292.844575	610.7732692	-0.4870126503	1024
42700	0.4019717753	-6318.759449	616.8256892	-0.8261255982	1024
42800	0.3834787832	-6300.731968	588.4481928	-0.6785842192	1024
42900	0.3936277267	-6293.982096	604.0217466	-0.7163253441	1024
43000	0.4058861679	-6284.75054	622.8323247	-0.6181379389	1024
43100	0.4065979457	-6287.199378	623.9245476	-0.5566007457	1024
43200	0.3867807311	-6275.130907	593.5150319	-0.5530912972	1024
43300	0.3780365729	-6272.908819	580.0971212	-0.6750498609	1024
43400	0.3955867069	-6291.960739	607.0278018	-0.7900565952	1024
43500	0.4078094043	-6317.651174	625.7835309	-0.5991487098	1024
43600	0.3998649484	-6330.260345	613.5927634	-0.6761527116	1024
43700	0.3799166872	-6303.795885	582.9821565	-0.790132371	1024
43800	0.3963398229	-6297.368667	608.1834582	-0.6094378208	1024
43900	0.411304599	-6281.015206	631.1469072	-0.5837671073	1024
44000	0.4009765468	-6254.570939	615.298511	-0.5337979487	1024
44100	0.3963902128	-6278.490599	608.2607815	-0.5561380451	1024
44200	0.3962332543	-6312.369951	608.0199286	-0.6277660971	1024
44300	0.3983964242	-6319.68156	611.339313	-0.9140434225	1024
44400	0.3918285495	-6279.094603	601.2609092	-0.6858811982	1024
44500	0.4032328337	-6259.945852	618.7607833	-0.5508483332	1024
44600	0.4132128051	-6261.052802	634.0750494	-0.4650678613	1024
44700	0.402860258	-6260.740652	618.189066	-0.7148440366	1024
44800	0.3971229624	-6278.20617	609.3851858	-0.7408479487	1024
44900	0.3988682086	-6282.409864	612.0632661	-0.68620972	1024
45000	0.4061630257	-6270.992546	623.257163	-0.5500029436	1024
45100	0.4015781115	-6254.209984	616.2216121	-0.5766306078	1024
45200	0.401003624	-6266.673221	615.340061	-0.5710295717	1024
45300	0.3919073783	-6264.241759	601.381872	-0.6173685323	1024
45400	0.3929942032	-6268.269144	603.0496048	-0.6009141088	1024
45500	0.3990704707	-6287.067364	612.3736373	-0.6899087646	1024
45600	0.4012036307	-6303.117145	615.6469713	-0.570628177	1024
45700	0.4013733627	-6308.564929	615.907425	-0.6251864332	1024
45800	0.3946240694	-6285.638234	605.5506345	-0.5337463863	1024
45900	0.4164336764	-6290.668435	639.0174765	-0.5552782402	1024
46000	0.3894691796	-6237.907783	597.6404561	-0.4843402747	1024
46100	0.4164966873	-6284.822623	639.1141666	-0.5760466365	1024
46200	0.3949152917	-6279.794487	605.9975151	-0.4556605491	1024
46300	0.4062915419	-6333.222716	623.454371	-0.6047987101	1024
46400	0.3939602113	-6329.715296	604.5319442	-0.7169021712	1024
46500	0.3896306312	-6292.248054	597.8882036	-0.691115568	1024
46600	0.4059161237	-6250.097002	622.8782918	-0.5583196018	1024
46700	0.417275233	-6223.110666	640.308845	-0.5099579883	1024
46800	0.4098852482	-6223.634135	628.9689134	-0.6497274505	1024
46900	0.3881896364	-6239.035749	595.6769971	-0.8066170735	1024
47000	0.3841977856	-6264.503534	589.551502	-0.9288537385	1024
47100	0.3850887291	-6258.767993	590.9186549	-0.8007730304	1024
47200	0.391916423	-6231.759412	601.3957512	-0.618619901	1024
47300	0.4085014582	-6215.165802	626.8454876	-0.7992781204	1024
47400	0.4074148672	-6214.921999	625.1781137	-0.4719770432	1024
47500	0.389449055	-6240.141943	597.6095749	-0.8520103586	1024
47600	0.3982060804	-6286.236716	611.0472303	-0.8980063823	1024
47700	0.3867122299	-6260.497996	593.4099168	-0.8221586394	1024
47800	0.4005344527	-6235.670802	614.6201177	-0.7112630268	1024
47900	0.4087056284	-6214.108867	627.1587868	-0.7047266915	1024
48000	0.4161427507	-6237.178925	638.571051	-0.8521795441	1024
48100	0.3927004604	-6254.599655	602.5988565	-0.8267351208	1024
48200	0.3801748144	-6274.605298	583.3782526	-0.7563332716	1024
48300	0.3830068508	-6279.705864	587.7240125	-0.7789751758	1024
48400	0.4060146309	-6278.88825	623.0294511	-0.779643439	1024
48500	0.4130687811	-6246.887788	633.8540446	-0.711630447	1024
48600	0.4152799883	-6245.00465	637.247142	-0.4854311137	1024
48700	0.4099650775	-6280.04832	629.0914114	-0.7286823353	1024
48800	0.3638897744	-6258.583468	558.3888588	-0.7217422254	1024
48900	0.3814564517	-6287.475622	585.3449251	-0.743713594	1024
49000	0.3981371694	-6280.464062	610.9414865	-0.5804241481	1024
49100	0.416636314	-6286.001499	639.3284238	-0.4136767281	1024
49200	0.4133267276	-6287.61292	634.2498635	-0.7535370735	1024
49300	0.3991307977	-6274.12244	612.4662091	-0.6641017633	1024
49400	0.4022889667	-6287.34941	617.3124195	-0.596578093	1024
49500	0.4086203433	-6312.40777	627.0279168	-0.5505764028	1024
49600	0.3997429181	-6314.155762	613.4055079	-0.6126818842	1024
49700	0.3931262371	-6314.752827	603.2522108	-0.7589716623	1024
49800	0.4007488368	-6313.715014	614.9490901	-0.7823096476	1024
49900	0.4062327866	-6304.955696	623.364211	-0.802081906	1024
50000	0.400203883	-6282.644851	614.1128585	-0.5413739616	1024
50100	0.3957642425	-6274.195071	607.3002301	-0.5839437824	1024
50200	0.3880638571	-6282.257462	595.4839887	-0.6725366982	1024
50300	0.4020089364	-6308.849615	616.8827129	-0.5228421532	1024
50400	0.4040404656	-6305.959479	620.0000944	-0.5074021204	1024
50500	0.4037331582	-6304.50606	619.5285313	-0.5605037914	1024
50600	0.392546486	-6291.936004	602.3625828	-0.4119944778	1024
50700	0.403266094	-6308.560806	618.8118212	-0.6537307226	1024
50800	0.3987608597	-6297.926776	611.8985392	-0.5657511067	1024
50900	0.4106999386	-6319.525556	630.2190558	-0.5243808522	1024
51000	0.3844726169	-6298.163961	589.9732307	-0.5086784817	1024
51100	0.4038146969	-6324.887725	619.6536524	-0.5544963154	1024
51200	0.3924828714	-6298.111564	602.2649661	-0.5526936392	1024
51300	0.4025079654	-6306.159572	617.6484729	-0.5604906955	1024
51400	0.4028198453	-6313.39181	618.1270526	-0.7133616935	1024
51500	0.3924621819	-6306.528198	602.2332182	-0.780800454	1024
51600	0.3818646008	-6279.449974	585.9712299	-0.5305935303	1024
51700	0.4026004533	-6297.501445	617.7903957	-0.7358208258	1024
51800	0.4025836684	-6302.282278	617.7646392	-0.6017620933	1024
51900	0.3933849811	-6293.759273	603.6492534	-0.6077012541	1024
52000	0.3992206003	-6313.835813	612.6040111	-0.7805961474	1024
52100	0.3936042945	-6320.266377	603.9857899	-0.7319443787	1024
52200	0.3897586065	-6295.423447	598.0845816	-0.5450004238	1024
52300	0.3962835178	-6280.176529	608.097058	-0.5414375202	1024
52400	0.4052805007	-6278.932276	621.9029284	-0.6916921704	1024
52500	0.4097146044	-6286.181325	628.7070604	-0.6520029322	1024
52600	0.4155535599	-6302.552693	637.6669377	-0.6716117071	1024
52700	0.3937466181	-6290.219579	604.2041854	-0.488607573	1024
52800	0.3907474782	-6306.150114	599.6020054	-0.6093456439	1024
52900	0.3813874857	-6285.673288	585.2390968	-0.7080150184	1024
53000	0.4027590024	-6278.139994	618.0336892	-0.7966161824	1024
53100	0.4224545309	-6279.845481	648.2564776	-0.6432959789	1024
53200	0.4061391877	-6257.869236	623.2205836	-0.5970081885	1024
53300	0.4100746029	-6296.006363	629.2594782	-0.692006247	1024
53400	0.3748928966	-6279.472932	575.2731498	-0.6585799526	1024
53500	0.3997498581	-6318.130528	613.4161572	-0.6525684411	1024
53600	0.396314323	-6292.889255	608.1443286	-0.6189792385	1024
53700	0.3901343475	-6261.172356	598.6611562	-0.6809021161	1024
53800	0.4116118295	-6279.224767	631.6183523	-0.6373627594	1024
53900	0.4097193579	-6278.859824	628.7143547	-0.5803912394	1024
54000	0.3909274054	-6280.511042	599.8781036	-0.8389070468	1024
54100	0.3942555098	-6300.527864	604.9850798	-0.8899349782	1024
54200	0.3982061095	-6292.617983	611.047275	-0.8164237313	1024
54300	0.4241351177	-6297.126802	650.8353381	-0.7480182552	1024
54400	0.4080372199	-6265.998964	626.1331139	-0.5982846947	1024
54500	0.3865421575	-6250.085434	593.1489406	-0.6618590748	1024
54600	0.3966808316	-6276.482721	608.7067361	-0.5619451638	1024
54700	0.4011583532	-6284.839102	615.5774929	-0.7134527416	1024
54800	0.3976521789	-6274.479073	610.1972686	-0.6150173459	1024
54900	0.3989136675	-6274.549806	612.1330229	-0.6445888576	1024
55000	0.4092020067	-6289.645669	627.9204793	-0.8399734146	1024
55100	0.3881411309	-6263.807876	595.6025653	-0.7699503981	1024
55200	0.3983695369	-6272.188422	611.2980544	-0.7645474646	1024
55300	0.4091501435	-6259.624281	627.8408953	-0.6202362655	1024
55400	0.4098529748	-6249.468398	628.9193899	-0.6281148725	1024
55500	0.3920716096	-6234.075482	601.6338849	-0.8669025993	1024
55600	0.3994429872	-6257.259728	612.9452639	-0.9501608704	1024
55700	0.3927370621	-6250.508945	602.6550218	-0.7285322054	1024
55800	0.3982216228	-6265.430093	611.0710802	-0.5610886836	1024
55900	0.3976339408	-6278.660504	610.1692821	-0.8506925565	1024
56000	0.3921425324	-6270.151591	601.7427159	-0.8688759009	1024
56100	0.3945359952	-6251.447042	605.4154846	-0.9305277409	1024
56200	0.4028545667	-6245.878713	618.1803326	-0.7056017731	1024
56300	0.4089551814	-6261.998304	627.5417259	-0.8164883185	1024
56400	0.3954086426	-6268.07255	606.7545621	-0.853866589	1024
56500	0.3885441752	-6271.871997	596.2210368	-0.9690890506	1024
56600	0.3947718285	-6262.001769	605.7773708	-0.8045446932	1024
56700	0.4197700281	-6265.300824	644.1371081	-0.6636348688	1024
56800	0.4159522237	-6259.248449	638.2786873	-0.8873267061	1024
56900	0.4125504718	-6273.814405	633.058699	-0.7957205895	1024
57000	0.4047046411	-6291.783667	621.0192717	-0.8633096418	1024
57100	0.3820004132	-6279.243509	586.1796341	-0.7012523987	1024
57200	0.3973507006	-6298.417838	609.7346501	-0.5359362673	1024
57300	0.3956832176	-6282.642348	607.1758974	-0.4614533729	1024
57400	0.3981570836	-6274.258025	610.9720448	-0.6622137963	1024
57500	0.395277961	-6255.394503	606.5540312	-0.8349331554	1024
57600	0.3952729877	-6239.826028	606.5463997	-0.5800374827	1024
57700	0.3903172143	-6230.814707	598.9417653	-0.7869678985	1024
57800	0.4088799538	-6270.993494	627.4262892	-0.7921966432	1024
57900	0.402844978	-6272.32987	618.1656187	-0.8315068529	1024
58000	0.4017987911	-6277.428796	616.560245	-0.8224281482	1024
58100	0.3937279334	-6273.73006	604.1755138	-0.7600067254	1024
58200	0.3932168666	-6276.649748	603.3912818	-0.6438856489	1024
58300	0.4009598712	-6272.909124	615.2729224	-0.7712032998	1024
58400	0.4111972494	-6265.427813	630.9821792	-0.577476561	1024
58500	0.4088583593	-6251.83878	627.3931523	-0.7549370935	1024
58600	0.4025217252	-6262.344293	617.6695873	-0.5989079249	1024
58700	0.4002093298	-6290.210483	614.1212166	-0.7613268561	1024
58800	0.3988105443	-6322.935933	611.9747802	-0.7444937335	1024
58900	0.3805231803	-6306.545701	583.9128202	-0.8965736311	1024
59000	0.4049642502	-6320.943727	621.4176419	-0.6929126553	1024
59100	0.4176292074	-6318.160259	640.8520187	-0.7225206663	1024
59200	0.3861098402	-6276.175802	592.4855498	-0.8134750126	1024
59300	0.3987983303	-6287.738427	611.9560378	-0.7404498123	1024
59400	0.3959022429	-6275.335451	607.5119917	-0.4955228473	1024
59500	0.399027786	-6281.412323	612.3081376	-0.5682813523	1024
59600	0.4024943195	-6290.153327	617.6275332	-0.6688689675	1024
59700	0.4006889949	-6292.017419	614.8572626	-0.6370241431	1024
59800	0.3943021329	-6288.879921	605.0566229	-0.4969407962	1024
59900	0.3976470325	-6312.180712	610.1893714	-0.5648880489	1024
60000	0.3932578575	-6322.4634	603.4541823	-0.7189548347	1024
