timestep	temperature	potential_energy	kinetic_energy	pressure	num_particles
0	3.065241657	-1055.160259	4593.264623	0.6057335162	1000
100	2.970767943	-1000.31634	4451.695762	0.5864366515	1000
200	2.933345456	-974.995431	4395.618166	0.5764828463	1000
300	3.022362418	-985.1844221	4529.010083	0.6155344721	1000
400	3.090266131	-1028.07707	4630.763798	0.602800749	1000
500	2.97537936	-981.3098015	4458.60597	0.6542629091	1000
600	2.892773173	-971.4207208	4334.8206	0.6261895871	1000
700	2.965918286	-989.9949579	4444.428552	0.5841269566	1000
800	3.091159228	-978.9754377	4632.102103	0.6417385546	1000
900	3.059474211	-975.6553401	4584.622105	0.6418205272	1000
1000	2.930769947	-1019.259135	4391.758765	0.5657431496	1000
1100	2.914986653	-1035.728702	4368.107499	0.5473018341	1000
1200	3.007002788	-960.5002174	4505.993678	0.6525397125	1000
1300	3.081024227	-938.6278182	4616.914804	0.6297785916	1000
1400	3.041485627	-1010.88703	4557.666212	0.5679821723	1000
1500	2.936331685	-1051.033693	4400.09303	0.5553274607	1000
1600	2.945330037	-1053.538397	4413.57706	0.5519305085	1000
1700	3.08860972	-1071.224843	4628.281665	0.5907488175	1000
1800	3.094494348	-1022.194206	4637.099781	0.5991680492	1000
1900	2.977622594	-989.658361	4461.967458	0.6058006764	1000
2000	2.871612399	-925.9436865	4303.111179	0.6480808094	1000
2100	2.964805639	-955.0991579	4442.76125	0.6102166802	1000
2200	3.084909928	-987.7832922	4622.737527	0.5972713941	1000
2300	3.029961242	-980.6348697	4540.396922	0.6254801707	1000
2400	2.912015216	-990.4894278	4363.654801	0.6265435261	1000
2500	2.93977253	-1023.958372	4405.249137	0.5801118676	1000
2600	3.052559447	-989.7878706	4574.260332	0.621594919	1000
2700	3.077568514	-972.2817069	4611.736419	0.6435925804	1000
2800	2.967016401	-1005.452053	4446.074076	0.5811594215	1000
2900	2.911706027	-1020.316133	4363.191481	0.5633131756	1000
3000	2.997316673	-991.6378411	4491.479035	0.6231714356	1000
3100	3.115081363	-1029.169867	4667.949423	0.6310749937	1000
3200	3.005391641	-992.2509734	4503.579374	0.6019064202	1000
3300	2.912901672	-1011.767995	4364.983156	0.5669656198	1000
3400	2.933727571	-988.8611119	4396.190765	0.5895035621	1000
3500	3.075551261	-1000.274905	4608.713564	0.5879921382	1000
3600	3.093799314	-971.6325468	4636.058272	0.6505764805	1000
3700	2.947754664	-959.6002517	4417.210364	0.6541910456	1000
3800	2.847361118	-933.5922797	4266.770635	0.6629853339	1000
3900	3.017643847	-1030.914344	4521.939304	0.5840063831	1000
4000	3.105167746	-978.0988072	4653.093867	0.6235114152	1000
4100	3.074355471	-1027.54874	4606.921674	0.5452536643	1000
4200	2.876191734	-942.5655649	4309.973314	0.590344936	1000
4300	2.922399849	-986.3969444	4379.216174	0.5634246077	1000
4400	3.107369541	-1052.281895	4656.393257	0.5676581601	1000
4500	3.090748051	-989.7677691	4631.485955	0.6189971274	1000
4600	2.9701356	-1006.276222	4450.748197	0.595525047	1000
4700	2.917637224	-1019.342715	4372.07938	0.547635484	1000
4800	2.979694441	-975.8718699	4465.072119	0.5975065251	1000
4900	3.099162229	-973.3011427	4644.0946	0.6316855337	1000
5000	3.077441593	-1017.409001	4611.546227	0.5895526668	1000
5100	2.902788434	-958.71686	4349.828468	0.6168394664	1000
5200	2.919109035	-985.0404683	4374.284888	0.5963576395	1000
5300	3.066210548	-1028.439371	4594.716506	0.6080650455	1000
5400	3.077740255	-982.2345517	4611.993772	0.6309331414	1000
5500	2.972261037	-970.9559938	4453.933164	0.6009309509	1000
5600	2.912106259	-990.8265854	4363.79123	0.5963899602	1000
5700	2.980195637	-999.5472697	4465.823162	0.5980369537	1000
5800	3.064677879	-971.6570854	4592.419801	0.6292769462	1000
5900	3.062445882	-1013.516951	4589.075155	0.5996212118	1000
6000	2.920607756	-966.6223516	4376.530722	0.6480690599	1000
6100	2.916294391	-985.9501492	4370.067145	0.624058564	1000
6200	3.038359362	-1014.161855	4552.981503	0.5897471422	1000
6300	3.08514575	-997.0206603	4623.090906	0.6319315453	1000
6400	2.9681808	-956.5824158	4447.818929	0.6170257969	1000
6500	2.916492248	-974.463712	4370.363634	0.5743207696	1000
6600	2.982751127	-968.1288687	4469.652564	0.6024548541	1000
6700	3.095817893	-1013.360091	4639.083113	0.5674079755	1000
6800	3.036952454	-974.3487385	4550.873253	0.631889987	1000
6900	2.982883918	-1046.939726	4469.851551	0.5663473526	1000
7000	2.927830627	-1002.25748	4387.354195	0.5693582743	1000
7100	3.001711312	-965.1488299	4498.064401	0.6198578209	1000
7200	3.101931937	-1008.828055	4648.245008	0.6093644845	1000
7300	3.004562824	-996.8686863	4502.337392	0.5847177446	1000
7400	2.934561203	-1030.6887	4397.439963	0.5834076771	1000
7500	2.965141121	-997.8950412	4443.26397	0.6030306115	1000
7600	3.067582586	-992.8153546	4596.772505	0.6448142268	1000
7700	3.074954928	-1018.443274	4607.819959	0.5672007456	1000
7800	2.96696319	-1011.255955	4445.99434	0.5858038102	1000
7900	2.957409231	-1033.509604	4431.677733	0.5470347055	1000
8000	3.012476251	-994.6700845	4514.195663	0.6207077569	1000
8100	3.03761663	-942.8051399	4551.868521	0.631969513	1000
8200	3.024877244	-982.5077747	4532.778551	0.5943083115	1000
8300	2.975593624	-1029.133992	4458.927046	0.5744704481	1000
8400	2.936053228	-972.4129327	4399.675763	0.603959339	1000
8500	3.047009182	-1003.10984	4565.943259	0.6482860385	1000
8600	3.063282427	-1011.333613	4590.328716	0.6450813424	1000
8700	2.953990838	-989.019845	4426.55527	0.5833905241	1000
8800	2.915747423	-960.723233	4369.247513	0.58747301	1000
8900	3.038154011	-996.2127081	4552.673786	0.6108552182	1000
9000	3.080184921	-998.338227	4615.657104	0.6399537288	1000
9100	2.972528523	-973.8242067	4454.333992	0.6182137071	1000
9200	2.938728836	-1017.113482	4403.685161	0.5636231503	1000
9300	2.981439045	-996.4192385	4467.686409	0.6004299275	1000
9400	3.050497456	-976.8959762	4571.170438	0.6401129129	1000
9500	3.021301117	-968.9758742	4527.419724	0.592525204	1000
9600	2.949986999	-963.2043215	4420.555517	0.6127961412	1000
9700	2.970967648	-989.2938403	4451.995021	0.6183406172	1000
9800	3.01906029	-1000.344024	4524.061845	0.6008511269	1000
9900	3.050784481	-1032.162494	4571.600545	0.5580535856	1000
10000	3.018300403	-1030.437791	4522.923155	0.5765331057	1000
10100	2.965356734	-992.8611111	4443.587065	0.5880778304	1000
10200	2.998304117	-1007.33619	4492.958719	0.5780886412	1000
10300	3.015195238	-964.7326926	4518.270064	0.6101317603	1000
10400	3.017961405	-958.9177189	4522.415166	0.636492475	1000
10500	2.993256103	-987.0199924	4485.394271	0.5956923156	1000
10600	2.991956878	-1015.191811	4483.447382	0.5879107547	1000
10700	2.981210012	-990.8377223	4467.343203	0.5853684947	1000
10800	3.004228838	-983.8063217	4501.836914	0.6312260184	1000
10900	3.01544356	-985.4344722	4518.642175	0.6084740147	1000
11000	3.014642402	-1022.060786	4517.441639	0.5841117972	1000
11100	2.948849594	-978.8094405	4418.851117	0.6280453698	1000
11200	2.981559816	-1004.113702	4467.867384	0.6196098637	1000
11300	3.043000779	-1027.548811	4559.936668	0.6162176589	1000
11400	3.005348299	-983.7404329	4503.514426	0.6104727325	1000
11500	2.967991867	-993.1898915	4447.535813	0.6015951248	1000
11600	2.998746126	-1048.962766	4493.621069	0.5695206348	1000
11700	3.003548748	-991.6636265	4500.8178	0.6142104375	1000
11800	2.999054749	-943.9419081	4494.083542	0.6561568814	1000
11900	2.984458274	-958.021321	4472.210724	0.6664143929	1000
12000	2.960439512	-992.9523422	4436.218609	0.6103660073	1000
12100	2.949558701	-958.1903924	4419.913713	0.6232028016	1000
12200	3.03095133	-972.4359796	4541.880569	0.6099950742	1000
12300	3.030731623	-973.7534778	4541.551336	0.5852730351	1000
12400	2.968749747	-975.1307842	4448.671496	0.6345786612	1000
12500	2.956314723	-1004.997461	4430.037612	0.6011581707	1000
12600	3.000945361	-1004.100063	4496.916623	0.5813151744	1000
12700	3.038226462	-987.3409826	4552.782354	0.6028636305	1000
12800	3.029337748	-1007.23687	4539.462616	0.6060801273	1000
12900	2.973826453	-1004.243834	4456.27894	0.5742376235	1000
13000	2.97939482	-1017.451289	4464.623138	0.5816337621	1000
13100	3.038348221	-1045.621982	4552.964809	0.5828038421	1000
13200	3.027582535	-1026.125042	4536.832429	0.5867878206	1000
13300	2.982397749	-1000.448375	4469.123028	0.6000087217	1000
13400	3.021354952	-1049.293266	4527.500395	0.5903320193	1000
13500	3.007853606	-1008.858227	4507.268629	0.5942259699	1000
13600	3.007220317	-1002.114872	4506.319644	0.5745177849	1000
13700	3.019219514	-1005.089456	4524.300442	0.6243670533	1000
13800	2.977971973	-997.5434285	4462.491001	0.6043072608	1000
13900	2.987889415	-1024.203309	4477.352288	0.5654931504	1000
14000	3.020276767	-998.5626171	4525.884735	0.6354822388	1000
14100	3.011346164	-971.9781713	4512.502227	0.6231255704	1000
14200	2.992647264	-996.4799696	4484.481925	0.6272969074	1000
14300	2.951207759	-977.9110998	4422.384826	0.575941166	1000
14400	3.042996537	-1055.101327	4559.93031	0.5620955014	1000
14500	3.018027815	-987.0773546	4522.514681	0.662322648	1000
14600	2.987961337	-1008.23074	4477.460064	0.6091359528	1000
14700	2.991198802	-1049.875073	4482.311404	0.5471307878	1000
14800	2.956764811	-937.7242761	4430.71207	0.668457827	1000
14900	3.01522232	-942.5724198	4518.310646	0.6687381237	1000
15000	3.037457435	-986.0042995	4551.629967	0.598658635	1000
15100	3.011422916	-1012.942111	4512.61724	0.5821175384	1000
15200	2.953667819	-962.2965931	4426.071226	0.5936852604	1000
15300	3.000567852	-968.3198657	4496.350926	0.6272903299	1000
15400	3.047804178	-993.3580473	4567.134561	0.6039253827	1000
15500	2.962777048	-943.4639463	4439.721406	0.6855498352	1000
15600	2.954700378	-1010.925012	4427.618517	0.5794495186	1000
15700	2.980677472	-983.6002262	4466.545191	0.6013946373	1000
15800	3.073233654	-1014.351745	4605.240631	0.5960473015	1000
15900	3.028919598	-996.8087274	4538.836017	0.6235872447	1000
16000	2.969018981	-1070.128562	4449.074943	0.5775858547	1000
16100	2.895405717	-989.0481207	4338.765466	0.6102165803	1000
16200	3.038001912	-1018.738016	4552.445865	0.6143903017	1000
16300	3.110102423	-1002.228869	4660.488481	0.5908132383	1000
16400	3.050991221	-1033.092887	4571.910345	0.5477353062	1000
16500	2.915368546	-984.3122825	4368.679766	0.5847909832	1000
16600	2.934118579	-966.1316559	4396.77669	0.6280103791	1000
16700	3.06433391	-999.48003	4591.904364	0.6246422189	1000
16800	3.054125801	-1001.226481	4576.607513	0.6506652586	1000
16900	2.940863471	-1030.516173	4406.883912	0.5787412687	1000
17000	2.896713472	-990.8572035	4340.725138	0.5805697256	1000
17100	3.053633974	-992.8387195	4575.87051	0.6231211828	1000
17200	3.118460241	-983.9233872	4673.012671	0.6483716244	1000
17300	2.965427536	-958.4670487	4443.693162	0.6059527138	1000
17400	2.915066222	-1046.63914	4368.226734	0.5452167881	1000
17500	2.948701206	-1004.948293	4418.628757	0.5911514543	1000
17600	3.098130645	-1013.79633	4642.548772	0.5839945916	1000
17700	3.13557649	-1065.302082	4698.66137	0.5685428541	1000
17800	2.949931294	-1013.442113	4420.472044	0.6060126746	1000
17900	2.881506402	-1006.766966	4317.937344	0.5844871463	1000
18000	2.988211316	-981.0865786	4477.834656	0.634064554	1000
18100	3.099049656	-964.3650604	4643.92591	0.6343525452	1000
18200	3.033171226	-984.7256023	4545.207082	0.6288856075	1000
18300	2.897696487	-1009.771237	4342.198186	0.5671020267	1000
18400	2.908664287	-998.7345826	4358.633435	0.563391582	1000
18500	3.093373905	-1035.138351	4635.420797	0.6106944402	1000
18600	3.072950079	-1002.075401	4604.815693	0.6754469328	1000
18700	2.959634264	-1050.064251	4435.011944	0.5604819169	1000
18800	2.865822423	-955.0128281	4294.4349	0.6683738866	1000
18900	3.035376219	-1001.181141	4548.511264	0.5882040453	1000
19000	3.100204134	-960.3236484	4645.655895	0.6342510098	1000
19100	3.042520063	-1008.786604	4559.216314	0.5647919472	1000
19200	2.91541831	-1026.819973	4368.754337	0.5244803722	1000
19300	2.904763918	-995.3142895	4352.788731	0.6811986226	1000
19400	3.057084722	-1029.710242	4581.041455	0.5752283353	1000
19500	3.078827971	-980.3626944	4613.623715	0.6473067151	1000
19600	2.994339237	-999.8218297	4487.017346	0.6103265586	1000
19700	2.888021699	-994.2311345	4327.700516	0.5637529666	1000
19800	2.944903811	-1003.935698	4412.938361	0.6110774911	1000
19900	3.056862017	-991.0857033	4580.707733	0.639570191	1000
20000	3.076758897	-1018.74457	4610.523207	0.6334768511	1000
20100	2.931426501	-975.0927362	4392.742612	0.5711789976	1000
20200	2.913259648	-977.2749566	4365.519583	0.6128657815	1000
20300	3.024720384	-990.2832139	4532.543495	0.6334788875	1000
20400	3.102448635	-1022.434998	4649.019279	0.6034309657	1000
20500	3.010042429	-1032.309736	4510.548579	0.5810564578	1000
20600	2.911265964	-1027.298685	4362.532047	0.5416679254	1000
20700	2.968900257	-1014.253345	4448.897035	0.5463503579	1000
20800	3.064857972	-935.6213994	4592.689672	0.6510639897	1000
20900	3.092138581	-1005.887445	4633.569664	0.6179547767	1000
21000	2.910985817	-976.9011168	4362.112247	0.5803879	1000
21100	2.895715297	-1013.755149	4339.229372	0.5595809315	1000
21200	3.006743523	-963.510704	4505.605169	0.6290095652	1000
21300	3.116129976	-969.0639481	4669.520769	0.6397932556	1000
21400	3.043897685	-1024.905608	4561.280681	0.5993623141	1000
21500	2.874127425	-990.4258722	4306.879946	0.566468749	1000
21600	2.941118929	-1012.047806	4407.266715	0.6053041781	1000
21700	3.091361472	-996.7978032	4632.405166	0.6710801662	1000
21800	3.105151062	-1020.767456	4653.068866	0.6082946507	1000
21900	2.91699225	-975.3150094	4371.112886	0.5709562204	1000
22000	2.910985248	-1017.186886	4362.111395	0.5602251989	1000
22100	3.026240018	-976.9114756	4534.820667	0.606394967	1000
22200	3.131563446	-978.7942343	4692.647823	0.6159096314	1000
22300	3.013913423	-997.0471073	4516.349265	0.5962108599	1000
22400	2.885343898	-1016.263095	4323.687831	0.5669014081	1000
22500	2.95649712	-1027.55149	4430.310934	0.5520036466	1000
22600	3.058432308	-948.9541401	4583.060813	0.6894822582	1000
22700	3.090233596	-1011.334299	4630.715043	0.6177458627	1000
22800	2.945753971	-1012.530471	4414.212326	0.6007192049	1000
22900	2.904928521	-1003.85856	4353.035389	0.5775126799	1000
23000	3.007699794	-955.1763819	4507.038141	0.6166854208	1000
23100	3.11323745	-975.3021208	4665.186319	0.6463491596	1000
23200	3.027164597	-1025.546632	4536.206148	0.58070548	1000
23300	2.868147836	-1002.834265	4297.919532	0.5775191958	1000
23400	2.893090925	-937.8676044	4335.296752	0.6461065465	1000
23500	3.118072596	-990.1291366	4672.431784	0.6139346919	1000
23600	3.102680725	-973.256657	4649.367066	0.6303868249	1000
23700	2.929007195	-983.2092671	4389.117282	0.5895887017	1000
23800	2.865150647	-982.4766925	4293.428245	0.5722685446	1000
23900	3.017613681	-1005.59961	4521.894101	0.5861867935	1000
24000	3.157606289	-1045.957676	4731.673024	0.5973711149	1000
24100	3.028489645	-1007.547372	4538.191732	0.5777517994	1000
24200	2.880280122	-964.6958401	4316.099763	0.6094430046	1000
24300	2.915552798	-939.4038986	4368.955867	0.6521086565	1000
24400	3.082986054	-977.2585691	4619.854601	0.6444267392	1000
24500	3.071930075	-988.6088652	4603.287217	0.634621051	1000
24600	2.949398708	-1043.706118	4419.673964	0.5320714224	1000
24700	2.896171936	-1033.398734	4339.913645	0.5684506419	1000
24800	3.044977085	-1034.144053	4562.898162	0.5949643661	1000
24900	3.134732669	-1022.543973	4697.396904	0.5921663003	1000
25000	2.999097025	-986.0268488	4494.146891	0.5901023752	1000
25100	2.86979399	-955.1416875	4300.386294	0.6082667441	1000
25200	2.955065857	-955.3081564	4428.166187	0.5821614291	1000
25300	3.137899589	-1026.588378	4702.142534	0.6150105238	1000
25400	3.040138149	-982.5272775	4555.647017	0.6235271879	1000
25500	2.894750899	-1003.267094	4337.784222	0.5647321868	1000
25600	2.919668226	-1036.340086	4375.122836	0.5578307187	1000
25700	3.07503536	-1034.494425	4607.940486	0.5870525789	1000
25800	3.121907661	-1001.057348	4678.17863	0.5917212748	1000
25900	2.990195983	-991.2249746	4480.80868	0.5975395545	1000
26000	2.903958351	-1033.069466	4351.581589	0.5853807056	1000
26100	2.954929559	-1027.844035	4427.961945	0.6203922721	1000
26200	3.067824245	-990.5772333	4597.134631	0.6253752493	1000
26300	3.053731073	-946.0747808	4576.016012	0.6535487654	1000
26400	2.982883086	-1014.569847	4469.850304	0.5900262757	1000
26500	2.854607794	-932.5033168	4277.629779	0.6077625494	1000
26600	3.016385342	-1005.133973	4520.053435	0.5948236046	1000
26700	3.10199309	-958.0617752	4648.336645	0.6750413437	1000
26800	3.026480284	-963.2692684	4535.180705	0.6095767649	1000
26900	2.900208008	-977.3969643	4345.9617	0.5637864414	1000
27000	2.966658974	-1008.86147	4445.538473	0.5760607853	1000
27100	3.080308106	-975.4833004	4615.841697	0.604921184	1000
27200	3.029304195	-917.1261355	4539.412337	0.6807521418	1000
27300	2.968472205	-1023.687346	4448.255599	0.5536627402	1000
27400	2.913959074	-1030.658731	4366.567673	0.5616725713	1000
27500	2.986461013	-989.4622619	4475.211828	0.6123819631	1000
27600	3.083923717	-970.8381267	4621.25969	0.6377567827	1000
27700	3.045283297	-978.1561969	4563.357021	0.6028214056	1000
27800	2.925965555	-965.4809923	4384.559385	0.5871824591	1000
27900	2.968060288	-1020.262107	4447.638341	0.5364916149	1000
28000	3.010155887	-939.7697721	4510.718597	0.6606109513	1000
28100	3.103249019	-1031.837646	4650.218655	0.6044429606	1000
28200	2.942084671	-953.8132197	4408.713879	0.6212291572	1000
28300	2.959214064	-1057.442056	4434.382274	0.5202076108	1000
28400	3.001494828	-992.7164915	4497.74	0.5858621245	1000
28500	3.066598564	-962.8237149	4595.297948	0.6185563209	1000
28600	3.027775762	-975.391204	4537.12198	0.6108219345	1000
28700	2.921375351	-983.7837265	4377.680964	0.6019842028	1000
28800	2.919935905	-966.758179	4375.523953	0.6387350578	1000
28900	3.021846175	-937.4812203	4528.236494	0.6505094539	1000
29000	3.067713379	-956.7061973	4596.968498	0.6106310542	1000
29100	2.991511285	-1004.001186	4482.779661	0.5859780116	1000
29200	2.922073548	-1018.258705	4378.727212	0.567818432	1000
29300	2.97793022	-1015.720832	4462.428434	0.611621056	1000
29400	3.08358531	-999.3538755	4620.752587	0.6170006923	1000
29500	3.054209864	-965.4932733	4576.733481	0.6348089267	1000
29600	2.951873502	-1009.941317	4423.382443	0.6054921314	1000
29700	2.881255945	-972.2994429	4317.562033	0.6067654175	1000
29800	3.02017857	-996.5243894	4525.737587	0.6226873117	1000
29900	3.090620328	-950.3393488	4631.294562	0.6752429774	1000
30000	3.003109083	-949.6163846	4500.15896	0.6344731207	1000
