timestep	temperature	potential_energy	kinetic_energy	pressure	num_particles
0	1.021747219	-3788.494062	1531.088208	-0.02215453468	1000
100	1.006652187	-3779.584783	1508.468302	0.03889416375	1000
200	0.9996362278	-3779.113405	1497.954887	-0.00290434146	1000
300	0.9781578782	-3751.076701	1465.769581	0.1725281474	1000
400	0.9972909297	-3780.225155	1494.440458	-0.02522760293	1000
500	0.9943983452	-3769.791919	1490.10592	0.1704542137	1000
600	0.9986047567	-3769.885715	1496.409228	-0.01107967533	1000
700	1.018726814	-3795.190534	1526.56213	-0.01912289416	1000
800	0.9834111626	-3741.43532	1473.641627	0.2612933113	1000
900	1.012310337	-3790.319134	1516.94704	0.06807005808	1000
1000	1.015716322	-3806.758033	1522.050909	-0.07114108907	1000
1100	0.982031134	-3765.053568	1471.573654	0.03002811664	1000
1200	0.9979072557	-3781.656649	1495.364023	-0.01356399458	1000
1300	0.9759195528	-3733.158341	1462.41545	0.056359662	1000
1400	1.006357768	-3756.213608	1508.027115	0.03817198704	1000
1500	1.022129555	-3750.926442	1531.661138	-0.0576404753	1000
1600	1.028094841	-3742.877464	1540.60012	0.01299086256	1000
1700	1.039361115	-3755.354382	1557.482631	0.1236500501	1000
1800	1.028368968	-3757.596938	1541.010898	0.05513004349	1000
1900	1.005766582	-3764.036149	1507.141223	0.1574116434	1000
2000	1.002780364	-3808.573715	1502.666375	-0.0265244557	1000
2100	0.9371700418	-3749.087212	1404.349308	0.1762754512	1000
2200	0.958689618	-3793.458962	1436.596393	0.01259719206	1000
2300	0.9656015991	-3790.291349	1446.953996	-0.01531351004	1000
2400	1.013591575	-3827.365012	1518.866976	-0.02962073692	1000
2500	1.03502389	-3824.878263	1550.983299	0.1510436214	1000
2600	1.01767505	-3779.499308	1524.986063	0.2545024279	1000
2700	1.021099376	-3785.656959	1530.117414	0.06404663768	1000
2800	1.0102003	-3782.093756	1513.78515	0.08167894367	1000
2900	0.9850970226	-3755.410116	1476.167888	0.1016078222	1000
3000	0.9816147633	-3757.082296	1470.949723	0.1063009197	1000
3100	1.00116983	-3786.563745	1500.25299	-0.05331520985	1000
3200	0.969536605	-3733.419542	1452.850603	0.1789672759	1000
3300	0.9844824687	-3744.905609	1475.246979	0.2122569582	1000
3400	1.021681394	-3793.414851	1530.989568	0.01919346727	1000
3500	1.032774494	-3812.512068	1547.612579	0.16211244	1000
3600	1.014144254	-3807.114168	1519.695165	0.121570957	1000
3700	0.9898452193	-3802.848305	1483.283061	0.06866698162	1000
3800	0.9495887555	-3766.694086	1422.95875	0.1561634862	1000
3900	0.9805661657	-3812.089704	1469.378399	-0.08781023539	1000
4000	0.9700879669	-3770.52002	1453.676818	0.1062218911	1000
4100	0.9863678611	-3757.576626	1478.07224	0.06947850015	1000
4200	1.024353186	-3778.248624	1534.99325	0.1302375327	1000
4300	1.014147621	-3740.988732	1519.70021	0.1766389026	1000
4400	1.03094421	-3767.410022	1544.869899	0.1352675509	1000
4500	1.011644155	-3759.179274	1515.948767	0.04377649542	1000
4600	0.9908793484	-3758.91492	1484.832704	0.003308557445	1000
4700	0.9818570664	-3769.610289	1471.312814	0.05141900336	1000
4800	0.976608313	-3779.708187	1463.447557	0.03586377915	1000
4900	0.9483946497	-3734.199332	1421.169383	0.1048943735	1000
5000	0.9864069405	-3764.861827	1478.1308	0.09819484487	1000
5100	1.027929422	-3796.882659	1540.352239	-0.03111917594	1000
5200	0.9889352121	-3709.021719	1481.919415	0.1006454984	1000
5300	1.002427473	-3706.415815	1502.137568	0.2352313984	1000
5400	1.027478137	-3730.555985	1539.675988	0.1838397181	1000
5500	1.031483167	-3745.427539	1545.677526	0.1445406801	1000
5600	1.00724792	-3741.536931	1509.361008	0.1253090078	1000
5700	0.9957999289	-3774.75867	1492.206193	0.1497026855	1000
5800	0.9748309099	-3792.141801	1460.784118	-0.07403630856	1000
5900	0.9731065616	-3818.284537	1458.200183	-0.1478492661	1000
6000	0.9643052416	-3804.820007	1445.011404	0.03572734332	1000
6100	0.9746814949	-3793.416211	1460.56022	0.04723345443	1000
6200	0.9874976241	-3771.961454	1479.76519	0.1058614123	1000
6300	1.024408619	-3784.031012	1535.076316	0.009277252386	1000
6400	1.027912732	-3759.179963	1540.327229	0.1485382746	1000
6500	1.034400816	-3762.561301	1550.049623	0.08142343015	1000
6600	1.030645832	-3769.902862	1544.42278	0.09883867486	1000
6700	1.003879846	-3764.141856	1504.313949	0.1854840869	1000
6800	0.970947445	-3752.764116	1454.964746	0.08922355301	1000
6900	0.9715744724	-3783.449644	1455.904347	-0.08071217107	1000
7000	0.9719604393	-3792.361437	1456.482718	0.02900239823	1000
7100	0.9894931067	-3810.747586	1482.75542	0.08215936668	1000
7200	0.9878850905	-3790.40576	1480.345808	0.149688592	1000
7300	1.024249068	-3829.592647	1534.837228	0.08207491892	1000
7400	1.024129673	-3823.952438	1534.658315	0.05550521228	1000
7500	1.012119059	-3811.112394	1516.66041	-0.05747902541	1000
7600	0.9883431019	-3780.732184	1481.032138	0.03934984661	1000
7700	0.9764201215	-3760.732365	1463.165552	0.0569762294	1000
7800	1.011428515	-3805.324748	1515.62563	-0.02307379587	1000
7900	1.000983251	-3783.583662	1499.973401	0.02611958734	1000
8000	0.9974477783	-3769.82753	1494.675496	0.0916896414	1000
8100	1.013445897	-3782.243051	1518.648676	-0.02593889877	1000
8200	0.9824979542	-3725.998915	1472.273184	0.09202743857	1000
8300	1.02290266	-3775.074351	1532.819636	0.02139840383	1000
8400	1.016309509	-3764.961527	1522.9398	0.2008409596	1000
8500	1.00052401	-3753.69862	1499.285229	0.2193810086	1000
8600	0.9772311632	-3743.508716	1464.380898	0.1625560315	1000
8700	1.010516591	-3814.888777	1514.259111	-0.03322188674	1000
8800	0.9514454902	-3738.618114	1425.741067	0.04669535854	1000
8900	0.977821589	-3770.534811	1465.265651	-0.09061506155	1000
9000	1.015099516	-3798.114617	1521.126624	-0.02222137883	1000
9100	1.007946822	-3753.122923	1510.408313	0.09511248934	1000
9200	1.029170777	-3759.301867	1542.212409	0.06053260435	1000
9300	1.023981367	-3748.927566	1534.436079	0.1264470104	1000
9400	1.015588419	-3753.991458	1521.859246	0.128953903	1000
9500	1.009193026	-3774.274983	1512.275749	0.06789387306	1000
9600	0.9629815049	-3738.056242	1443.027785	0.1301437893	1000
9700	0.9594405728	-3756.477694	1437.721698	0.1225784196	1000
9800	0.9747973617	-3787.033469	1460.733846	-0.06317518315	1000
9900	0.9964622995	-3807.101717	1493.198756	-0.03246241455	1000
10000	1.010717518	-3806.715295	1514.5602	0.04888756287	1000
10100	1.021331595	-3805.394306	1530.465395	0.01393093646	1000
10200	1.021151932	-3800.416813	1530.196171	0.1100070959	1000
10300	1.01116087	-3796.596308	1515.224563	0.1193238557	1000
10400	1.01138552	-3819.187581	1515.561201	0.1566119648	1000
10500	0.9768836861	-3788.353311	1463.860204	0.05235856064	1000
10600	1.005156411	-3843.475983	1506.226883	-0.07664223252	1000
10700	1.001462974	-3842.157589	1500.692266	0.06322467745	1000
10800	0.993098917	-3821.165136	1488.158727	-0.1275318307	1000
10900	0.9800523658	-3780.267283	1468.60847	0.1396211483	1000
11000	0.992298864	-3766.745056	1486.959848	0.1320613958	1000
11100	1.024192215	-3784.029457	1534.752034	0.05940972408	1000
11200	1.015032255	-3756.039124	1521.025834	0.2277488931	1000
11300	1.036347948	-3801.047894	1552.967399	0.06027741783	1000
11400	0.998681652	-3779.767836	1496.524456	0.1349157919	1000
11500	0.9743773888	-3779.33353	1460.104517	0.0366861261	1000
11600	0.9697207124	-3788.182759	1453.126487	-0.09953454843	1000
11700	0.9720509578	-3778.230025	1456.61836	-0.03658437515	1000
11800	0.9768594547	-3752.0111	1463.823893	0.1303945126	1000
11900	1.009901603	-3762.640977	1513.337552	-0.02348953417	1000
12000	1.039972254	-3778.200476	1558.398422	0.007213916731	1000
12100	1.00658108	-3720.754183	1508.361748	0.3275560365	1000
12200	1.005442857	-3737.439191	1506.656121	0.2398005859	1000
12300	1.020595145	-3797.230109	1529.361824	-0.05604354699	1000
12400	0.9776414039	-3772.238528	1464.995644	-0.01482990234	1000
12500	0.9811106356	-3803.438318	1470.194287	-0.0905891285	1000
12600	0.9562586038	-3774.155266	1432.953518	0.1069959007	1000
12700	0.9746580898	-3796.506243	1460.525148	0.0116854751	1000
12800	0.9615339029	-3751.93543	1440.858553	0.1811539714	1000
12900	1.024020505	-3804.83031	1534.494727	-0.0390060046	1000
13000	1.009043113	-3748.592499	1512.051105	0.1754369331	1000
13100	1.034568541	-3769.523155	1550.300959	0.07300842838	1000
13200	1.025986356	-3764.750067	1537.440554	0.1656423037	1000
13300	1.000782266	-3752.926174	1499.672226	0.09505747042	1000
13400	0.9802616031	-3749.303988	1468.922012	0.02331918698	1000
13500	0.9540765034	-3728.495371	1429.68364	0.09406528966	1000
13600	0.9761784312	-3769.535833	1462.803379	-0.03686647084	1000
13700	0.9997614642	-3791.633669	1498.142554	-0.1044703627	1000
13800	0.970713607	-3728.306227	1454.61434	0.1375822831	1000
13900	0.9969151836	-3740.69894	1493.877403	0.06287488185	1000
14000	1.01094917	-3732.096127	1514.907331	0.1554154152	1000
14100	1.021612458	-3730.124668	1530.886269	0.08794402911	1000
14200	1.035104974	-3747.915277	1551.104804	0.1961026979	1000
14300	1.005769665	-3727.337712	1507.145843	0.1475613661	1000
14400	0.9888338495	-3741.460368	1481.767523	0.1135109423	1000
14500	0.9816485964	-3768.967021	1471.000422	0.04977138922	1000
14600	0.9665673189	-3777.064496	1448.401127	-0.06101470976	1000
14700	0.9659296949	-3777.0794	1447.445648	0.07737489167	1000
14800	0.975800113	-3776.159777	1462.236469	-0.02728940652	1000
14900	1.007814277	-3793.404548	1510.209694	0.05509328033	1000
15000	1.003125071	-3760.14435	1503.182918	0.02288914152	1000
15100	1.004931889	-3745.369685	1505.890435	0.02487758318	1000
15200	1.020120043	-3759.415649	1528.649885	0.01171369486	1000
15300	1.038364206	-3787.491652	1555.988763	-0.07988437608	1000
15400	0.9945402582	-3737.0923	1490.318577	0.1175016597	1000
15500	1.013759001	-3789.262938	1519.117863	0.1091811044	1000
15600	0.969815132	-3747.359932	1453.267975	0.01081977566	1000
15700	0.9775966674	-3767.617795	1464.928606	0.01763202876	1000
15800	0.9888333772	-3776.160461	1481.766816	0.01913481536	1000
15900	1.016072857	-3798.7222	1522.585177	-0.1074716455	1000
16000	0.9984189816	-3751.310189	1496.130844	0.09189831723	1000
16100	1.026404679	-3780.901837	1538.067412	0.08412177237	1000
16200	1.015113326	-3765.827576	1521.147319	0.1657917234	1000
16300	0.998136514	-3753.996003	1495.707566	0.03801089994	1000
16400	0.9860089881	-3754.153972	1477.534469	0.1227907466	1000
16500	0.9800011444	-3761.429987	1468.531715	-0.02558455368	1000
16600	0.992424531	-3782.595282	1487.14816	-0.04622804727	1000
16700	0.9680837484	-3738.094079	1450.673497	0.02251799805	1000
16800	1.02335035	-3799.487157	1533.4905	-0.03980811269	1000
16900	1.002024886	-3744.40663	1501.534292	0.03352147949	1000
17000	1.007010798	-3733.68899	1509.005681	0.2018678537	1000
17100	1.007000197	-3732.122375	1508.989795	0.06073253748	1000
17200	1.004142864	-3737.068721	1504.708082	0.06099426536	1000
17300	0.9983132566	-3744.306115	1495.972415	0.08840751534	1000
17400	0.9841322471	-3741.779604	1474.722172	0.05938179749	1000
17500	0.9799395721	-3750.494519	1468.439449	0.1675754533	1000
17600	0.9990442815	-3790.365123	1497.067856	-0.03556580026	1000
17700	0.9793973638	-3764.507615	1467.62695	0.1662042868	1000
17800	0.9869701796	-3769.763441	1478.974814	0.09190997852	1000
17900	0.9655236267	-3723.024955	1446.837155	0.003888185027	1000
18000	0.9738940738	-3705.69108	1459.38027	0.1449214392	1000
18100	1.000198627	-3711.138314	1498.797643	0.2323612546	1000
18200	1.00362385	-3695.209387	1503.930339	0.2154852205	1000
18300	1.045742938	-3756.731756	1567.045793	0.1555627949	1000
18400	1.027745447	-3760.667722	1540.076553	0.2527550582	1000
18500	1.011713593	-3790.063828	1516.052819	-0.02023525981	1000
18600	0.9691489286	-3783.680204	1452.269669	0.05363496066	1000
18700	0.9506610374	-3787.836387	1424.565565	-0.0005052136188	1000
18800	0.950834861	-3789.452204	1424.826039	0.001843126291	1000
18900	0.9660945952	-3784.194255	1447.692751	0.1479379905	1000
19000	0.9962007273	-3788.079794	1492.80679	0.1780912444	1000
19100	1.011637814	-3771.025485	1515.939264	0.06107298698	1000
19200	1.026206849	-3759.699383	1537.770963	0.06219194295	1000
19300	1.055078682	-3783.972004	1581.035405	0.04719642347	1000
19400	1.019684312	-3736.041825	1527.996942	0.1481511692	1000
19500	1.012810442	-3755.586753	1517.696447	0.07163444867	1000
19600	1.009523213	-3793.505485	1512.770535	-0.06611011698	1000
19700	0.9661206751	-3764.565334	1447.731832	0.01903639934	1000
19800	0.9694961262	-3776.886199	1452.789945	-0.1690188711	1000
19900	0.9720804346	-3762.493785	1456.662531	0.06937702521	1000
20000	0.9819299773	-3740.916615	1471.422071	0.1919203138	1000
20100	1.050300376	-3799.77852	1573.875113	0.06329054742	1000
20200	1.027315021	-3745.527397	1539.431559	0.2013267576	1000
20300	1.001939797	-3716.792104	1501.406786	0.2038877994	1000
20400	1.017764005	-3772.717401	1525.119362	0.02918364538	1000
20500	0.9916649469	-3776.332183	1486.009923	0.06273355887	1000
20600	1.001550691	-3831.413143	1500.823711	-0.02874738706	1000
20700	0.9644965604	-3803.460582	1445.298096	0.02191178496	1000
20800	0.9561544178	-3798.115899	1432.797395	0.08808892326	1000
20900	0.9631721208	-3787.260698	1443.313423	0.06840172855	1000
21000	0.9730563079	-3760.56314	1458.124877	0.03129923339	1000
21100	1.011729053	-3763.109977	1516.075986	0.1256226941	1000
21200	1.047957796	-3771.196354	1570.364757	0.1265143922	1000
21300	1.050483192	-3763.127253	1574.149064	0.1950384891	1000
21400	1.056637612	-3800.7628	1583.371461	0.08965381816	1000
21500	0.9879332409	-3754.411353	1480.417962	0.08502591099	1000
21600	0.9659998388	-3779.823744	1447.550758	0.008889654689	1000
21700	0.9612825867	-3809.396898	1440.481956	-0.02162667039	1000
21800	0.9519110583	-3795.275934	1426.438721	-0.08197819545	1000
21900	0.9559493447	-3763.656753	1432.490093	-0.00011069128	1000
22000	0.9771751715	-3728.233065	1464.296994	0.1199873686	1000
22100	1.048189356	-3762.952263	1570.71175	0.1428058908	1000
22200	1.063065365	-3743.347217	1593.00345	0.1776189918	1000
22300	1.0448017	-3723.29669	1565.635348	0.3539013808	1000
22400	1.020273977	-3740.552362	1528.880555	0.2463711502	1000
22500	0.9871144016	-3762.760345	1479.190931	-0.04049325781	1000
22600	0.9478168591	-3762.92506	1420.303563	0.0003557097472	1000
22700	0.9392078369	-3774.039509	1407.402944	0.01584512112	1000
22800	0.9751829658	-3814.550994	1461.311674	-0.1727812801	1000
22900	0.9623542175	-3748.741864	1442.087795	0.1304712457	1000
23000	1.029292739	-3782.672197	1542.39517	0.04479936071	1000
23100	1.053188676	-3755.336758	1578.20323	0.05708483053	1000
23200	1.058567326	-3730.767249	1586.263137	0.2028528883	1000
23300	1.027977491	-3704.190428	1540.42427	0.384829787	1000
23400	1.031261751	-3768.033821	1545.345733	0.1799940314	1000
23500	0.9798538742	-3771.266186	1468.311031	0.1201059949	1000
23600	0.9647118383	-3815.748393	1445.62069	-0.01883139068	1000
23700	0.9459005543	-3824.298028	1417.431981	-0.2107521168	1000
23800	0.9248611704	-3780.692552	1385.904464	-0.1358164605	1000
23900	0.9416305357	-3748.18642	1411.033358	0.004422559477	1000
24000	0.99914871	-3735.892047	1497.224342	0.05829779594	1000
24100	1.068706359	-3740.38619	1601.456479	0.1298164943	1000
24200	1.072780409	-3691.69412	1607.561444	0.3123709297	1000
24300	1.063513984	-3692.016038	1593.675705	0.2991936224	1000
24400	1.034399036	-3717.214775	1550.046956	0.1763273911	1000
24500	0.985856008	-3739.924131	1477.305228	0.004272410146	1000
24600	0.9421797235	-3755.559039	1411.856316	0.002697541723	1000
24700	0.9563822325	-3821.592434	1433.138775	-0.2132279031	1000
24800	0.9313972429	-3785.524354	1395.698769	-0.07759214252	1000
24900	0.9624738814	-3791.728556	1442.267111	0.03082926062	1000
25000	0.9744307399	-3740.430392	1460.184464	0.1196651106	1000
25100	1.004108403	-3715.351039	1504.656443	0.1913384681	1000
25200	1.06667556	-3755.666557	1598.413327	0.06297360463	1000
25300	1.063573277	-3739.014827	1593.764556	0.1914534907	1000
25400	1.027568007	-3718.800289	1539.810659	0.1881800517	1000
25500	1.017422717	-3767.847314	1524.607942	0.06755747546	1000
25600	0.9731039849	-3772.008183	1458.196321	-0.01828459156	1000
25700	0.9279197158	-3752.956285	1390.487694	0.04526637321	1000
25800	0.9368798082	-3778.996718	1403.914393	-0.1342113126	1000
25900	0.9596831373	-3784.247701	1438.085181	-0.1505038447	1000
26000	0.9830843605	-3758.495547	1473.151914	0.1090862983	1000
26100	1.019654399	-3742.125285	1527.952117	0.1507592301	1000
26200	1.043241245	-3726.762809	1563.297005	0.254836622	1000
26300	1.081370445	-3777.896359	1620.433612	0.02280448146	1000
26400	1.039300264	-3757.900961	1557.391446	0.1256009016	1000
26500	0.9932150153	-3756.30185	1488.3327	0.01127750657	1000
26600	0.9629922991	-3774.308477	1443.04396	-0.03612370869	1000
26700	0.9591153587	-3812.364097	1437.234365	-0.06153560646	1000
26800	0.9319714958	-3781.65384	1396.559286	0.07638911719	1000
26900	0.9551282035	-3789.791726	1431.259613	0.01024468737	1000
27000	1.008256243	-3816.249951	1510.871981	-0.002631400626	1000
27100	0.9988534373	-3745.307863	1496.781876	0.2290709894	1000
27200	1.044784854	-3771.151528	1565.610104	0.1441608237	1000
27300	1.050597736	-3771.813274	1574.320707	0.1979135901	1000
27400	0.999478053	-3722.251327	1497.717862	0.3802289195	1000
27500	0.9902511837	-3759.384226	1483.891399	0.1256667151	1000
27600	0.9376672142	-3729.983861	1405.09432	0.09724043411	1000
27700	0.9379200638	-3754.469232	1405.473216	-0.03143874528	1000
27800	0.9627590249	-3779.348934	1442.694399	-0.003351783617	1000
27900	0.9640844454	-3745.02876	1444.680541	0.2359086092	1000
28000	1.008501468	-3763.971557	1511.239449	0.1001120458	1000
28100	1.045335013	-3785.252996	1566.434518	0.06982444012	1000
28200	1.03638973	-3764.22844	1553.030011	0.1261883318	1000
28300	1.040317469	-3792.305827	1558.915727	0.03441078807	1000
28400	0.9975654956	-3769.091853	1494.851895	0.03630700873	1000
28500	0.9662964641	-3763.819943	1447.995251	0.1704224542	1000
28600	0.9649127138	-3791.634101	1445.921702	0.09314203103	1000
28700	0.9400825618	-3762.383741	1408.713719	0.0923019813	1000
28800	0.9678634628	-3782.528151	1450.343399	0.04411603586	1000
28900	0.9640238228	-3733.241742	1444.589698	0.1141649165	1000
29000	1.00756863	-3744.225713	1509.841592	0.05243425125	1000
29100	1.048093642	-3757.109669	1570.568323	0.07230570402	1000
29200	1.051331028	-3743.214451	1575.419546	0.08592645206	1000
29300	1.045017939	-3751.813595	1565.959381	0.122374678	1000
29400	1.01454105	-3752.284253	1520.289763	0.1895421308	1000
29500	0.989640219	-3779.544934	1482.975868	0.119456424	1000
29600	0.9589010888	-3791.398221	1436.913282	-0.02049297429	1000
29700	0.9420072443	-3798.738612	1411.597856	-0.0159894888	1000
29800	0.9525588065	-3805.874186	1427.409372	-0.08930952351	1000
29900	0.9980803376	-3831.10895	1495.623386	-0.0214688558	1000
30000	1.008443142	-3793.533382	1511.152048	0.1355879839	1000
