0.000000000000000000e+00 -1.549019599857431873e-01
6.556945984978140851e-02 -1.821733830762062578e-01
1.311389196995628170e-01 -4.247560282709981205e-01
1.967083795493442255e-01 -1.543208221084721998e+00
2.622778393991256340e-01 -2.985035627517899748e+00
3.278472992489070426e-01 -3.467741898660889888e+00
3.934167590986884511e-01 -3.581742023306357936e+00
4.589862189484698596e-01 -3.535667059049119487e+00
5.245556787982512681e-01 -3.483217179171199884e+00
5.901251386480326211e-01 -3.514433427060131176e+00
6.556945984978140851e-01 -3.611358877097401443e+00
7.212640583475954381e-01 -3.703638204508944654e+00
7.868335181973769021e-01 -3.732602303796821452e+00
8.524029780471583662e-01 -3.701605019702500332e+00
9.179724378969397192e-01 -3.672220772867864191e+00
9.835418977467210722e-01 -3.706243275115688629e+00
1.049111357596502536e+00 -3.787877043149449285e+00
1.114680817446283889e+00 -3.854738808647124149e+00
1.180250277296065242e+00 -3.839851446824060321e+00
1.245819737145846595e+00 -3.765969452524685845e+00
1.311389196995628170e+00 -3.657212507223359665e+00
1.376958656845409523e+00 -3.551612186662714610e+00
1.442528116695190876e+00 -3.363789499549966422e+00
1.508097576544972229e+00 -3.171126828495010486e+00
1.573667036394753804e+00 -3.024311791443336617e+00
1.639236496244535157e+00 -2.917010080711636810e+00
1.704805956094316732e+00 -2.862080127513049632e+00
1.770375415944097863e+00 -2.858133293604517178e+00
1.835944875793879438e+00 -2.857966778927439222e+00
1.901514335643660791e+00 -2.858955151498653535e+00
1.967083795493442144e+00 -2.838964595232972066e+00
2.032653255343223719e+00 -2.814668145172853908e+00
2.098222715193005072e+00 -2.841241533440901357e+00
2.163792175042786425e+00 -2.881539713545161696e+00
2.229361634892567778e+00 -2.910131474393586881e+00
2.294931094742349131e+00 -2.962619858307925735e+00
2.360500554592130484e+00 -3.049300265746504035e+00
2.426070014441912281e+00 -3.138965127373272157e+00
2.491639474291693190e+00 -3.177802236380007361e+00
2.557208934141474987e+00 -3.198453279943232808e+00
2.622778393991256340e+00 -3.159555432048431811e+00
2.688347853841037249e+00 -3.143862498727171495e+00
2.753917313690819046e+00 -3.121075708020429662e+00
2.819486773540600399e+00 -3.113031416758054615e+00
2.885056233390381752e+00 -3.115928474024630024e+00
2.950625693240163550e+00 -3.132121052181116916e+00
3.016195153089944458e+00 -3.148789767148095109e+00
3.081764612939726256e+00 -3.125574926605197756e+00
3.147334072789507609e+00 -3.095868428804133821e+00
3.212903532639288517e+00 -3.076980986776083338e+00
3.278472992489070315e+00 -3.094907941075732527e+00
3.344042452338851668e+00 -3.124234454530456340e+00
3.409611912188633465e+00 -3.118292565579768194e+00
3.475181372038414818e+00 -3.050974296339753256e+00
3.540750831888195727e+00 -3.011021945504398722e+00
3.606320291737977524e+00 -3.031403460491886026e+00
3.671889751587758877e+00 -3.089659045421035977e+00
3.737459211437539786e+00 -3.131452247026709212e+00
3.803028671287321583e+00 -3.121590426430103538e+00
3.868598131137102936e+00 -3.093515289295859727e+00
3.934167590986884289e+00 -3.083655059245178798e+00
3.999737050836666086e+00 -3.072937412498504273e+00
4.065306510686447439e+00 -3.076670781124556164e+00
4.130875970536228792e+00 -3.094078774076833405e+00
4.196445430386010145e+00 -3.107726459198167035e+00
4.262014890235791498e+00 -3.102706207680519856e+00
4.327584350085572851e+00 -3.087260166687082030e+00
4.393153809935354204e+00 -3.073190054774688651e+00
4.458723269785135557e+00 -3.046146899001930031e+00
4.524292729634916910e+00 -3.008457650174943154e+00
4.589862189484698263e+00 -2.985407267178756374e+00
4.655431649334480504e+00 -3.001396667468758217e+00
4.721001109184260969e+00 -3.040364203033267376e+00
4.786570569034042322e+00 -3.085845692289930220e+00
4.852140028883824563e+00 -3.094653293923369297e+00
4.917709488733605028e+00 -3.107587990774035802e+00
4.983278948583386381e+00 -3.100204305422512352e+00
5.048848408433168622e+00 -3.091453015161449880e+00
5.114417868282949975e+00 -3.067758907614857034e+00
5.179987328132731328e+00 -3.057209807491993558e+00
5.245556787982512681e+00 -3.037776991644858260e+00
5.311126247832294034e+00 -3.024104828342671691e+00
5.376695707682074499e+00 -3.030641845709106441e+00
5.442265167531857628e+00 -3.050810479579182388e+00
5.507834627381638093e+00 -3.089475503229264230e+00
5.573404087231419446e+00 -3.115999353250371140e+00
5.638973547081200799e+00 -3.130334751373779589e+00
5.704543006930982152e+00 -3.146267077694021363e+00
5.770112466780763505e+00 -3.152170162432941236e+00
5.835681926630545746e+00 -3.138646567330732662e+00
5.901251386480327099e+00 -3.134196635580801971e+00
5.966820846330107564e+00 -3.150652216574744369e+00
6.032390306179888917e+00 -3.161710652097747154e+00
6.097959766029670270e+00 -3.136902639198944964e+00
6.163529225879452511e+00 -3.103441787230692750e+00
6.229098685729233864e+00 -3.083958791004310473e+00
6.294668145579015217e+00 -3.070872538381745009e+00
6.360237605428796570e+00 -3.077347442843155978e+00
6.425807065278577035e+00 -3.095968657521482648e+00
6.491376525128360164e+00 -3.106224748025133930e+00
6.556945984978140629e+00 -3.133279968667346704e+00
6.622515444827921982e+00 -3.154177892872533917e+00
6.688084904677703335e+00 -3.158525142773220384e+00
6.753654364527484688e+00 -3.144331635400705149e+00
6.819223824377266929e+00 -3.122133327786060786e+00
6.884793284227048282e+00 -3.103745961595000491e+00
6.950362744076829635e+00 -3.114989262193514019e+00
7.015932203926610100e+00 -3.152447878142035087e+00
7.081501663776391453e+00 -3.183801145571486746e+00
7.147071123626172806e+00 -3.171994337190812807e+00
7.212640583475955047e+00 -3.155253848922141557e+00
7.278210043325736400e+00 -3.158783741451263172e+00
7.343779503175517753e+00 -3.174294915547159590e+00
7.409348963025299106e+00 -3.177522296053155504e+00
7.474918422875079571e+00 -3.177027299834734642e+00
7.540487882724862700e+00 -3.174087468984163163e+00
7.606057342574643165e+00 -3.170479248615078571e+00
7.671626802424424518e+00 -3.134670668202544697e+00
7.737196262274205871e+00 -3.085698440437544043e+00
7.802765722123987224e+00 -3.068335568024462834e+00
7.868335181973768577e+00 -3.085823839136258684e+00
7.933904641823550818e+00 -3.097973831677456769e+00
7.999474101673332171e+00 -3.085770653987980783e+00
8.065043561523113524e+00 -3.073677932956309977e+00
8.130613021372894877e+00 -3.077452846735662551e+00
8.196182481222674454e+00 -3.103123021980773721e+00
8.261751941072457583e+00 -3.144157686836846821e+00
8.327321400922238936e+00 -3.188836569191154435e+00
8.392890860772020289e+00 -3.198840738853337307e+00
