0.000000000000000000e+00 -1.549019599857431873e-01
6.956776197482654467e-02 -2.011716336189818266e-01
1.391355239496530893e-01 -5.337397917312067808e-01
2.087032859244796479e-01 -2.275207638632177343e+00
2.782710478993061787e-01 -3.538883650804499847e+00
3.478388098741327372e-01 -3.415667847795308187e+00
4.174065718489592958e-01 -3.521464808787833967e+00
4.869743338237857988e-01 -3.547153134235692562e+00
5.565420957986123573e-01 -3.575372124458743084e+00
6.261098577734388604e-01 -3.607213713573104830e+00
6.956776197482654744e-01 -3.662211016430581445e+00
7.652453817230919775e-01 -3.703747053944125067e+00
8.348131436979185915e-01 -3.722887763598573319e+00
9.043809056727452056e-01 -3.745894896674186292e+00
9.739486676475715976e-01 -3.817035443486181734e+00
1.043516429622398212e+00 -3.913827947330648982e+00
1.113084191597224715e+00 -3.951879484997273817e+00
1.182651953572051440e+00 -3.928864310986105224e+00
1.252219715546877721e+00 -3.874946917887266196e+00
1.321787477521704224e+00 -3.764165195125611874e+00
1.391355239496530949e+00 -3.604872531707457028e+00
1.460923001471357452e+00 -3.440380608710482235e+00
1.530490763446183955e+00 -3.302676325357984499e+00
1.600058525421010458e+00 -3.168155511559227921e+00
1.669626287395837183e+00 -2.993848769125934339e+00
1.739194049370663686e+00 -2.837801574550972372e+00
1.808761811345490411e+00 -2.796688228983716940e+00
1.878329573320316692e+00 -2.827533850681835048e+00
1.947897335295143195e+00 -2.832746936308982111e+00
2.017465097269969920e+00 -2.862906785929113962e+00
2.087032859244796423e+00 -2.929634206333433522e+00
2.156600621219622926e+00 -2.982388690343459103e+00
2.226168383194449429e+00 -2.967264573360752777e+00
2.295736145169275932e+00 -2.992367957696762559e+00
2.365303907144102880e+00 -3.078361682281621103e+00
2.434871669118928939e+00 -3.138662895044228129e+00
2.504439431093755442e+00 -3.118484840613536591e+00
2.574007193068582389e+00 -3.060837092929065584e+00
2.643574955043408448e+00 -3.013071384767269212e+00
2.713142717018235395e+00 -3.010825096700493031e+00
2.782710478993061898e+00 -3.048570005979225783e+00
2.852278240967887957e+00 -3.069968251964425576e+00
2.921846002942714904e+00 -3.052874343722240091e+00
2.991413764917541407e+00 -3.076814106271294147e+00
3.060981526892367910e+00 -3.090840744245193505e+00
3.130549288867194413e+00 -3.058901030215610550e+00
3.200117050842020916e+00 -2.996172120878106693e+00
3.269684812816847863e+00 -2.973688889581037831e+00
3.339252574791674366e+00 -3.009479962336969905e+00
3.408820336766500425e+00 -3.029695685145743056e+00
3.478388098741327372e+00 -3.038428007072047521e+00
3.547955860716153875e+00 -3.027163009698436102e+00
3.617523622690980822e+00 -3.031704083848668407e+00
3.687091384665806881e+00 -3.006113475509684108e+00
3.756659146640633384e+00 -2.964439186737763521e+00
3.826226908615460331e+00 -2.943674081668234077e+00
3.895794670590286390e+00 -2.965901808487428237e+00
3.965362432565112893e+00 -3.030084469837896588e+00
4.034930194539939841e+00 -3.069521108183311142e+00
4.104497956514766344e+00 -3.100413294555792731e+00
4.174065718489592847e+00 -3.100129531942823036e+00
4.243633480464419350e+00 -3.086000590858959391e+00
4.313201242439245853e+00 -3.084052877107421597e+00
4.382769004414072356e+00 -3.097268580245667646e+00
4.452336766388898859e+00 -3.095155565101876505e+00
4.521904528363725362e+00 -3.084971539146690755e+00
4.591472290338551865e+00 -3.065661218992876247e+00
4.661040052313378368e+00 -3.077887084239683269e+00
4.730607814288205759e+00 -3.092640492835546873e+00
4.800175576263031374e+00 -3.092762126093889119e+00
4.869743338237857877e+00 -3.081326086784642371e+00
4.939311100212685268e+00 -3.053961930154204030e+00
5.008878862187510883e+00 -3.037426086988630924e+00
5.078446624162337386e+00 -3.052151188889497213e+00
5.148014386137164777e+00 -3.087389866214301115e+00
5.217582148111991280e+00 -3.123007944472177222e+00
5.287149910086816895e+00 -3.153337820714045225e+00
5.356717672061644286e+00 -3.175853467258738405e+00
5.426285434036470789e+00 -3.162888466867848081e+00
5.495853196011297293e+00 -3.118184516858467425e+00
5.565420957986123796e+00 -3.072106997352221036e+00
5.634988719960950299e+00 -3.048560755718316528e+00
5.704556481935775913e+00 -3.046647538289057433e+00
5.774124243910604193e+00 -3.034519277269197790e+00
5.843692005885429808e+00 -3.023894984626336768e+00
5.913259767860256311e+00 -3.025362879336550126e+00
5.982827529835082814e+00 -3.048124402282232914e+00
6.052395291809909317e+00 -3.082074146452094432e+00
6.121963053784735820e+00 -3.096979844598489517e+00
6.191530815759563211e+00 -3.097688369396462527e+00
6.261098577734388826e+00 -3.094299196064785651e+00
6.330666339709215329e+00 -3.110954673552110528e+00
6.400234101684041832e+00 -3.128727768200704862e+00
6.469801863658868335e+00 -3.138350654643671245e+00
6.539369625633695726e+00 -3.153003087076337696e+00
6.608937387608522229e+00 -3.159194508087362685e+00
6.678505149583348732e+00 -3.147339312648194998e+00
6.748072911558174347e+00 -3.140385482883606194e+00
6.817640673533000850e+00 -3.119069502567128893e+00
6.887208435507828241e+00 -3.117783804459144825e+00
6.956776197482654744e+00 -3.138366141012735699e+00
7.026343959457481247e+00 -3.166674184938837566e+00
7.095911721432307750e+00 -3.196144389929524543e+00
7.165479483407134254e+00 -3.194426531936971347e+00
7.235047245381961645e+00 -3.180650122358292364e+00
7.304615007356787260e+00 -3.150223726020968229e+00
7.374182769331613763e+00 -3.137061738475734440e+00
7.443750531306440266e+00 -3.141283105098017447e+00
7.513318293281266769e+00 -3.142123079854160395e+00
7.582886055256093272e+00 -3.146256283694270905e+00
7.652453817230920663e+00 -3.161241177488398613e+00
7.722021579205747166e+00 -3.174749187385917271e+00
7.791589341180572781e+00 -3.182692710711795048e+00
7.861157103155399284e+00 -3.180757834699956543e+00
7.930724865130225787e+00 -3.194664148718284302e+00
8.000292627105054066e+00 -3.192548460502656837e+00
8.069860389079879681e+00 -3.178552963338529214e+00
8.139428151054705296e+00 -3.149888935188505545e+00
8.208995913029532687e+00 -3.150675514596238180e+00
8.278563675004358302e+00 -3.171904173139951766e+00
8.348131436979185693e+00 -3.181331217885696727e+00
8.417699198954013085e+00 -3.176588640164934585e+00
8.487266960928838699e+00 -3.173497592439415538e+00
8.556834722903664314e+00 -3.186352140603165850e+00
8.626402484878491705e+00 -3.209271417130994841e+00
8.695970246853317320e+00 -3.245626257738039921e+00
8.765538008828144712e+00 -3.257928121919141606e+00
8.835105770802972103e+00 -3.234526416067501575e+00
8.904673532777797718e+00 -3.214483054837967035e+00
