0.000000000000000000e+00 -1.549019599857431873e-01
6.956776197482654467e-02 -1.827561870141672928e-01
1.391355239496530893e-01 -4.326978809281215033e-01
2.087032859244796479e-01 -1.638287870235321630e+00
2.782710478993061787e-01 -3.472796155007778829e+00
3.478388098741327372e-01 -3.853795270848309418e+00
4.174065718489592958e-01 -3.468388921681641701e+00
4.869743338237857988e-01 -3.392765867485375342e+00
5.565420957986123573e-01 -3.398916105672123766e+00
6.261098577734388604e-01 -3.485474867379563690e+00
6.956776197482654744e-01 -3.595562375918770037e+00
7.652453817230919775e-01 -3.675190251350288317e+00
8.348131436979185915e-01 -3.740659305727669803e+00
9.043809056727452056e-01 -3.831143840243695475e+00
9.739486676475715976e-01 -3.931706280476657600e+00
1.043516429622398212e+00 -3.995291580658238750e+00
1.113084191597224715e+00 -3.985905228485966401e+00
1.182651953572051440e+00 -3.945485025379224187e+00
1.252219715546877721e+00 -3.854903621072986564e+00
1.321787477521704224e+00 -3.722691388675309021e+00
1.391355239496530949e+00 -3.546657175206874513e+00
1.460923001471357452e+00 -3.390196021051728348e+00
1.530490763446183955e+00 -3.232003168530849013e+00
1.600058525421010458e+00 -3.076838119737897337e+00
1.669626287395837183e+00 -2.948745682031264082e+00
1.739194049370663686e+00 -2.863299431952224250e+00
1.808761811345490411e+00 -2.824407941086767959e+00
1.878329573320316692e+00 -2.817362851027857218e+00
1.947897335295143195e+00 -2.825890824750443286e+00
2.017465097269969920e+00 -2.857358249662978356e+00
2.087032859244796423e+00 -2.884662013960437310e+00
2.156600621219622926e+00 -2.917021733926364657e+00
2.226168383194449429e+00 -2.975646110816011269e+00
2.295736145169275932e+00 -3.019488908325108412e+00
2.365303907144102880e+00 -3.024012890030943534e+00
2.434871669118928939e+00 -3.032128995135230820e+00
2.504439431093755442e+00 -3.053167368060574649e+00
2.574007193068582389e+00 -3.094151874369230448e+00
2.643574955043408448e+00 -3.098043791903743571e+00
2.713142717018235395e+00 -3.100613217190717918e+00
2.782710478993061898e+00 -3.089891988107133614e+00
2.852278240967887957e+00 -3.071823895870436694e+00
2.921846002942714904e+00 -3.043416572198337278e+00
2.991413764917541407e+00 -3.020478871751608896e+00
3.060981526892367910e+00 -3.022630720373283175e+00
3.130549288867194413e+00 -3.014298414755058442e+00
3.200117050842020916e+00 -2.985803140314523318e+00
3.269684812816847863e+00 -2.985930070086553201e+00
3.339252574791674366e+00 -2.998748861914748876e+00
3.408820336766500425e+00 -3.007114122605993867e+00
3.478388098741327372e+00 -2.996972698608848518e+00
3.547955860716153875e+00 -2.982092693073677303e+00
3.617523622690980822e+00 -2.987062303295494825e+00
3.687091384665806881e+00 -2.992522499907062095e+00
3.756659146640633384e+00 -3.023691339648340914e+00
3.826226908615460331e+00 -3.038409622260549892e+00
3.895794670590286390e+00 -3.054895736136334250e+00
3.965362432565112893e+00 -3.083391372449711731e+00
4.034930194539939841e+00 -3.095442993759058403e+00
4.104497956514766344e+00 -3.088929253460372948e+00
4.174065718489592847e+00 -3.057402653458270336e+00
4.243633480464419350e+00 -3.039499405559474177e+00
4.313201242439245853e+00 -3.042198497049534822e+00
4.382769004414072356e+00 -3.044166202926116505e+00
4.452336766388898859e+00 -3.039671693287052001e+00
4.521904528363725362e+00 -3.023472710381930106e+00
4.591472290338551865e+00 -3.018475063326230945e+00
4.661040052313378368e+00 -3.026214189210842953e+00
4.730607814288205759e+00 -3.033110946694841381e+00
4.800175576263031374e+00 -3.056787391181813973e+00
4.869743338237857877e+00 -3.066449057081432894e+00
4.939311100212685268e+00 -3.051395872450836766e+00
5.008878862187510883e+00 -3.031974797956072276e+00
5.078446624162337386e+00 -3.028943627989363119e+00
5.148014386137164777e+00 -3.050934448400957066e+00
5.217582148111991280e+00 -3.092404738715575085e+00
5.287149910086816895e+00 -3.103891922698523764e+00
5.356717672061644286e+00 -3.103659181705244130e+00
5.426285434036470789e+00 -3.094935514230341411e+00
5.495853196011297293e+00 -3.072306305497023438e+00
5.565420957986123796e+00 -3.045068546722251579e+00
5.634988719960950299e+00 -3.024402204540515005e+00
5.704556481935775913e+00 -3.021358395667389285e+00
5.774124243910604193e+00 -3.047842646132661759e+00
5.843692005885429808e+00 -3.084468618200606471e+00
5.913259767860256311e+00 -3.111315189905444534e+00
5.982827529835082814e+00 -3.145405073025517861e+00
6.052395291809909317e+00 -3.162614135975080121e+00
6.121963053784735820e+00 -3.153232452814807019e+00
6.191530815759563211e+00 -3.157459400704047070e+00
6.261098577734388826e+00 -3.151866728599412859e+00
6.330666339709215329e+00 -3.130886637749953572e+00
6.400234101684041832e+00 -3.109538479759340834e+00
6.469801863658868335e+00 -3.093816198196849054e+00
6.539369625633695726e+00 -3.089079442148348953e+00
6.608937387608522229e+00 -3.098513986258762731e+00
6.678505149583348732e+00 -3.102394130972273345e+00
6.748072911558174347e+00 -3.094566651723892559e+00
6.817640673533000850e+00 -3.097447497710954956e+00
6.887208435507828241e+00 -3.097027451046241442e+00
6.956776197482654744e+00 -3.105526193087342790e+00
7.026343959457481247e+00 -3.090881245193263016e+00
7.095911721432307750e+00 -3.081935371081549579e+00
7.165479483407134254e+00 -3.087465580001265142e+00
7.235047245381961645e+00 -3.090772462032517875e+00
7.304615007356787260e+00 -3.087759141613422020e+00
7.374182769331613763e+00 -3.088826763146133469e+00
7.443750531306440266e+00 -3.085771649132564853e+00
7.513318293281266769e+00 -3.076859022424661916e+00
7.582886055256093272e+00 -3.062330136793916857e+00
7.652453817230920663e+00 -3.084013033212382737e+00
7.722021579205747166e+00 -3.106872562108676128e+00
7.791589341180572781e+00 -3.118466412246733821e+00
7.861157103155399284e+00 -3.122262684502305596e+00
7.930724865130225787e+00 -3.111729412498527303e+00
8.000292627105054066e+00 -3.114840795998846890e+00
8.069860389079879681e+00 -3.131373502553049359e+00
8.139428151054705296e+00 -3.141340686765451640e+00
8.208995913029532687e+00 -3.154444951952493081e+00
8.278563675004358302e+00 -3.172432433149917852e+00
8.348131436979185693e+00 -3.208567057296193070e+00
8.417699198954013085e+00 -3.202177712747860561e+00
8.487266960928838699e+00 -3.176845531173765558e+00
8.556834722903664314e+00 -3.181951654993264267e+00
8.626402484878491705e+00 -3.187573924762361344e+00
8.695970246853317320e+00 -3.174167000714577913e+00
8.765538008828144712e+00 -3.162234874826338249e+00
8.835105770802972103e+00 -3.169490718678872110e+00
8.904673532777797718e+00 -3.172104356159570315e+00
