0.000000000000000000e+00 -1.549019599857431873e-01
6.956776197482654467e-02 -1.877378096505239180e-01
1.391355239496530893e-01 -5.195976410083975594e-01
2.087032859244796479e-01 -1.890961516515945018e+00
2.782710478993061787e-01 -3.225118891453542247e+00
3.478388098741327372e-01 -3.693142338362788379e+00
4.174065718489592958e-01 -3.632809567561561259e+00
4.869743338237857988e-01 -3.603229123343512974e+00
5.565420957986123573e-01 -3.600196050141183157e+00
6.261098577734388604e-01 -3.639000597398395875e+00
6.956776197482654744e-01 -3.622443010372606853e+00
7.652453817230919775e-01 -3.609210716180398126e+00
8.348131436979185915e-01 -3.574799590350856704e+00
9.043809056727452056e-01 -3.563477544306786982e+00
9.739486676475715976e-01 -3.662055267746436638e+00
1.043516429622398212e+00 -3.826569466379544870e+00
1.113084191597224715e+00 -3.959112277827387505e+00
1.182651953572051440e+00 -3.983233042402367641e+00
1.252219715546877721e+00 -3.874725161962045750e+00
1.321787477521704224e+00 -3.701600268024717089e+00
1.391355239496530949e+00 -3.522958104608377994e+00
1.460923001471357452e+00 -3.401450740288004315e+00
1.530490763446183955e+00 -3.233728468433648473e+00
1.600058525421010458e+00 -3.063803141812975195e+00
1.669626287395837183e+00 -2.871279508669251967e+00
1.739194049370663686e+00 -2.737543149377300811e+00
1.808761811345490411e+00 -2.701057001509723499e+00
1.878329573320316692e+00 -2.735898624522403288e+00
1.947897335295143195e+00 -2.782095836110768605e+00
2.017465097269969920e+00 -2.817665127944795067e+00
2.087032859244796423e+00 -2.787639604515927960e+00
2.156600621219622926e+00 -2.789819781098009432e+00
2.226168383194449429e+00 -2.857622038005575238e+00
2.295736145169275932e+00 -2.956586543799370137e+00
2.365303907144102880e+00 -3.044513631464698111e+00
2.434871669118928939e+00 -3.134115898567187308e+00
2.504439431093755442e+00 -3.208904665771567633e+00
2.574007193068582389e+00 -3.194320597389706862e+00
2.643574955043408448e+00 -3.148274623942547201e+00
2.713142717018235395e+00 -3.104442677779481130e+00
2.782710478993061898e+00 -3.066867535562696201e+00
2.852278240967887957e+00 -3.055760084739842064e+00
2.921846002942714904e+00 -3.083075023898317113e+00
2.991413764917541407e+00 -3.114676141645262852e+00
3.060981526892367910e+00 -3.102762659511785426e+00
3.130549288867194413e+00 -3.067942183167787995e+00
3.200117050842020916e+00 -3.044981563953297332e+00
3.269684812816847863e+00 -3.009762799080283546e+00
3.339252574791674366e+00 -2.963326210803998606e+00
3.408820336766500425e+00 -2.954614853995582102e+00
3.478388098741327372e+00 -2.986349212942703168e+00
3.547955860716153875e+00 -3.026821309255082415e+00
3.617523622690980822e+00 -3.015532049884305454e+00
3.687091384665806881e+00 -2.982396940042479017e+00
3.756659146640633384e+00 -2.986249147966469231e+00
3.826226908615460331e+00 -2.997143273898736027e+00
3.895794670590286390e+00 -3.019440892149557243e+00
3.965362432565112893e+00 -3.016370450910461631e+00
4.034930194539939841e+00 -3.006408891350395685e+00
4.104497956514766344e+00 -3.017202687100719150e+00
4.174065718489592847e+00 -3.021878525400587101e+00
4.243633480464419350e+00 -3.038730194212187374e+00
4.313201242439245853e+00 -3.051548636168897932e+00
4.382769004414072356e+00 -3.073937325025942080e+00
4.452336766388898859e+00 -3.079178538865745551e+00
4.521904528363725362e+00 -3.068634044005833061e+00
4.591472290338551865e+00 -3.029643695867952680e+00
4.661040052313378368e+00 -3.007104551539728554e+00
4.730607814288205759e+00 -3.029320531541890293e+00
4.800175576263031374e+00 -3.071567455400236124e+00
4.869743338237857877e+00 -3.097164346429273074e+00
4.939311100212685268e+00 -3.092691236862158632e+00
5.008878862187510883e+00 -3.083775265574276947e+00
5.078446624162337386e+00 -3.067245466093325046e+00
5.148014386137164777e+00 -3.023125102606830428e+00
5.217582148111991280e+00 -2.993973625079720424e+00
5.287149910086816895e+00 -2.994758240243577951e+00
5.356717672061644286e+00 -3.031307885226337540e+00
5.426285434036470789e+00 -3.046432170606830692e+00
5.495853196011297293e+00 -3.046187121849560420e+00
5.565420957986123796e+00 -3.039071820572836646e+00
5.634988719960950299e+00 -3.044965733094292748e+00
5.704556481935775913e+00 -3.044841957586651215e+00
5.774124243910604193e+00 -3.048192334067798104e+00
5.843692005885429808e+00 -3.063961488788133902e+00
5.913259767860256311e+00 -3.062993876589884312e+00
5.982827529835082814e+00 -3.046836019254615557e+00
6.052395291809909317e+00 -3.062718179299799726e+00
6.121963053784735820e+00 -3.095487914521620088e+00
6.191530815759563211e+00 -3.115661973452716005e+00
6.261098577734388826e+00 -3.103751442133903193e+00
6.330666339709215329e+00 -3.089979212272259357e+00
6.400234101684041832e+00 -3.091150737120710978e+00
6.469801863658868335e+00 -3.097245106034051343e+00
6.539369625633695726e+00 -3.094961168994481593e+00
6.608937387608522229e+00 -3.089596670633132813e+00
6.678505149583348732e+00 -3.111267920064588743e+00
6.748072911558174347e+00 -3.147190265644009166e+00
6.817640673533000850e+00 -3.149108556138758175e+00
6.887208435507828241e+00 -3.116876006010765643e+00
6.956776197482654744e+00 -3.088739249694419708e+00
7.026343959457481247e+00 -3.083322527290061732e+00
7.095911721432307750e+00 -3.092601757038957899e+00
7.165479483407134254e+00 -3.109317702645807646e+00
7.235047245381961645e+00 -3.135748014764651259e+00
7.304615007356787260e+00 -3.172502183664946074e+00
7.374182769331613763e+00 -3.172519343822894466e+00
7.443750531306440266e+00 -3.125026573975485000e+00
7.513318293281266769e+00 -3.080322131713716161e+00
7.582886055256093272e+00 -3.071715261888324555e+00
7.652453817230920663e+00 -3.095608590019146344e+00
7.722021579205747166e+00 -3.153345275180152285e+00
7.791589341180572781e+00 -3.199258259541989169e+00
7.861157103155399284e+00 -3.190188527419191455e+00
7.930724865130225787e+00 -3.160796662618186925e+00
8.000292627105054066e+00 -3.139627173012353278e+00
8.069860389079879681e+00 -3.134863790812755457e+00
8.139428151054705296e+00 -3.135930502249926199e+00
8.208995913029532687e+00 -3.135813805710551350e+00
8.278563675004358302e+00 -3.155788713039695992e+00
8.348131436979185693e+00 -3.167533823694560713e+00
8.417699198954013085e+00 -3.168437801847599822e+00
8.487266960928838699e+00 -3.155319680046462238e+00
8.556834722903664314e+00 -3.147302580432940200e+00
8.626402484878491705e+00 -3.163586885440751395e+00
8.695970246853317320e+00 -3.183942155957388387e+00
8.765538008828144712e+00 -3.196429329509499873e+00
8.835105770802972103e+00 -3.202177834816015256e+00
8.904673532777797718e+00 -3.205783253806110178e+00
