0.000000000000000000e+00 -1.549019599857431873e-01
5.401496052276619220e-02 -1.840212066572302352e-01
1.080299210455323844e-01 -4.591376255803758522e-01
1.620448815682985766e-01 -1.856455825097641954e+00
2.160598420910647688e-01 -2.832772729312987625e+00
2.700748026138309332e-01 -3.493680765683225609e+00
3.240897631365971532e-01 -3.735584345899980896e+00
3.781047236593633176e-01 -3.698722663898881269e+00
4.321196841821295376e-01 -3.597714667109417341e+00
4.861346447048957020e-01 -3.586545873627537073e+00
5.401496052276618665e-01 -3.603761372791114415e+00
5.941645657504279754e-01 -3.642907050283373138e+00
6.481795262731943064e-01 -3.648833764064895124e+00
7.021944867959605263e-01 -3.642914060756338834e+00
7.562094473187266352e-01 -3.638323700523077964e+00
8.102244078414927442e-01 -3.708276483755773345e+00
8.642393683642590752e-01 -3.832480126243175800e+00
9.182543288870252951e-01 -3.941501576199506029e+00
9.722692894097914040e-01 -3.954947780689954673e+00
1.026284249932557513e+00 -3.903643288802271183e+00
1.080299210455323733e+00 -3.836319431506154842e+00
1.134314170978089953e+00 -3.796796606903706461e+00
1.188329131500855951e+00 -3.831120898906759109e+00
1.242344092023622393e+00 -3.906798236499579247e+00
1.296359052546388613e+00 -3.914795227379881837e+00
1.350374013069154833e+00 -3.864597087271307352e+00
1.404388973591921053e+00 -3.757786013464456065e+00
1.458403934114687051e+00 -3.643845021618407731e+00
1.512418894637453270e+00 -3.519796969024339806e+00
1.566433855160219490e+00 -3.408853062649388033e+00
1.620448815682985488e+00 -3.287966594124649422e+00
1.674463776205751930e+00 -3.161437376272802524e+00
1.728478736728518150e+00 -3.066589388166646390e+00
1.782493697251284370e+00 -3.018101600575915366e+00
1.836508657774050590e+00 -2.954878449694066322e+00
1.890523618296816588e+00 -2.869679620977654722e+00
1.944538578819582808e+00 -2.800562169647236033e+00
1.998553539342349028e+00 -2.787457023643521659e+00
2.052568499865115026e+00 -2.790118743806819790e+00
2.106583460387881246e+00 -2.795953334256742639e+00
2.160598420910647466e+00 -2.802116371989459065e+00
2.214613381433413686e+00 -2.818402114984443596e+00
2.268628341956179906e+00 -2.868613677114843608e+00
2.322643302478946126e+00 -2.932988176000979053e+00
2.376658263001711902e+00 -3.003443628174014446e+00
2.430673223524478566e+00 -3.058372695323428037e+00
2.484688184047244786e+00 -3.078351413827281835e+00
2.538703144570011005e+00 -3.096943851827264282e+00
2.592718105092777225e+00 -3.129903881624211071e+00
2.646733065615543001e+00 -3.152323452292686845e+00
2.700748026138309665e+00 -3.173726489756564018e+00
2.754762986661075441e+00 -3.199334343056336127e+00
2.808777947183842105e+00 -3.202657494258561943e+00
2.862792907706608325e+00 -3.180366960095532214e+00
2.916807868229374101e+00 -3.168068601259994121e+00
2.970822828752140765e+00 -3.171733255016481401e+00
3.024837789274906541e+00 -3.175851575679740524e+00
3.078852749797672761e+00 -3.164842778466047779e+00
3.132867710320438981e+00 -3.118021381378046186e+00
3.186882670843205201e+00 -3.061308951443911575e+00
3.240897631365970977e+00 -3.023931204205066781e+00
3.294912591888737641e+00 -2.990454905362991855e+00
3.348927552411503861e+00 -2.966603433020378322e+00
3.402942512934270081e+00 -2.971999699568513176e+00
3.456957473457036301e+00 -2.979814891579346980e+00
3.510972433979802076e+00 -2.976915237715402451e+00
3.564987394502568741e+00 -3.002442010011682427e+00
3.619002355025334516e+00 -3.038401699561159131e+00
3.673017315548101180e+00 -3.041213655190528886e+00
3.727032276070866956e+00 -3.041482015338175859e+00
3.781047236593633176e+00 -3.032223679897219082e+00
3.835062197116399840e+00 -3.005491774119224857e+00
3.889077157639165616e+00 -2.983796043307521906e+00
3.943092118161931836e+00 -3.002696159008431565e+00
3.997107078684698056e+00 -3.033002486572297762e+00
4.051122039207464276e+00 -3.027104562649285402e+00
4.105136999730230052e+00 -3.025182325610831668e+00
4.159151960252996716e+00 -3.028106081176382247e+00
4.213166920775762492e+00 -3.045802232148066224e+00
4.267181881298529156e+00 -3.069768217291602763e+00
4.321196841821294932e+00 -3.107052871298784602e+00
4.375211802344061596e+00 -3.137090158810023066e+00
4.429226762866827372e+00 -3.140527948135306335e+00
4.483241723389594036e+00 -3.123892415066768624e+00
4.537256683912359811e+00 -3.118664501135068878e+00
4.591271644435126476e+00 -3.134238751185582039e+00
4.645286604957892251e+00 -3.152931094656105770e+00
4.699301565480658027e+00 -3.167249795691205794e+00
4.753316526003423803e+00 -3.178583115459405750e+00
4.807331486526191355e+00 -3.175833901831348616e+00
4.861346447048957131e+00 -3.160795108137402387e+00
4.915361407571722907e+00 -3.140771054713760613e+00
4.969376368094489571e+00 -3.143530919637930854e+00
5.023391328617255347e+00 -3.130115697702428257e+00
5.077406289140022011e+00 -3.107450133968221451e+00
5.131421249662787787e+00 -3.078187194351309941e+00
5.185436210185554451e+00 -3.081225682508218267e+00
5.239451170708320227e+00 -3.085397868498746643e+00
5.293466131231086003e+00 -3.093219141042524711e+00
5.347481091753853555e+00 -3.121581051744409141e+00
5.401496052276619331e+00 -3.158663988741781559e+00
5.455511012799385107e+00 -3.171530970663367199e+00
5.509525973322150882e+00 -3.159592557399539370e+00
5.563540933844917546e+00 -3.149280246524135851e+00
5.617555894367684211e+00 -3.130907491571486734e+00
5.671570854890449986e+00 -3.106079547542886843e+00
5.725585815413216650e+00 -3.073939911873912134e+00
5.779600775935982426e+00 -3.055376833954457805e+00
5.833615736458748202e+00 -3.073240404141298843e+00
5.887630696981513978e+00 -3.108651582699324845e+00
5.941645657504281530e+00 -3.150677157511270199e+00
5.995660618027047306e+00 -3.165640463275674055e+00
6.049675578549813082e+00 -3.160488664554525595e+00
6.103690539072578858e+00 -3.141809692327750092e+00
6.157705499595345522e+00 -3.135023853710139363e+00
6.211720460118112186e+00 -3.152132515145950276e+00
6.265735420640877962e+00 -3.176992850887452313e+00
6.319750381163644626e+00 -3.199229446324373782e+00
6.373765341686410402e+00 -3.206143764590843048e+00
6.427780302209176178e+00 -3.184884349632216338e+00
6.481795262731941953e+00 -3.151023834262733914e+00
6.535810223254709506e+00 -3.131052556157223776e+00
6.589825183777475281e+00 -3.118055000594512460e+00
6.643840144300241057e+00 -3.114332336958235636e+00
6.697855104823007721e+00 -3.132125037281189073e+00
6.751870065345773497e+00 -3.148759153671413014e+00
6.805885025868540161e+00 -3.152492312280096076e+00
6.859899986391305937e+00 -3.156901980136109565e+00
6.913914946914072601e+00 -3.154513674557960279e+00
