0.000000000000000000e+00 -1.549019599857431873e-01
5.401496052276619220e-02 -1.639247603147526988e-01
1.080299210455323844e-01 -3.074875620172701218e-01
1.620448815682985766e-01 -9.578007357467500649e-01
2.160598420910647688e-01 -2.213003320513664551e+00
2.700748026138309332e-01 -2.902387895317188882e+00
3.240897631365971532e-01 -3.482298445232095752e+00
3.781047236593633176e-01 -3.617283916064347515e+00
4.321196841821295376e-01 -3.768851191429629210e+00
4.861346447048957020e-01 -3.790330257393059732e+00
5.401496052276618665e-01 -3.845792521787065876e+00
5.941645657504279754e-01 -3.869044232701511987e+00
6.481795262731943064e-01 -3.895367831888490340e+00
7.021944867959605263e-01 -3.920634018808236476e+00
7.562094473187266352e-01 -3.966375589592222362e+00
8.102244078414927442e-01 -3.965515300611563543e+00
8.642393683642590752e-01 -3.934943034026162412e+00
9.182543288870252951e-01 -3.881142023151714859e+00
9.722692894097914040e-01 -3.852296382906715611e+00
1.026284249932557513e+00 -3.858342698975482765e+00
1.080299210455323733e+00 -3.848412930674243171e+00
1.134314170978089953e+00 -3.830305501759583287e+00
1.188329131500855951e+00 -3.834351683648367093e+00
1.242344092023622393e+00 -3.866096452636568426e+00
1.296359052546388613e+00 -3.917044275776565776e+00
1.350374013069154833e+00 -3.939232197055890339e+00
1.404388973591921053e+00 -3.918074594704199942e+00
1.458403934114687051e+00 -3.885959298530984984e+00
1.512418894637453270e+00 -3.789058596951976554e+00
1.566433855160219490e+00 -3.632595893136598253e+00
1.620448815682985488e+00 -3.405813473838464223e+00
1.674463776205751930e+00 -3.213335571170215399e+00
1.728478736728518150e+00 -3.063778376719361596e+00
1.782493697251284370e+00 -2.951749150355645668e+00
1.836508657774050590e+00 -2.874787134202707595e+00
1.890523618296816588e+00 -2.826093417600293201e+00
1.944538578819582808e+00 -2.792177984004163616e+00
1.998553539342349028e+00 -2.779322538085473138e+00
2.052568499865115026e+00 -2.803003243999294458e+00
2.106583460387881246e+00 -2.849158909291954256e+00
2.160598420910647466e+00 -2.877058651568011438e+00
2.214613381433413686e+00 -2.889525472465574563e+00
2.268628341956179906e+00 -2.917284390452310916e+00
2.322643302478946126e+00 -2.947758157178270721e+00
2.376658263001711902e+00 -2.966184284667975568e+00
2.430673223524478566e+00 -2.996596583484084864e+00
2.484688184047244786e+00 -3.038627416854978947e+00
2.538703144570011005e+00 -3.103757193551105242e+00
2.592718105092777225e+00 -3.172929848770038141e+00
2.646733065615543001e+00 -3.212939576366984351e+00
2.700748026138309665e+00 -3.215706457514932559e+00
2.754762986661075441e+00 -3.186364888067848344e+00
2.808777947183842105e+00 -3.171974704243889498e+00
2.862792907706608325e+00 -3.183354011691993612e+00
2.916807868229374101e+00 -3.186700617932975099e+00
2.970822828752140765e+00 -3.166575000743534929e+00
3.024837789274906541e+00 -3.126822037890836015e+00
3.078852749797672761e+00 -3.070925643514134329e+00
3.132867710320438981e+00 -3.034531474762487857e+00
3.186882670843205201e+00 -3.013684566618460181e+00
3.240897631365970977e+00 -3.019045787730123998e+00
3.294912591888737641e+00 -3.008225183624510191e+00
3.348927552411503861e+00 -2.981022086178653385e+00
3.402942512934270081e+00 -2.968408205939918609e+00
3.456957473457036301e+00 -2.996887437378866537e+00
3.510972433979802076e+00 -3.043039111570279953e+00
3.564987394502568741e+00 -3.045997290843185823e+00
3.619002355025334516e+00 -3.040288204710567932e+00
3.673017315548101180e+00 -3.032666603928446225e+00
3.727032276070866956e+00 -3.013390780681101777e+00
3.781047236593633176e+00 -3.004400768248101539e+00
3.835062197116399840e+00 -3.031441814132375789e+00
3.889077157639165616e+00 -3.056552331569292402e+00
3.943092118161931836e+00 -3.059071258365559487e+00
3.997107078684698056e+00 -3.033987940807751915e+00
4.051122039207464276e+00 -2.997380113572287286e+00
4.105136999730230052e+00 -2.995686710171458600e+00
4.159151960252996716e+00 -2.999418100831080736e+00
4.213166920775762492e+00 -2.998323671812406666e+00
4.267181881298529156e+00 -3.000635129154411107e+00
4.321196841821294932e+00 -3.030529099212784683e+00
4.375211802344061596e+00 -3.073152094686647740e+00
4.429226762866827372e+00 -3.091957130756243899e+00
4.483241723389594036e+00 -3.101964033774450957e+00
4.537256683912359811e+00 -3.109463997041008732e+00
4.591271644435126476e+00 -3.116615709873045148e+00
4.645286604957892251e+00 -3.132137360608796328e+00
4.699301565480658027e+00 -3.140236594419481442e+00
4.753316526003423803e+00 -3.131262731417151723e+00
4.807331486526191355e+00 -3.122884023548778920e+00
4.861346447048957131e+00 -3.117614778826960364e+00
4.915361407571722907e+00 -3.114393879615430460e+00
4.969376368094489571e+00 -3.123588479484792568e+00
5.023391328617255347e+00 -3.120825266753677774e+00
5.077406289140022011e+00 -3.116980887440984116e+00
5.131421249662787787e+00 -3.103049835604758666e+00
5.185436210185554451e+00 -3.088425688252073531e+00
5.239451170708320227e+00 -3.065620408883396930e+00
5.293466131231086003e+00 -3.041106090648290738e+00
5.347481091753853555e+00 -3.026959827176039397e+00
5.401496052276619331e+00 -3.036722878927126779e+00
5.455511012799385107e+00 -3.048364915678375642e+00
5.509525973322150882e+00 -3.038593921813811161e+00
5.563540933844917546e+00 -3.030330984373829750e+00
5.617555894367684211e+00 -3.039340677907693689e+00
5.671570854890449986e+00 -3.054044147605274873e+00
5.725585815413216650e+00 -3.067722495393197413e+00
5.779600775935982426e+00 -3.064666282336616643e+00
5.833615736458748202e+00 -3.077606598275773653e+00
5.887630696981513978e+00 -3.112542918768846256e+00
5.941645657504281530e+00 -3.156501977998328989e+00
5.995660618027047306e+00 -3.184499052674496955e+00
6.049675578549813082e+00 -3.173020077927732885e+00
6.103690539072578858e+00 -3.148475818153772199e+00
6.157705499595345522e+00 -3.125959280852407929e+00
6.211720460118112186e+00 -3.120016736799652524e+00
6.265735420640877962e+00 -3.133325214064958786e+00
6.319750381163644626e+00 -3.142370401630052434e+00
6.373765341686410402e+00 -3.138989148121592354e+00
6.427780302209176178e+00 -3.130552745290341221e+00
6.481795262731941953e+00 -3.113971060762140475e+00
6.535810223254709506e+00 -3.100264067512793265e+00
6.589825183777475281e+00 -3.094446046501490688e+00
6.643840144300241057e+00 -3.099613408301911122e+00
6.697855104823007721e+00 -3.117293087231179260e+00
6.751870065345773497e+00 -3.128680222744455008e+00
6.805885025868540161e+00 -3.121889656925153744e+00
6.859899986391305937e+00 -3.127441560414127686e+00
6.913914946914072601e+00 -3.129190106754763612e+00
