0.000000000000000000e+00 -1.549019599857431873e-01
6.436041287763981378e-02 -2.120843728557128272e-01
1.287208257552796276e-01 -6.495836299792975277e-01
1.930812386329194275e-01 -2.727521771437518616e+00
2.574416515105592551e-01 -3.152271287663217958e+00
3.218020643881990273e-01 -3.211747882116183117e+00
3.861624772658388549e-01 -3.295101570886599163e+00
4.505228901434786271e-01 -3.456143540298849626e+00
5.148833030211185102e-01 -3.595194414133539684e+00
5.792437158987582269e-01 -3.615928737512041913e+00
6.436041287763980545e-01 -3.563911001824954461e+00
7.079645416540377711e-01 -3.467917138795033161e+00
7.723249545316777098e-01 -3.447089220895716011e+00
8.366853674093175375e-01 -3.508538616021346979e+00
9.010457802869572541e-01 -3.574616098545278398e+00
9.654061931645970818e-01 -3.565081838273455261e+00
1.029766606042237020e+00 -3.522661484407547228e+00
1.094127018919876848e+00 -3.450680952344808983e+00
1.158487431797516454e+00 -3.331860025006633030e+00
1.222847844675156281e+00 -3.231480035041390142e+00
1.287208257552796109e+00 -3.156284807692046002e+00
1.351568670430435937e+00 -3.085576314410187315e+00
1.415929083308075542e+00 -3.018256360465533916e+00
1.480289496185715592e+00 -2.929094541836836818e+00
1.544649909063355420e+00 -2.803584664614762190e+00
1.609010321940995247e+00 -2.728279905047565013e+00
1.673370734818635075e+00 -2.733241661550010360e+00
1.737731147696274681e+00 -2.799193716037088997e+00
1.802091560573914508e+00 -2.829498833900293775e+00
1.866451973451554558e+00 -2.862274274360510518e+00
1.930812386329194164e+00 -2.919521865597510590e+00
1.995172799206833991e+00 -2.967504014814162261e+00
2.059533212084474041e+00 -2.970227581288616747e+00
2.123893624962113869e+00 -2.993415142653691685e+00
2.188254037839753696e+00 -3.045695724902412582e+00
2.252614450717393080e+00 -3.112320806483543478e+00
2.316974863595032907e+00 -3.125654681391876633e+00
2.381335276472673179e+00 -3.092244465810071841e+00
2.445695689350312563e+00 -3.061588348000152671e+00
2.510056102227952390e+00 -3.066071182342152923e+00
2.574416515105592218e+00 -3.080702835500057191e+00
2.638776927983232046e+00 -3.059949069360171858e+00
2.703137340860871873e+00 -2.982062280845582780e+00
2.767497753738511701e+00 -2.919159194522933820e+00
2.831858166616151085e+00 -2.904616287589159906e+00
2.896218579493791356e+00 -2.915649777290066691e+00
2.960578992371431184e+00 -2.923351448774636818e+00
3.024939405249071012e+00 -2.923985854027005615e+00
3.089299818126710839e+00 -2.934210936238943912e+00
3.153660231004350223e+00 -2.949086905329442843e+00
3.218020643881990495e+00 -2.968772960406378836e+00
3.282381056759630322e+00 -2.991038363952185808e+00
3.346741469637270150e+00 -2.985531838557793805e+00
3.411101882514909978e+00 -2.965439377311184455e+00
3.475462295392549361e+00 -2.964363749045193952e+00
3.539822708270189633e+00 -2.984849017576436392e+00
3.604183121147829016e+00 -3.006561592290454499e+00
3.668543534025468844e+00 -3.034460995157895358e+00
3.732903946903109116e+00 -3.040302471013586416e+00
3.797264359780748499e+00 -3.053804243765464665e+00
3.861624772658388327e+00 -3.060270400432652416e+00
3.925985185536028155e+00 -3.085444162372818599e+00
3.990345598413667982e+00 -3.104604956628793655e+00
4.054706011291307810e+00 -3.127444085188080258e+00
4.119066424168948082e+00 -3.109422262223224376e+00
4.183426837046587465e+00 -3.087966246476136156e+00
4.247787249924227737e+00 -3.047954599004579990e+00
4.312147662801867121e+00 -3.055631349728878732e+00
4.376508075679507392e+00 -3.051305778710919459e+00
4.440868488557146776e+00 -3.044326572238491124e+00
4.505228901434786160e+00 -3.018023879873188875e+00
4.569589314312426431e+00 -3.011784028724611595e+00
4.633949727190065815e+00 -3.019536179406106413e+00
4.698310140067706087e+00 -3.022922445049688989e+00
4.762670552945346358e+00 -3.016975385805730880e+00
4.827030965822985742e+00 -3.022129973251338253e+00
4.891391378700625125e+00 -3.049266073174588865e+00
4.955751791578265397e+00 -3.064869063425295970e+00
5.020112204455904781e+00 -3.046544543090265567e+00
5.084472617333545053e+00 -3.053192256022750239e+00
5.148833030211184436e+00 -3.059886809105739847e+00
5.213193443088823820e+00 -3.070708135712191478e+00
5.277553855966464091e+00 -3.068816213844592244e+00
5.341914268844104363e+00 -3.069801769024100846e+00
5.406274681721743747e+00 -3.078839956547635648e+00
5.470635094599384018e+00 -3.098728353339511354e+00
5.534995507477023402e+00 -3.109819589976375642e+00
5.599355920354662786e+00 -3.118957156969562661e+00
5.663716333232302169e+00 -3.113128004730796761e+00
5.728076746109943329e+00 -3.100548214815502579e+00
5.792437158987582713e+00 -3.106807902776973052e+00
5.856797571865222096e+00 -3.120397527278596428e+00
5.921157984742862368e+00 -3.098369110573364615e+00
5.985518397620501752e+00 -3.095635695074100191e+00
6.049878810498142023e+00 -3.118192869917906673e+00
6.114239223375782295e+00 -3.149068375865256009e+00
6.178599636253421679e+00 -3.153799261795094289e+00
6.242960049131061062e+00 -3.127729508429829774e+00
6.307320462008700446e+00 -3.130776571286664645e+00
6.371680874886341606e+00 -3.167262050611777902e+00
6.436041287763980989e+00 -3.173773094416150187e+00
6.500401700641620373e+00 -3.151114422083251654e+00
6.564762113519260645e+00 -3.145637652044771304e+00
6.629122526396900028e+00 -3.147086667666814552e+00
6.693482939274540300e+00 -3.123852487262964939e+00
6.757843352152180572e+00 -3.135389043243964835e+00
6.822203765029819955e+00 -3.165652121899232174e+00
6.886564177907459339e+00 -3.193205539092009548e+00
6.950924590785098722e+00 -3.199061161624098482e+00
7.015285003662738106e+00 -3.206043803884575993e+00
7.079645416540379266e+00 -3.185387619200373166e+00
7.144005829418018649e+00 -3.163154325218475282e+00
7.208366242295658033e+00 -3.168901514023271915e+00
7.272726655173298305e+00 -3.209555142809551675e+00
7.337087068050937688e+00 -3.224891268477140027e+00
7.401447480928577960e+00 -3.210571794889790720e+00
7.465807893806218232e+00 -3.180630465150682706e+00
7.530168306683857615e+00 -3.172590941644357176e+00
7.594528719561496999e+00 -3.194125186376465919e+00
7.658889132439136382e+00 -3.215864351429619461e+00
7.723249545316776654e+00 -3.194217254677625295e+00
7.787609958194416926e+00 -3.183260553143718141e+00
7.851970371072056309e+00 -3.206878966360970473e+00
7.916330783949696581e+00 -3.234838534204869553e+00
7.980691196827335965e+00 -3.239523445506428789e+00
8.045051609704975348e+00 -3.228979523748388480e+00
8.109412022582615620e+00 -3.205804487322102769e+00
8.173772435460255892e+00 -3.214085686082027049e+00
8.238132848337896164e+00 -3.239327951402726224e+00
