0.000000000000000000e+00 -1.549019599857431873e-01
6.436041287763981378e-02 -2.054966981279417182e-01
1.287208257552796276e-01 -5.440258116659137944e-01
1.930812386329194275e-01 -2.140739708031348609e+00
2.574416515105592551e-01 -3.203380971440046743e+00
3.218020643881990273e-01 -3.125644122119246582e+00
3.861624772658388549e-01 -3.159875380040711335e+00
4.505228901434786271e-01 -3.323085702517736273e+00
5.148833030211185102e-01 -3.492855584722085904e+00
5.792437158987582269e-01 -3.597262282124549237e+00
6.436041287763980545e-01 -3.666174101685825359e+00
7.079645416540377711e-01 -3.578522836090279657e+00
7.723249545316777098e-01 -3.508436624075234267e+00
8.366853674093175375e-01 -3.505263337885275554e+00
9.010457802869572541e-01 -3.529963058610407156e+00
9.654061931645970818e-01 -3.481922259013760179e+00
1.029766606042237020e+00 -3.437484918299091419e+00
1.094127018919876848e+00 -3.401258020146118444e+00
1.158487431797516454e+00 -3.333678728212035036e+00
1.222847844675156281e+00 -3.246202165310430932e+00
1.287208257552796109e+00 -3.179049522800912797e+00
1.351568670430435937e+00 -3.124858917525350943e+00
1.415929083308075542e+00 -3.045746363021282654e+00
1.480289496185715592e+00 -2.987859011895125150e+00
1.544649909063355420e+00 -2.950471135030341419e+00
1.609010321940995247e+00 -2.931881785176503108e+00
1.673370734818635075e+00 -2.912794440330386259e+00
1.737731147696274681e+00 -2.863799038440498101e+00
1.802091560573914508e+00 -2.852667628629434571e+00
1.866451973451554558e+00 -2.921418675430364598e+00
1.930812386329194164e+00 -3.043437531622285253e+00
1.995172799206833991e+00 -3.122907667850745916e+00
2.059533212084474041e+00 -3.137367063092025177e+00
2.123893624962113869e+00 -3.115648494503170163e+00
2.188254037839753696e+00 -3.090024618002163326e+00
2.252614450717393080e+00 -3.089637960960510021e+00
2.316974863595032907e+00 -3.089871496317357025e+00
2.381335276472673179e+00 -3.085166397714624864e+00
2.445695689350312563e+00 -3.059309583372620711e+00
2.510056102227952390e+00 -3.036829014951519579e+00
2.574416515105592218e+00 -3.008328769832235849e+00
2.638776927983232046e+00 -3.006205961940142224e+00
2.703137340860871873e+00 -3.037139323918593092e+00
2.767497753738511701e+00 -3.007683442810138885e+00
2.831858166616151085e+00 -2.978254456206748113e+00
2.896218579493791356e+00 -2.967250434644185031e+00
2.960578992371431184e+00 -2.990821016572265734e+00
3.024939405249071012e+00 -2.991230374941416859e+00
3.089299818126710839e+00 -2.986155529523028651e+00
3.153660231004350223e+00 -3.018736749306476508e+00
3.218020643881990495e+00 -3.049142642864201669e+00
3.282381056759630322e+00 -3.048421649955056267e+00
3.346741469637270150e+00 -3.042530579863787388e+00
3.411101882514909978e+00 -3.059155576541744193e+00
3.475462295392549361e+00 -3.054985492199857156e+00
3.539822708270189633e+00 -3.039901291730704447e+00
3.604183121147829016e+00 -3.043420897214860421e+00
3.668543534025468844e+00 -3.042472228925741096e+00
3.732903946903109116e+00 -3.018459231224646100e+00
3.797264359780748499e+00 -3.023658084823741543e+00
3.861624772658388327e+00 -3.048326702331008331e+00
3.925985185536028155e+00 -3.075933077749141376e+00
3.990345598413667982e+00 -3.068409191782949019e+00
4.054706011291307810e+00 -3.057333040649730993e+00
4.119066424168948082e+00 -3.088366208042434558e+00
4.183426837046587465e+00 -3.129831867947926227e+00
4.247787249924227737e+00 -3.144613917368308531e+00
4.312147662801867121e+00 -3.156232191386710628e+00
4.376508075679507392e+00 -3.182167535058362695e+00
4.440868488557146776e+00 -3.189154558567849129e+00
4.505228901434786160e+00 -3.129726594005721729e+00
4.569589314312426431e+00 -3.067762293229673531e+00
4.633949727190065815e+00 -3.043675911791774435e+00
4.698310140067706087e+00 -3.048097878294670160e+00
4.762670552945346358e+00 -3.047347067996851955e+00
4.827030965822985742e+00 -3.053603575846222107e+00
4.891391378700625125e+00 -3.048527430178566089e+00
4.955751791578265397e+00 -3.060868298892101880e+00
5.020112204455904781e+00 -3.045735848610913621e+00
5.084472617333545053e+00 -3.048202407490637089e+00
5.148833030211184436e+00 -3.081344121989498586e+00
5.213193443088823820e+00 -3.078237764941426757e+00
5.277553855966464091e+00 -3.061244209525512350e+00
5.341914268844104363e+00 -3.050288646615084254e+00
5.406274681721743747e+00 -3.042729423819050094e+00
5.470635094599384018e+00 -3.038855655291092805e+00
5.534995507477023402e+00 -3.055808442237485600e+00
5.599355920354662786e+00 -3.087636672322819020e+00
5.663716333232302169e+00 -3.093460222802054460e+00
5.728076746109943329e+00 -3.090724572148038973e+00
5.792437158987582713e+00 -3.089862105888979027e+00
5.856797571865222096e+00 -3.109513866368575297e+00
5.921157984742862368e+00 -3.120988786611832655e+00
5.985518397620501752e+00 -3.124742521241417492e+00
6.049878810498142023e+00 -3.125146640314604429e+00
6.114239223375782295e+00 -3.129170921890230606e+00
6.178599636253421679e+00 -3.125420524778740550e+00
6.242960049131061062e+00 -3.104583397957245250e+00
6.307320462008700446e+00 -3.098696428041595397e+00
6.371680874886341606e+00 -3.106014253927609658e+00
6.436041287763980989e+00 -3.127915397000018416e+00
6.500401700641620373e+00 -3.137774341239829123e+00
6.564762113519260645e+00 -3.136380828638001272e+00
6.629122526396900028e+00 -3.126134889862453026e+00
6.693482939274540300e+00 -3.120572386645012131e+00
6.757843352152180572e+00 -3.129362076761856848e+00
6.822203765029819955e+00 -3.136567382709647411e+00
6.886564177907459339e+00 -3.149736581736428676e+00
6.950924590785098722e+00 -3.140565540611046202e+00
7.015285003662738106e+00 -3.130377268695724080e+00
7.079645416540379266e+00 -3.133537643311955723e+00
7.144005829418018649e+00 -3.149228047167759836e+00
7.208366242295658033e+00 -3.160038235424190489e+00
7.272726655173298305e+00 -3.148495060586625538e+00
7.337087068050937688e+00 -3.154852848842455870e+00
7.401447480928577960e+00 -3.182503253207767280e+00
7.465807893806218232e+00 -3.195094935472031494e+00
7.530168306683857615e+00 -3.183310036656292752e+00
7.594528719561496999e+00 -3.189573216405841016e+00
7.658889132439136382e+00 -3.201952145225809510e+00
7.723249545316776654e+00 -3.220991012782972618e+00
7.787609958194416926e+00 -3.247725659357870498e+00
7.851970371072056309e+00 -3.259016178825714150e+00
7.916330783949696581e+00 -3.244037357450417769e+00
7.980691196827335965e+00 -3.209997822057704120e+00
8.045051609704975348e+00 -3.194422122297695843e+00
8.109412022582615620e+00 -3.208415407017962906e+00
8.173772435460255892e+00 -3.240954879779933240e+00
8.238132848337896164e+00 -3.261932298508079864e+00
